  1.6280016e-002  1.6861787e-004  4.4150110e-003
  2.7008778e-002  0.0000000e+000  0.0000000e+000
  9.4295144e-003  0.0000000e+000  0.0000000e+000
  2.1773842e-003  2.2204460e-016  3.2967033e-002
  2.0806242e-002  1.1102230e-016  1.4134276e-002
  0.0000000e+000  4.1076934e-005  0.0000000e+000
  3.3250208e-002  0.0000000e+000  0.0000000e+000
  7.9106101e-003  0.0000000e+000  0.0000000e+000
  0.0000000e+000  1.1102230e-016  0.0000000e+000
  6.8374700e-002  0.0000000e+000  3.3536585e-002
  2.5548542e-002  2.8128076e-004  1.8292683e-001
  0.0000000e+000  0.0000000e+000  1.3029316e-002
  1.0191083e-002  0.0000000e+000  0.0000000e+000
  0.0000000e+000  2.2204460e-016  0.0000000e+000
  0.0000000e+000  2.2204460e-016  0.0000000e+000
  0.0000000e+000  2.2204460e-016  2.7397260e-002
  4.0302267e-002  0.0000000e+000  1.3986014e-002
  0.0000000e+000  0.0000000e+000  3.5156250e-002
  0.0000000e+000  1.1102230e-016  0.0000000e+000
  1.3239188e-002  2.2204460e-016  0.0000000e+000
  7.2470332e-003  2.2204460e-016  0.0000000e+000
  1.0221836e-002  8.4412179e-005  5.9642147e-003
  0.0000000e+000  8.1836121e-005  0.0000000e+000
  1.2232416e-002  7.9017320e-005  0.0000000e+000
  6.3041765e-003  0.0000000e+000  0.0000000e+000
  0.0000000e+000  0.0000000e+000  0.0000000e+000
  0.0000000e+000  2.2204460e-016  0.0000000e+000
