  0.0000000e+000  1.3484090e+005  8.4200000e+002
  0.0000000e+000  1.4498573e+005  4.3600000e+002
  0.0000000e+000  1.4284696e+005  5.7400000e+002
  0.0000000e+000  1.2736781e+005  1.2160000e+003
  0.0000000e+000  1.2826811e+005  1.2430000e+003
  0.0000000e+000  1.4220840e+005  4.9900000e+002
  3.9845630e+002  1.4073653e+005  8.0800000e+002
  0.0000000e+000  1.5120315e+005  1.1700000e+002
  0.0000000e+000  1.5892366e+005  1.6000000e+001
  0.0000000e+000  1.7556011e+005  0.0000000e+000
