  0.0000000e+000  7.3848000e+002  1.6000000e+001
  0.0000000e+000  8.0364000e+002  4.8000000e+001
  0.0000000e+000  2.8236000e+002  7.1000000e+001
  0.0000000e+000  0.0000000e+000  1.1700000e+002
  0.0000000e+000  0.0000000e+000  2.3700000e+002
  0.0000000e+000  7.8192000e+002  1.9000000e+001
  0.0000000e+000  4.1268000e+002  0.0000000e+000
  0.0000000e+000  4.1268000e+002  6.0000000e+000
  0.0000000e+000  6.2988000e+002  0.0000000e+000
  0.0000000e+000  4.9956000e+002  6.9000000e+001
  0.0000000e+000  3.4752000e+002  0.0000000e+000
