  0.0000000e+000  5.8207661e-011  6.0000000e+000
  1.2000000e+002  0.0000000e+000  1.0000000e+000
  0.0000000e+000  1.3244000e+002  4.1500000e+002
  0.0000000e+000  4.8160000e+001  2.2000000e+002
  2.4000000e+001  3.6120000e+001  1.1400000e+002
  1.6000000e+001  3.6120000e+001  1.8600000e+002
  2.4000000e+001  1.2040000e+001  8.8000000e+001
  2.4000000e+001  8.4280000e+001  2.8800000e+002
  1.6000000e+001  1.3244000e+002  2.1400000e+002
  2.4000000e+001  3.6120000e+001  2.0200000e+002
  0.0000000e+000  0.0000000e+000  0.0000000e+000
  8.0000000e+000  4.8160000e+001  2.2000000e+002
  4.6753198e+000  6.0200000e+001  3.4200000e+002
  8.0000000e+000  8.4280000e+001  4.3100000e+002
  0.0000000e+000  8.4280000e+001  2.2000000e+001
  0.0000000e+000  0.0000000e+000  1.8000000e+001
  1.6000000e+002  0.0000000e+000  0.0000000e+000
  2.1543733e+001  4.8160000e+001  1.1200000e+002
  3.8272153e+001  3.6120000e+001  1.3800000e+002
  3.2000000e+001  0.0000000e+000  1.5100000e+002
  0.0000000e+000  0.0000000e+000  0.0000000e+000
  8.0000000e+000  1.4448000e+002  3.4800000e+002
  0.0000000e+000  8.4280000e+001  4.5000000e+001
