  0.0000000e+000  5.3780000e+002  1.5200000e+002
  7.9978809e+001  5.2080000e+002  0.0000000e+000
  0.0000000e+000  8.4188000e+002  1.5100000e+002
  8.7978809e+001  4.8468000e+002  0.0000000e+000
  8.8000000e+001  4.9436000e+002  0.0000000e+000
  8.0000000e+001  2.0468000e+002  3.8000000e+001
  0.0000000e+000  9.8920000e+002  4.1000000e+001
  0.0000000e+000  9.9392000e+002  4.4000000e+001
  8.8000000e+001  2.0468000e+002  3.8000000e+001
  8.8000000e+001  4.9436000e+002  0.0000000e+000
  0.0000000e+000  6.6340000e+002  4.2000000e+001
  0.0000000e+000  9.0232000e+002  4.2000000e+001
  0.0000000e+000  8.6360000e+002  4.3000000e+001
  7.2000000e+001  6.0296000e+002  0.0000000e+000
  8.0021191e+001  5.5952000e+002  0.0000000e+000
  0.0000000e+000  1.0760800e+003  4.1000000e+001
  9.5978809e+001  4.8468000e+002  0.0000000e+000
  0.0000000e+000  7.3328000e+002  1.6100000e+002
  7.2000000e+001  2.0468000e+002  3.5000000e+001
  0.0000000e+000  7.5028000e+002  4.2000000e+001
