1 13 150
4 18 27
4 7 150
4 7 13
5 5 11
6 12 150
7 11 150
9 7 150
9 7 150
9 19 30
10 4 14
12 15 150
12 5 18
12 2 15
12 4 17
12 11 25
15 9 150
15 7 23
15 8 24
16 9 150
16 15 34
16 14 33
17 3 21
19 15 150
23 17 43
23 11 150
23 8 33
23 3 150
24 8 34
26 9 37
27 0 27
28 10 150
30 10 42
31 4 36
31 17 50
32 17 150
34 2 36
34 10 46
35 6 43
37 8 47
37 11 51
38 14 150
38 11 150
38 6 150
38 19 61
39 12 54
40 6 47
40 11 150
41 16 60
41 13 55
42 10 150
43 9 150
43 9 55
43 14 59
44 5 51
45 7 55
45 10 57
46 4 52
46 12 60
47 11 61
47 8 56
48 14 65
50 6 57
52 8 150
53 17 73
55 14 71
57 8 67
57 8 67
57 12 71
60 18 150
63 10 74
63 5 69
64 17 86
64 3 67
66 13 82
67 11 81
68 11 150
68 7 77
70 12 85
71 7 150
71 14 87
72 13 89
73 8 83
73 11 87
74 9 85
75 7 83
77 10 150
77 6 84
77 8 150
79 14 150
79 8 88
82 11 96
82 6 90
83 9 93
83 7 150
85 10 97
85 13 150
86 8 95
87 12 102
87 10 99
