  0.0000000e+000  2.8472727e-004  9.1401274e-001
  0.0000000e+000  1.2087618e-003  6.8222621e-001
  0.0000000e+000  7.0602537e-005  1.0000000e+000
  8.7065114e-001  1.4174841e-003  7.5634518e-001
  0.0000000e+000  2.8241015e-004  0.0000000e+000
  0.0000000e+000  7.8213999e-004  7.3249551e-001
  6.4517031e-001  8.4939414e-004  7.5000000e-001
  2.3518901e-001  1.0631131e-003  7.6649746e-001
  0.0000000e+000  2.8389924e-004  9.3227092e-001
  0.0000000e+000  9.2345045e-004  4.8148148e-001
  6.4517031e-001  7.0782845e-004  7.5520833e-001
  0.0000000e+000  0.0000000e+000  8.2758621e-001
  0.0000000e+000  7.8011969e-004  6.7567568e-001
  0.0000000e+000  3.5368099e-004  9.6022727e-001
  0.0000000e+000  2.8472727e-004  8.6624204e-001
  0.0000000e+000  2.2204460e-016  6.3095238e-001
  0.0000000e+000  8.5241580e-004  6.0113960e-001
  0.0000000e+000  0.0000000e+000  0.0000000e+000
  0.0000000e+000  0.0000000e+000  2.3809524e-001
  0.0000000e+000  0.0000000e+000  1.0000000e+000
