6836.5107 345596.39 0.0
826.30092 280646.85 145.0
826.30092 280380.3 135.0
842.30092 280356.22 140.0
6741.6975 345536.19 0.0
6773.6975 344566.05 3.0
3097.8792 307903.6 34.0
3097.8792 307506.98 42.0
6820.5107 343498.41 64.0
6799.0403 344823.97 3.0
1005.7546 283155.73 76.0
3121.8792 307422.7 42.0
978.30092 283972.8 68.0
866.30092 281846.83 109.0
986.30092 283912.6 67.0
834.30092 280437.09 130.0
826.30092 280646.85 123.0
997.75462 283652.31 68.0
1013.7546 283312.25 76.0
