269.39681 257971.53 0.0
261.39681 256975.17 0.0
160.65915 258957.25 50.0
39.187994 244178.81 124.0
166.33178 258933.17 58.0
283.06943 255941.28 93.0
23.187994 229480.88 127.0
237.40784 257958.69 52.0
190.33178 258204.51 55.0
23.187994 234901.39 121.0
31.187994 239756.47 93.0
251.06943 257416.63 5.0
23.187994 234877.31 99.0
