  1.7211859e+000  4.1504000e+002  1.3700000e+002
  1.7211859e+000  4.1504000e+002  1.2500000e+002
  0.0000000e+000  4.1504000e+002  1.1600000e+002
  0.0000000e+000  6.5160000e+002  3.0000000e+000
  0.0000000e+000  6.9504000e+002  1.0000000e+000
  0.0000000e+000  8.0364000e+002  3.0000000e+000
  0.0000000e+000  7.3848000e+002  3.0000000e+000
  0.0000000e+000  7.3848000e+002  3.0000000e+000
  0.0000000e+000  7.6020000e+002  3.0000000e+000
  0.0000000e+000  6.7332000e+002  3.0000000e+000
  0.0000000e+000  6.7332000e+002  3.0000000e+000
  0.0000000e+000  7.1676000e+002  3.0000000e+000
  0.0000000e+000  7.1676000e+002  3.0000000e+000
  0.0000000e+000  8.4708000e+002  3.0000000e+000
  0.0000000e+000  7.6020000e+002  3.0000000e+000
  0.0000000e+000  8.0364000e+002  3.0000000e+000
  0.0000000e+000  7.8192000e+002  3.0000000e+000
  0.0000000e+000  0.0000000e+000  0.0000000e+000
  0.0000000e+000  0.0000000e+000  0.0000000e+000
  0.0000000e+000  0.0000000e+000  0.0000000e+000
