  1.5416892e+001  1.4835600e+003  2.9600000e+002
  1.7128322e+001  1.0543600e+003  2.9700000e+002
  0.0000000e+000  1.1823200e+003  2.9900000e+002
  0.0000000e+000  2.9437600e+003  1.6190000e+003
  2.8294626e+001  1.1799600e+003  2.8900000e+002
  2.4000000e+001  1.3124000e+003  3.6200000e+002
  0.0000000e+000  3.5460000e+002  4.4200000e+002
  1.3830599e+002  1.4283200e+003  3.2000000e+001
  0.0000000e+000  1.2160800e+003  6.3300000e+002
  5.6000000e+001  1.2448800e+003  2.5900000e+002
  2.4000000e+001  1.2064000e+003  2.9000000e+002
  0.0000000e+000  1.0954400e+003  7.6000000e+002
  1.6000000e+001  1.2252800e+003  5.3800000e+002
  4.8290929e+001  1.1240000e+003  5.6400000e+002
  9.3533568e+001  1.5199200e+003  6.4000000e+001
  8.0000000e+000  1.2498400e+003  6.5600000e+002
  3.2000000e+001  8.9996000e+002  3.6300000e+002
  3.3381384e+002  1.5607600e+003  0.0000000e+000
  0.0000000e+000  8.1072000e+002  9.2500000e+002
  3.6190929e+001  1.2980000e+003  2.8500000e+002
  0.0000000e+000  3.5696000e+002  5.6400000e+002
  0.0000000e+000  1.2930400e+003  4.4600000e+002
  0.0000000e+000  1.2231600e+003  3.7500000e+002
  8.0000000e+000  2.2900400e+003  7.9900000e+002
  1.6000000e+001  1.3629200e+003  2.7300000e+002
  5.7232804e+001  1.0760800e+003  2.9200000e+002
  2.4000000e+001  6.1028000e+002  3.3000000e+002
  2.5699291e+001  5.8360000e+002  3.7500000e+002
  0.0000000e+000  7.9372000e+002  4.9600000e+002
  0.0000000e+000  4.6320000e+002  8.2300000e+002
  0.0000000e+000  2.1186400e+003  8.0000000e+002
  8.0000000e+000  5.6448000e+002  3.7800000e+002
  0.0000000e+000  1.3485200e+003  3.1200000e+002
  0.0000000e+000  1.0760800e+003  3.6100000e+002
  0.0000000e+000  8.2040000e+002  6.9700000e+002
  0.0000000e+000  1.1603600e+003  3.4100000e+002
