  2.2400000e+002  6.5160000e+001  0.0000000e+000
  9.2000000e+001  0.0000000e+000  1.4200000e+002
  2.4000000e+001  0.0000000e+000  8.1000000e+001
  2.2322713e+001  1.1641532e-010  1.0300000e+002
  1.6000000e+001  2.3283064e-010  4.1000000e+001
  8.0000000e+000  1.1641532e-010  1.5900000e+002
  8.0000000e+000  2.1720000e+001  1.2400000e+002
  1.6000000e+001  2.3283064e-010  1.1500000e+002
  8.0000000e+000  1.1641532e-010  4.5000000e+001
  8.0000000e+000  1.1641532e-010  3.4000000e+001
  1.6000000e+001  2.3283064e-010  2.5000000e+001
  8.0000000e+000  2.3283064e-010  1.5000000e+001
  2.4000000e+001  2.3283064e-010  1.3600000e+002
  4.0000000e+001  6.5160000e+001  3.3000000e+001
  6.4000000e+001  1.5204000e+002  9.1000000e+001
  0.0000000e+000  1.1641532e-010  1.2000000e+001
  0.0000000e+000  0.0000000e+000  9.0000000e+000
  2.4000000e+001  2.3283064e-010  4.8000000e+001
  1.2800000e+002  2.1720000e+001  0.0000000e+000
  2.4000000e+001  1.1641532e-010  6.1000000e+001
