  0.0000000e+000  5.5018560e-004  1.5927750e-001
  0.0000000e+000  7.6915763e-004  1.3425469e-001
  0.0000000e+000  3.0528102e-004  8.5222121e-002
  0.0000000e+000  0.0000000e+000  0.0000000e+000
  0.0000000e+000  1.7098431e-004  1.9596542e-001
  6.1708387e-002  0.0000000e+000  9.2307692e-002
  0.0000000e+000  1.9375030e-004  8.1818182e-002
  0.0000000e+000  0.0000000e+000  9.4043887e-002
  0.0000000e+000  5.7843572e-004  1.8701299e-001
  0.0000000e+000  7.0902634e-004  1.2564544e-001
  0.0000000e+000  1.7433340e-004  1.6822430e-001
  0.0000000e+000  0.0000000e+000  6.2500000e-002
  0.0000000e+000  1.6937617e-004  1.3651877e-001
  0.0000000e+000  6.4120622e-004  1.1192087e-001
  0.0000000e+000  3.0482793e-004  1.0630220e-001
  6.9470428e-002  1.9359927e-003  3.9328859e-001
  0.0000000e+000  1.7716938e-004  1.4715719e-001
  1.0593079e-001  1.6993716e-004  2.6174497e-001
  8.7307734e-002  1.8182484e-004  1.9683258e-001
  0.0000000e+000  0.0000000e+000  6.2695925e-002
  0.0000000e+000  0.0000000e+000  2.2321429e-001
  0.0000000e+000  0.0000000e+000  0.0000000e+000
  0.0000000e+000  0.0000000e+000  1.2345679e-002
  0.0000000e+000  5.5308753e-004  2.5984252e-001
  3.3911740e-002  3.3782486e-004  1.9402985e-001
  1.0500921e-001  1.5672482e-004  0.0000000e+000
  2.2402371e-001  2.2204460e-016  1.6535433e-001
  2.2033260e-002  7.7829766e-005  0.0000000e+000
  1.6993303e-001  0.0000000e+000  0.0000000e+000
  0.0000000e+000  0.0000000e+000  0.0000000e+000
  3.1601872e-001  1.8205453e-004  1.3610586e-001
  0.0000000e+000  1.9047093e-004  9.1224018e-002
  0.0000000e+000  0.0000000e+000  0.0000000e+000
  0.0000000e+000  0.0000000e+000  0.0000000e+000
  8.3102011e-002  7.3945187e-005  0.0000000e+000
