  0.0000000e+000  1.8008022e-004  1.0162602e-001
  0.0000000e+000  1.5953839e-004  1.2765957e-001
  1.7615389e-002  0.0000000e+000  0.0000000e+000
  0.0000000e+000  1.7803994e-003  2.3055361e-001
  2.5455623e-002  0.0000000e+000  0.0000000e+000
  0.0000000e+000  5.6324423e-004  1.7137293e-001
  0.0000000e+000  0.0000000e+000  0.0000000e+000
  1.2799776e-001  1.6707913e-004  6.8571429e-002
  1.6166269e-002  0.0000000e+000  1.0909091e-001
  0.0000000e+000  1.7744848e-003  1.7057903e-001
  0.0000000e+000  1.5177665e-004  2.2222222e-001
  0.0000000e+000  2.1310387e-003  2.1919302e-001
  0.0000000e+000  1.5409781e-004  2.0858896e-001
  0.0000000e+000  0.0000000e+000  9.8181818e-002
  4.3865859e-002  0.0000000e+000  2.7397260e-002
  1.0325780e-001  1.6518000e-004  1.5438596e-001
  0.0000000e+000  0.0000000e+000  0.0000000e+000
  0.0000000e+000  2.0582548e-003  2.2312139e-001
  0.0000000e+000  0.0000000e+000  0.0000000e+000
  2.6764101e-001  1.1824843e-003  1.1760462e-001
  2.7033827e-001  5.7401458e-004  1.4710485e-001
  2.5514792e-002  2.8832292e-004  3.1578947e-001
  0.0000000e+000  1.6514497e-004  1.9528620e-001
  0.0000000e+000  5.3004555e-004  1.2131716e-001
  0.0000000e+000  0.0000000e+000  0.0000000e+000
  0.0000000e+000  1.7352411e-003  3.5220126e-001
  0.0000000e+000  4.9003516e-004  1.2972202e-001
  1.2199822e-001  2.3908271e-004  2.1333333e-001
  0.0000000e+000  1.6085024e-004  1.7959184e-001
  0.0000000e+000  1.5491417e-004  1.7647059e-001
  0.0000000e+000  0.0000000e+000  8.4821429e-002
  4.8250267e-002  4.2350417e-004  1.5194346e-001
  7.3244405e-002  0.0000000e+000  0.0000000e+000
  4.9405423e-001  4.7463233e-004  1.0245310e-001
  5.8886440e-002  0.0000000e+000  1.1111111e-001
