  0.0000000e+000  7.2240000e+001  9.7000000e+001
  0.0000000e+000  9.6320000e+001  1.3600000e+002
  0.0000000e+000  3.6120000e+001  9.4000000e+001
  0.0000000e+000  0.0000000e+000  0.0000000e+000
  0.0000000e+000  2.4080000e+001  6.8000000e+001
  8.0000000e+000  0.0000000e+000  6.0000000e+000
  0.0000000e+000  2.4080000e+001  6.3000000e+001
  0.0000000e+000  0.0000000e+000  3.0000000e+001
  0.0000000e+000  7.2240000e+001  1.4400000e+002
  0.0000000e+000  8.4280000e+001  1.4600000e+002
  0.0000000e+000  2.4080000e+001  3.6000000e+001
  0.0000000e+000  0.0000000e+000  1.4000000e+001
  0.0000000e+000  2.4080000e+001  4.0000000e+001
  0.0000000e+000  7.2240000e+001  2.1500000e+002
  0.0000000e+000  3.6120000e+001  1.4000000e+002
  8.0000000e+000  2.5284000e+002  2.9300000e+002
  0.0000000e+000  2.4080000e+001  8.8000000e+001
  1.6000000e+001  2.4080000e+001  3.9000000e+001
  8.0000000e+000  2.4080000e+001  8.7000000e+001
  0.0000000e+000  0.0000000e+000  2.0000000e+001
  0.0000000e+000  0.0000000e+000  5.0000000e+001
  0.0000000e+000  0.0000000e+000  0.0000000e+000
  0.0000000e+000  0.0000000e+000  1.0000000e+000
  0.0000000e+000  7.2240000e+001  1.3200000e+002
  8.0000000e+000  4.8160000e+001  1.3000000e+001
  4.0000000e+001  2.4080000e+001  0.0000000e+000
  3.2000000e+001  2.9103830e-011  2.1000000e+001
  8.0000000e+000  1.2040000e+001  0.0000000e+000
  8.0000000e+000  0.0000000e+000  0.0000000e+000
  0.0000000e+000  0.0000000e+000  0.0000000e+000
  1.6000000e+001  2.4080000e+001  7.2000000e+001
  0.0000000e+000  2.4080000e+001  7.9000000e+001
  0.0000000e+000  0.0000000e+000  0.0000000e+000
  0.0000000e+000  0.0000000e+000  0.0000000e+000
  1.5953548e+001  1.2040000e+001  0.0000000e+000
