  0.0000000e+000  3.6120000e+001  5.0000000e+000
  0.0000000e+000  6.0200000e+002  7.1000000e+002
  0.0000000e+000  0.0000000e+000  0.0000000e+000
  0.0000000e+000  3.3712000e+002  3.1500000e+002
  0.0000000e+000  1.5652000e+002  1.6400000e+002
  0.0000000e+000  0.0000000e+000  0.0000000e+000
  0.0000000e+000  0.0000000e+000  0.0000000e+000
  0.0000000e+000  0.0000000e+000  1.1000000e+001
  0.0000000e+000  0.0000000e+000  7.7000000e+001
  0.0000000e+000  0.0000000e+000  5.0000000e+000
  0.0000000e+000  1.8060000e+002  1.0000000e+002
  3.1516437e-002  0.0000000e+000  0.0000000e+000
  8.0000000e+000  0.0000000e+000  0.0000000e+000
