  0.0000000e+000  1.3223102e-004  3.0930233e-001
  4.6593507e-001  5.9925915e-005  0.0000000e+000
  0.0000000e+000  0.0000000e+000  0.0000000e+000
  0.0000000e+000  3.9669306e-004  3.3255814e-001
  5.1643537e-002  0.0000000e+000  0.0000000e+000
  1.1086381e-002  6.2213153e-005  2.0000000e-001
  2.3839183e-002  0.0000000e+000  0.0000000e+000
  0.0000000e+000  1.1102230e-016  1.2500000e+000
  0.0000000e+000  1.3181109e-004  2.2627737e-001
  0.0000000e+000  0.0000000e+000  8.1761006e-002
  1.4418224e-002  0.0000000e+000  0.0000000e+000
  0.0000000e+000  0.0000000e+000  3.9473684e-001
  0.0000000e+000  1.3221451e-004  2.0440252e-001
  0.0000000e+000  0.0000000e+000  0.0000000e+000
  0.0000000e+000  0.0000000e+000  0.0000000e+000
  4.9503143e-002  6.0991722e-005  0.0000000e+000
  2.3839183e-002  0.0000000e+000  0.0000000e+000
  4.4539018e-002  1.1102230e-016  1.8604651e-001
  0.0000000e+000  1.9493088e-004  8.9743590e-002
  2.5821768e-002  0.0000000e+000  0.0000000e+000
