429.03464 174237.39 0.0
413.40001 213373.59 7.0
563.21757 170711.8 4.0
52.681108 188816.97 46.0
114.58245 180616.53 97.0
383.13559 213421.75 7.0
88.756428 177346.33 57.0
477.88343 168587.3 75.0
198.18627 212766.13 31.0
265.86358 207994.68 71.0
52.681108 188816.97 21.0
