  2.0656945e+003  1.9087210e+005  0.0000000e+000
  1.1834443e+003  1.9612366e+005  2.3650000e+003
  1.1754443e+003  1.9591898e+005  2.3450000e+003
  3.0938025e+003  1.6194697e+005  1.4620000e+003
  1.1674443e+003  2.0299854e+005  2.4260000e+003
  3.0778025e+003  1.6195901e+005  1.5010000e+003
  2.2114792e+003  1.6659749e+005  2.1310000e+003
  2.7197152e+003  1.7085291e+005  1.3100000e+003
  2.9898025e+003  1.8371601e+005  1.0850000e+003
  2.7117152e+003  1.7085291e+005  1.2850000e+003
  3.0228401e+003  1.8130981e+005  9.9600000e+002
  2.1997373e+003  1.6757228e+005  2.1830000e+003
  1.5169555e+003  1.9261856e+005  3.5200000e+002
  1.1834443e+003  2.0279386e+005  2.3490000e+003
  2.0496945e+003  1.8947638e+005  1.4000000e+001
  1.8232861e+003  1.9180613e+005  2.9000000e+001
  1.3738031e+003  1.9541741e+005  2.0040000e+003
  1.7880719e+003  1.8919155e+005  2.9300000e+002
  1.3573921e+003  2.0130851e+005  9.2100000e+002
  1.6488683e+003  1.9188604e+005  4.5800000e+002
