  3.7533202e-003  6.9946549e-005  2.0678685e-002
  3.0058801e-002  3.6941719e-004  0.0000000e+000
  1.0450838e-002  1.0210293e-004  8.4474886e-002
  8.5763293e-003  2.2204460e-016  8.0276817e-002
  1.2152309e-002  1.3639541e-004  4.0663900e-002
  1.4633931e-002  5.8078323e-004  1.6515152e-001
  2.3872625e-003  1.0568011e-004  2.3723569e-002
  2.3152004e-002  7.1613666e-005  4.6927374e-002
  9.6630974e-003  1.0425239e-004  3.1354983e-002
  1.3847847e-002  1.7012411e-004  5.9836066e-001
  1.2128563e-002  3.4272268e-005  1.9611021e-001
  6.9999125e-003  2.2204460e-016  1.0322581e-001
  8.1184514e-003  3.4856422e-005  5.9335874e-002
  1.0760353e-002  2.7170865e-004  0.0000000e+000
  2.1004280e-002  4.0917577e-004  1.7796610e-001
  8.3433751e-003  1.0167814e-004  9.5477387e-002
  6.6699090e-003  3.7389610e-004  1.9365079e-001
  1.9970793e-003  0.0000000e+000  6.0683761e-001
  1.4408851e-002  2.0406938e-004  3.5668790e-001
  1.7896030e-002  3.4130710e-005  5.3571429e-002
  2.3856157e-002  2.0265803e-004  4.8750000e-001
  9.4321085e-003  3.4046886e-005  2.9288703e-001
  3.0128801e-003  1.7179690e-004  4.5070423e-002
  7.2477836e-003  3.4074573e-005  3.1937173e-001
  7.2805662e-003  2.2204460e-016  2.2848809e-002
  8.9454190e-003  1.7009628e-004  1.9241983e-001
  2.5750599e-002  2.4139612e-004  9.6301020e-002
  2.6710166e-002  5.4597107e-004  1.8580060e-001
  3.6237852e-003  3.4471367e-005  4.1916168e-002
  1.0881586e-002  3.7447933e-004  4.1811847e-002
  2.0890459e-002  3.4073047e-004  1.6155419e-001
  1.2565209e-002  1.3863891e-004  8.4786530e-002
  2.9263832e-003  2.2204460e-016  3.8320210e-002
  1.1163071e-002  3.5551116e-005  4.8153343e-002
