  8.9874241e+003  5.1154997e+005  0.0000000e+000
  1.2338311e+003  4.0418000e+005  7.2000000e+002
  1.2220757e+003  4.0426216e+005  7.0700000e+002
  9.0112339e+003  5.1064431e+005 -1.0000000e+000
  9.0177350e+003  5.1148953e+005  0.0000000e+000
  4.7547852e+003  4.5175913e+005  1.0700000e+002
  3.7449589e+003  4.3861467e+005  2.2200000e+002
  1.7760954e+003  4.1233345e+005  6.8800000e+002
  2.4113158e+003  4.2070172e+005  2.7700000e+002
  1.7227662e+003  4.1135320e+005  3.1600000e+002
  8.7937196e+003  5.0825322e+005 -2.0000000e+000
  7.6580276e+003  4.9126655e+005  2.2000000e+001
  5.6007852e+003  4.6714548e+005  8.1000000e+001
  7.6420276e+003  4.9136287e+005  2.1000000e+001
  6.3891635e+003  4.8086745e+005  5.4000000e+001
  1.5486170e+003  4.0995341e+005  6.3200000e+002
  5.6327852e+003  4.6677315e+005  7.6000000e+001
  6.4027212e+003  4.8089153e+005  5.6000000e+001
  3.5687143e+003  4.4165471e+005  1.4100000e+002
  3.5471629e+003  4.4170783e+005  1.3300000e+002
