  2.9851164e-002  1.8091252e-003  5.4059041e-001
  1.2141001e-002  1.7281330e-003  5.3125000e-001
  0.0000000e+000  0.0000000e+000  0.0000000e+000
  0.0000000e+000  0.0000000e+000  0.0000000e+000
  2.3183701e-002  1.7795341e-003  5.4385965e-001
  3.9760268e-002  1.1102230e-016  9.6875000e-001
  2.3150198e-003  1.1102230e-016  8.9456869e-002
  2.4314102e-002  1.7892928e-003  3.3175729e-001
  3.2390265e-003  4.6650251e-005  0.0000000e+000
  3.2519284e-002  3.9943315e-004  3.0769231e-001
  2.0511340e-002  1.5857013e-003  4.9420849e-001
  4.3694646e-002  4.1313102e-004  3.2253314e-001
  5.3072182e-003  3.1060643e-004  1.5803815e-001
  2.0538615e-003  0.0000000e+000  0.0000000e+000
  6.5839983e-003  4.5962874e-005  0.0000000e+000
  0.0000000e+000  0.0000000e+000  0.0000000e+000
  3.3032231e-002  1.7955993e-003  3.3811802e-001
  2.6135573e-002  1.8308255e-003  5.4391371e-001
  5.4917812e-003  2.2204460e-016  2.2580645e-001
  6.5348761e-003  0.0000000e+000  7.6923077e-002
  5.5909034e-003  3.9243603e-004  0.0000000e+000
  2.9668556e-003  5.4083961e-005  5.7416268e-002
  3.2299925e-002  6.9231554e-004  0.0000000e+000
  6.9406452e-004  8.2106257e-004  1.9789842e-001
  4.1497837e-002  6.1465237e-004  1.1428571e+000
  1.0647040e-002  1.8319882e-003  4.5580808e-001
  6.6604488e-003  1.2431007e-003  2.9611650e-001
  7.1540819e-002  4.3749914e-004  3.3509934e-001
  3.2126036e-003  1.0245259e-004  1.6964286e-001
  0.0000000e+000  4.3801100e-004  1.2034632e-001
  5.3773732e-004  1.1102230e-016  8.2352941e-002
  2.1938540e-003  2.5123937e-004  1.7148014e-001
