  0.0000000e+000  0.0000000e+000  1.1111111e-001
  0.0000000e+000  0.0000000e+000  0.0000000e+000
  0.0000000e+000  0.0000000e+000  0.0000000e+000
  0.0000000e+000  3.4797541e-004  3.3088235e-001
  0.0000000e+000  3.6213378e-004  0.0000000e+000
  0.0000000e+000  3.1408184e-004  0.0000000e+000
  0.0000000e+000  3.5117336e-004  1.5894040e-001
  8.9658905e-002  9.8930957e-004  0.0000000e+000
  0.0000000e+000  2.4719573e-004  1.3043478e-001
  0.0000000e+000  0.0000000e+000  1.7791411e-001
