  1.4905068e+004  8.9847532e+005  5.2230000e+003
  2.9056908e+004  1.0487484e+006  0.0000000e+000
  2.8824908e+004  1.0612694e+006  0.0000000e+000
  3.0488908e+004  1.0335875e+006  4.4400000e+002
  1.4905068e+004  8.9845360e+005  5.1940000e+003
  2.2072908e+004  9.5149609e+005  2.1010000e+003
  2.0367908e+004  9.8423133e+005  1.4930000e+003
  2.5947908e+004  1.0206579e+006  5.1400000e+002
  1.5950068e+004  9.0293387e+005  4.4210000e+003
  1.6829908e+004  9.2302535e+005  3.6200000e+003
  1.8843068e+004  9.3940591e+005  3.6000000e+003
  2.7732908e+004  1.0432291e+006  3.2200000e+002
  1.9109908e+004  9.3946507e+005  3.0520000e+003
  3.0480908e+004  1.0335875e+006  4.5900000e+002
  2.2161908e+004  9.8367650e+005  1.0470000e+003
  1.5149068e+004  9.0026306e+005  4.6440000e+003
  2.4873908e+004  1.0101684e+006  6.9700000e+002
  1.9338908e+004  9.6928441e+005  2.3050000e+003
  2.4337908e+004  1.0106474e+006  7.1200000e+002
  1.9282908e+004  9.6758753e+005  2.2240000e+003
