  7.5664683e-003  1.6436578e-004  0.0000000e+000
  1.0398090e-002  2.2204460e-016  7.9053781e-002
  1.2376306e-002  2.2204460e-016  8.1133920e-002
  1.7680437e-002  2.2204460e-016  9.0909091e-002
  7.3562887e-003  2.1915437e-004  0.0000000e+000
  1.6153958e-002  2.1499535e-005  1.9336759e-001
  2.1030179e-002  1.1045393e-003  6.5840708e-001
  2.3453709e-002  2.8287605e-004  4.9597238e-001
  1.2259862e-002  2.2289827e-005  1.3952392e-001
  2.0608944e-002  2.2150112e-005  1.5674096e-001
  2.2129106e-002  2.0506937e-005  4.9051233e-001
  1.2809992e-002  1.1102230e-016  1.5494447e-001
  9.7163853e-003  2.2962428e-004  5.0000000e-001
  8.7230278e-003  1.1102230e-016  2.9107277e-001
  2.1945258e-002  2.0966126e-005  3.8398693e-001
  1.5632226e-002  2.1192398e-005  2.8876679e-001
  1.2213011e-002  5.1296792e-004  2.5000000e-001
  1.8334281e-002  2.2204460e-016  1.3955966e-001
  1.5859502e-002  2.1429744e-005  2.9638009e-001
  7.5662080e-003  2.2356007e-005  9.8890650e-002
