  2.5680700e+004  7.9976807e+005  4.5000000e+002
  2.5102000e+004  8.0729168e+005  5.1500000e+002
  2.7424700e+004  7.8875161e+005  1.4160000e+003
  2.4954600e+004  7.9239259e+005  1.4180000e+003
  2.6329700e+004  7.9031876e+005  7.6900000e+002
  2.5129800e+004  7.9535830e+005  9.9800000e+002
  2.5564300e+004  7.9503021e+005  1.0180000e+003
  2.5592100e+004  7.7243757e+005  1.6890000e+003
  2.4762600e+004  7.6921634e+005  1.8040000e+003
  2.5014200e+004  7.9374378e+005  1.1240000e+003
  2.6258800e+004  7.9975691e+005  3.6400000e+002
  2.3727600e+004  7.6462339e+005  2.2850000e+003
  2.5072200e+004  7.7343517e+005  1.6580000e+003
  2.7151500e+004  8.0634868e+005  3.4100000e+002
  2.6362900e+004  7.9339043e+005  6.8900000e+002
  3.0287300e+004  8.0850672e+005  5.0000000e+000
  2.8593100e+004  8.1077680e+005  2.8000000e+002
  2.9810100e+004  8.0707202e+005  2.1100000e+002
  3.0425900e+004  8.1025555e+005  0.0000000e+000
  2.5764300e+004  7.9618290e+005  4.7800000e+002
  2.9729700e+004  8.2093199e+005  1.2000000e+001
  2.7439800e+004  8.0783549e+005  3.0000000e+002
  2.7240600e+004  8.0491897e+005  3.3200000e+002
  2.5647600e+004  7.7645347e+005  1.6160000e+003
