  3.2352400e+004  8.1949890e+005  2.7780000e+003
  3.9200400e+004  8.8650828e+005  4.8600000e+002
  3.0274500e+004  8.0171028e+005  3.3170000e+003
  3.5364400e+004  8.4868802e+005  1.5850000e+003
  2.9979600e+004  7.9725317e+005  3.9550000e+003
  3.4023000e+004  8.3279239e+005  2.3280000e+003
  3.7565300e+004  8.7270617e+005  8.7600000e+002
  3.9059400e+004  8.9028770e+005  3.4700000e+002
  2.9609100e+004  8.0128557e+005  4.5430000e+003
  5.5003300e+004  1.0068641e+006  0.0000000e+000
  3.6650800e+004  8.6429769e+005  1.0660000e+003
  4.4837700e+004  9.3079657e+005  9.7000000e+001
  3.5797700e+004  8.5771139e+005  1.1870000e+003
  3.8386600e+004  8.8027136e+005  7.5900000e+002
  2.8554600e+004  7.8633450e+005  5.5370000e+003
  2.9030700e+004  7.7921465e+005  5.3670000e+003
  4.0351100e+004  9.0133704e+005  1.9200000e+002
