  1.1184211e-001  0.0000000e+000  7.2049689e-002
  0.0000000e+000  1.1102230e-016  8.6932137e-002
  4.5095829e-002  0.0000000e+000  7.8167116e-002
  0.0000000e+000  2.2204460e-016  0.0000000e+000
  0.0000000e+000  1.1102230e-016  1.5847861e-003
  7.5829384e-002  1.1102230e-016  3.5671819e-003
  0.0000000e+000  0.0000000e+000  0.0000000e+000
  0.0000000e+000  0.0000000e+000  0.0000000e+000
  0.0000000e+000  2.2204460e-016  7.8539823e-002
  0.0000000e+000  2.2204460e-016  0.0000000e+000
  0.0000000e+000  0.0000000e+000  1.4309764e-002
  8.0914474e-002  6.4543548e-004  0.0000000e+000
  0.0000000e+000  2.2204460e-016  0.0000000e+000
  6.1776062e-002  1.1102230e-016  3.5340314e-002
