  8.6716936e-002  1.0682515e-004  1.2627986e-001
  2.7965063e-002  7.0047639e-005  8.5180055e-002
  1.3054010e-002  1.0407686e-004  1.0397112e-001
  0.0000000e+000  1.7500553e-004  1.2531328e-002
  9.8122014e-002  1.0157466e-004  1.2358533e-001
  0.0000000e+000  3.9117787e-004  1.1706465e-001
  0.0000000e+000  1.9156724e-004  1.3346614e-001
  0.0000000e+000  2.8466174e-004  4.0000000e-002
  1.1880671e-001  1.4613694e-004  1.4515428e-001
  1.6811394e-002  1.0594817e-004  1.1065333e-001
  0.0000000e+000  3.5649627e-005  9.7288676e-002
  1.1964313e-002  3.9278981e-004  3.7037037e-002
  5.1374084e-003  2.9146332e-004  1.4388489e-002
  6.7553211e-004  2.3306842e-004  7.3170732e-002
  0.0000000e+000  6.6360049e-005  4.6901173e-002
  1.3934968e-001  5.8559208e-004  1.8888097e-001
  1.5394024e-004  3.4087297e-005  4.9504950e-002
  8.3004260e-003  3.6057633e-004  0.0000000e+000
  1.3858730e-002  1.6001572e-004  0.0000000e+000
  2.2261243e-002  3.4737139e-005  1.1319340e-001
  0.0000000e+000  1.8543159e-004  7.5471698e-002
  6.0211345e-002  3.3859796e-005  1.1720511e-001
  7.6279032e-003  6.7597387e-005  4.9237984e-002
