  1.3358293e+002  2.5007718e+005  4.6600000e+002
  0.0000000e+000  2.8236846e+005  4.3200000e+002
  5.5869228e+001  2.8835761e+005  0.0000000e+000
  5.0072538e+001  2.5704152e+005  5.8400000e+002
  2.4009209e+001  2.9774546e+005  1.9700000e+002
  1.6543160e+002  2.7557125e+005  1.8600000e+002
  8.3690937e+001  2.7674892e+005  3.0900000e+002
  5.0072538e+001  2.5828718e+005  6.4400000e+002
  9.0766150e+001  2.7093564e+005  3.7900000e+002
  4.0009209e+001  2.7701082e+005  6.1000000e+002
  2.4248725e+001  2.8963854e+005  7.0000000e+000
  1.4158293e+002  2.5007718e+005  4.7500000e+002
  2.0067610e+001  2.8250934e+005  4.0200000e+002
  5.1554934e+001  2.8358946e+005  9.8000000e+001
  1.0507522e+002  2.7121800e+005  2.2200000e+002
  5.0072538e+001  2.5719356e+005  6.0900000e+002
  2.6821568e+001  2.9634366e+005  2.0400000e+002
  0.0000000e+000  2.8240222e+005  4.8700000e+002
  1.6340005e+002  2.7564609e+005  2.2800000e+002
  4.1932556e+001  2.8813119e+005  4.0000000e+000
