  8.2417582e-002  1.1102230e-016  6.1186362e-002
  1.4194464e-003  0.0000000e+000  2.5121556e-002
  0.0000000e+000  0.0000000e+000  2.1112255e-002
  5.4064062e-002  0.0000000e+000  9.9770642e-002
  2.2446689e-002  0.0000000e+000  3.7546934e-002
  1.7499727e-002  1.1102230e-016  2.6398492e-002
  1.3016596e-002  0.0000000e+000  8.0039043e-002
  5.3799050e-002  3.8076204e-004  0.0000000e+000
  6.7261374e-002  2.2204460e-016  2.7272727e-001
  1.2500000e-002  0.0000000e+000  4.9719326e-002
  4.5535859e-002  0.0000000e+000  1.8918919e-001
  4.4047054e-002  0.0000000e+000  5.6521739e-001
  1.7376195e-003  0.0000000e+000  2.9905179e-002
  6.0744115e-002  0.0000000e+000  9.6885813e-002
  0.0000000e+000  1.1102230e-016  3.3529412e-002
  6.4163446e-002  0.0000000e+000  9.9656357e-002
  3.8004751e-002  3.9014145e-005  6.3205418e-002
  4.4311510e-003  2.2204460e-016  5.6737589e-002
