  4.2861496e-002  1.1322467e-004  5.5118110e-001
  2.0605253e-002  2.2204460e-016  7.3469388e-002
  3.6701580e-002  1.9556013e-004  2.2994652e-001
  4.3052611e-002  4.4408921e-016  3.4545455e-001
  2.4096386e-002  0.0000000e+000  1.4814815e-001
  1.1960828e-002  2.2204460e-016  7.8144078e-002
  6.3417660e-002  2.0339587e-004  1.8378995e-001
  2.9523408e-003  2.2204460e-016  1.9279661e-001
  8.6047029e-003  0.0000000e+000  1.2037037e-001
  3.6518144e-002  1.9431950e-004  1.1995968e-001
  2.4225729e-002  3.0174811e-004  0.0000000e+000
  2.5441591e-002  3.0324595e-004  0.0000000e+000
  4.7268279e-002  3.6175227e-005  5.5555556e-001
  2.7357229e-002  2.2204460e-016  1.7241379e-001
  3.1048845e-002  2.2204460e-016  1.0404624e-001
