  3.3724443e-002  3.7281333e-005  1.3513514e-001
  3.7982856e-002  2.2204460e-016  0.0000000e+000
  3.2038622e-002  4.4408921e-016  4.9327354e-002
  5.8957452e-002  7.6520238e-005  6.4778548e-002
  1.8374909e-002  0.0000000e+000  7.7519380e-002
  1.4615569e-002  2.2204460e-016  1.9189765e-002
  3.6210091e-002  1.1399613e-004  5.2158273e-002
  2.6164760e-002  0.0000000e+000  1.3363029e-002
  7.1886802e-002  0.0000000e+000  0.0000000e+000
  4.2341012e-002  0.0000000e+000  5.8660187e-002
  2.0744681e-002  4.4408921e-016  2.0444444e-001
  5.7232108e-002  1.1488675e-004  5.4271034e-002
  3.1480344e-002  3.7724810e-005  1.4297729e-002
  6.5022691e-002  4.4408921e-016  1.0267857e-001
  5.7709043e-002  2.2204460e-016  0.0000000e+000
  5.7187691e-002  7.6011975e-005  2.4052478e-002
  6.1799571e-002  2.2204460e-016  3.9272031e-002
  5.0287266e-002  2.2204460e-016  1.0655408e-001
  5.1399063e-002  3.7896267e-005  1.9121813e-002
  2.2080518e-002  3.7571712e-005  2.6905830e-002
  2.4261138e-002  2.2204460e-016  1.6103060e-003
  5.1845394e-002  7.6142932e-005  5.8762887e-002
  3.6539065e-002  1.5298494e-004  5.2849411e-002
  3.7068966e-002  3.8409122e-005  5.3547877e-002
  6.1580697e-002  2.2204460e-016  5.2601156e-002
  5.7841225e-002  1.1399723e-004  8.3373964e-002
  9.1456519e-002  7.6257174e-005  6.9579288e-002
  4.8964594e-002  7.6369038e-005  6.7316620e-002
  2.5598219e-002  7.6593547e-005  4.5068774e-002
  3.9885393e-002  4.4408921e-016  4.2679480e-002
  1.3717376e-002  1.1245882e-004  5.5147059e-003
  1.7759754e-002  2.2204460e-016  8.5714286e-003
  7.9082953e-002  2.2204460e-016  7.4858028e-002
  1.5025087e-002  2.2204460e-016  8.6505190e-004
  4.8973881e-002  4.4408921e-016  1.1111111e-001
  3.6304865e-002  4.4408921e-016  3.7569944e-002
  7.2105610e-002  7.6141232e-005  5.0548112e-002
  3.5135793e-002  2.2204460e-016  1.7001546e-002
  4.8909981e-002  2.2204460e-016  3.9529915e-002
  2.4729521e-002  0.0000000e+000  2.8169014e-002
  1.2799524e-002  2.2204460e-016  1.9305019e-003
