  8.0000000e+000  2.3283064e-010  0.0000000e+000
  6.4000000e+001  0.0000000e+000  4.6800000e+002
  3.2000000e+001  1.1641532e-010  1.8500000e+002
  3.2000000e+001  4.3440000e+001  1.0000000e+000
  6.4000000e+001  0.0000000e+000  4.6800000e+002
  2.4000000e+001  1.1641532e-010  1.9000000e+002
  4.6224500e+001  1.1641532e-010  3.3300000e+002
  0.0000000e+000  0.0000000e+000  2.7200000e+002
  0.0000000e+000  1.1641532e-010  9.0000000e+000
  8.0000000e+000  1.1641532e-010  3.6500000e+002
  8.0000000e+000  0.0000000e+000  3.2200000e+002
  8.0000000e+001  2.3283064e-010  3.7500000e+002
  0.0000000e+000  1.1641532e-010  3.4000000e+002
  5.6000000e+001  1.1641532e-010  4.5100000e+002
  1.6000000e+001  0.0000000e+000  5.0000000e+000
  4.8000000e+001  1.1641532e-010  4.3500000e+002
  0.0000000e+000  0.0000000e+000  1.1100000e+002
  8.0000000e+000  1.1641532e-010  3.9400000e+002
  0.0000000e+000  0.0000000e+000  2.7500000e+002
  6.4000000e+001  1.1641532e-010  3.8800000e+002
