  1.1881833e-002  2.2151437e-003  0.0000000e+000
  2.4127851e-002  5.3762730e-003  2.6747857e-001
  1.7796917e-002  4.8954681e-003  2.5304465e-001
  1.3129458e-002  2.2151437e-003  0.0000000e+000
  7.7742046e-003  2.1100403e-003  2.8947368e-001
  1.7315929e-002  2.2237328e-003  1.8546845e-001
  1.9280414e-002  2.1541520e-003  3.5897436e-001
  0.0000000e+000  0.0000000e+000  0.0000000e+000
  2.5266634e-002  3.9799286e-003  2.1498029e-001
  1.1362567e-002  1.6099323e-004  1.4471969e-001
  2.0185878e-002  2.1989173e-003  6.2921348e-001
  2.3352093e-002  3.5353595e-003  3.6129679e-001
  2.5133579e-002  4.1389575e-003  3.5795455e-001
  1.5437866e-002  2.8171201e-003  2.1417683e-001
  3.5501701e-002  5.2293965e-003  2.5434942e-001
  1.8697908e-002  1.5553936e-003  4.0073529e-001
  2.4123516e-002  2.2981769e-003  2.3094512e-001
  1.4887744e-002  6.9198901e-004  2.1879484e-001
  1.5661011e-002  2.1244092e-003  3.1931464e-001
  1.4621681e-002  1.0830830e-003  7.8260870e-002
