  4.3800599e+002  7.5640000e+002  0.0000000e+000
  1.6800000e+002  8.6620000e+002  1.0900000e+003
  2.8000000e+002  7.0824000e+002  0.0000000e+000
  3.6800000e+002  2.0492000e+002  2.3100000e+002
  0.0000000e+000  3.5375200e+003  1.7460000e+003
  5.6000000e+001  2.1460000e+002  2.7300000e+002
  1.0400000e+002  6.0200000e+001  7.1900000e+002
  1.2000000e+002  4.4124000e+002  1.1080000e+003
  2.3144557e+002  4.3156000e+002  1.0370000e+003
  7.2000000e+001  7.7080000e+002  4.9100000e+002
  2.3200000e+002  1.1055600e+003  7.1600000e+002
  4.9600000e+002  7.5380000e+002  6.0300000e+002
  1.0400000e+002  3.9544000e+002  1.0770000e+003
  3.1200000e+002  1.1922000e+003  2.0100000e+002
  3.3544557e+002  1.8320000e+002  6.9400000e+002
  0.0000000e+000  7.6112000e+002  4.0200000e+002
  3.6800000e+002  7.1036000e+002  6.1600000e+002
  1.7139110e+002  1.3423600e+003  7.8900000e+002
  0.0000000e+000  3.0802000e+003  1.3040000e+003
  0.0000000e+000  3.8932800e+003  1.4360000e+003
