  1.9671867e+004  5.9199851e+005  0.0000000e+000
  8.6176608e+003  4.7888264e+005  4.2670000e+003
  2.0199867e+004  5.4770505e+005  4.7000000e+001
  1.9671867e+004  5.9207075e+005  0.0000000e+000
  4.1596608e+003  4.8766186e+005  5.1640000e+003
  4.1306163e+003  5.1108276e+005  5.1120000e+003
  1.0513516e+004  5.2211713e+005  1.8010000e+003
  9.5087242e+003  5.1548327e+005  3.7770000e+003
  6.7776608e+003  4.9058027e+005  4.9280000e+003
  1.4894376e+004  5.2869954e+005  7.9800000e+002
  1.2259954e+004  5.0703911e+005  1.2960000e+003
  1.7136376e+004  5.6625735e+005  2.1000000e+002
  1.4446376e+004  5.4098597e+005  8.0700000e+002
  1.6144186e+004  5.1942840e+005  3.8800000e+002
  1.9695867e+004  5.9030045e+005  1.2000000e+001
  1.3119954e+004  5.0752395e+005  1.1290000e+003
  8.6096608e+003  4.7892944e+005  4.2660000e+003
  1.6992376e+004  5.6428237e+005  2.1800000e+002
  4.3196608e+003  4.8539369e+005  5.2500000e+003
  4.2026163e+003  5.1629888e+005  4.9020000e+003
