  1.3174592e+004  8.6215733e+005  0.0000000e+000
  4.7655468e+003  8.1960774e+005  2.0200000e+003
  2.1614945e+004  6.2620299e+005  8.1620000e+003
  2.1829300e+004  6.2551168e+005  8.1690000e+003
  1.2922850e+004  8.9431397e+005  8.3000000e+001
  1.0857001e+004  7.9166613e+005  1.0800000e+003
  8.6712941e+003  8.2796660e+005  3.8900000e+002
  2.0994657e+004  7.4952829e+005  2.9810000e+003
  1.8061300e+004  6.9762465e+005  5.0930000e+003
  1.9929300e+004  6.8192815e+005  5.1440000e+003
  4.8326865e+003  8.1862174e+005  1.9340000e+003
  1.6077300e+004  7.5472161e+005  3.4280000e+003
  1.9669300e+004  6.6665893e+005  6.4580000e+003
  1.3981300e+004  7.8340111e+005  1.2350000e+003
  1.6837300e+004  7.1175581e+005  4.2400000e+003
  2.0502945e+004  6.4676637e+005  7.3880000e+003
  9.2662378e+003  8.7300845e+005  1.1600000e+002
  2.0341300e+004  6.5376885e+005  7.1120000e+003
  1.6253300e+004  7.1870617e+005  3.8120000e+003
  9.8285545e+003  8.5938006e+005  2.3600000e+002
