  2.9507777e+003  1.8618334e+005  0.0000000e+000
  7.6907747e+002  1.7625627e+005  2.5000000e+003
  7.7581939e+002  1.7636463e+005  2.6800000e+003
  2.4543053e+003  2.0349460e+005  0.0000000e+000
  2.9587777e+003  1.8579480e+005  0.0000000e+000
  2.5028626e+003  1.6619009e+005  5.5900000e+002
  2.4468626e+003  1.6686470e+005  7.6400000e+002
  2.4465265e+003  2.0285147e+005  0.0000000e+000
  1.8910623e+003  1.7149411e+005  6.5000000e+001
  2.8947777e+003  1.8609906e+005  0.0000000e+000
  8.5907747e+002  1.8127492e+005  1.9910000e+003
  1.0958238e+003  1.7424628e+005  1.1910000e+003
  7.7707747e+002  1.7706590e+005  2.3660000e+003
  1.2607837e+003  1.8189113e+005  7.7300000e+002
  1.6768411e+003  1.7264459e+005  2.2200000e+002
  9.9182379e+002  1.7487530e+005  1.4510000e+003
  1.4274157e+003  1.8243210e+005  4.7700000e+002
  9.5182379e+002  1.7423938e+005  1.7610000e+003
  9.8682379e+002  1.7484654e+005  1.6770000e+003
  1.7822046e+003  1.7190885e+005  2.4800000e+002
