  5.3400581e+002  1.7702084e+005  8.0900000e+002
  3.2335510e+001  1.7808591e+005  2.1950000e+003
  4.2488693e+003  2.1540244e+005  0.0000000e+000
  1.2685627e+004  2.0041146e+005  6.0000000e+000
  2.2768126e+001  1.7813407e+005  2.2620000e+003
  4.3128693e+003  2.1685936e+005  0.0000000e+000
  5.2811321e+003  1.8618207e+005  1.6400000e+002
  9.0651092e+003  1.9277850e+005  2.7000000e+001
  9.0587969e+003  1.9273034e+005  2.7000000e+001
  4.8258793e+002  1.7714947e+005  1.1140000e+003
  4.6128693e+003  2.0148504e+005  1.4000000e+001
  2.4442149e+003  1.8118686e+005  3.9200000e+002
  1.1533355e+004  2.1131754e+005 -1.0000000e+000
  1.3818600e+002  1.7860586e+005  1.9790000e+003
  2.6422127e+003  1.8346921e+005  2.9400000e+002
  1.1493355e+004  2.1145252e+005 -1.0000000e+000
  5.3400581e+002  1.7693656e+005  7.9900000e+002
  4.0328886e+003  2.1526278e+005  1.0000000e+001
  1.5819647e+002  1.8015087e+005  1.7390000e+003
  2.3327728e+002  1.7950951e+005  1.5520000e+003
