  1.6000000e+001  1.6856000e+002  0.0000000e+000
  2.4000000e+001  3.6120000e+001  6.4000000e+001
  2.4000000e+001  3.6120000e+001  5.6000000e+001
  2.4000000e+001  5.5484000e+002  4.5100000e+002
  1.6000000e+001  7.1136000e+002  5.4000000e+002
  2.4000000e+001  3.6120000e+001  5.8000000e+001
  4.0000000e+001  5.0668000e+002  5.0400000e+002
  3.2000000e+001  1.2040000e+001  8.8000000e+001
  5.1536938e+001  1.6856000e+002  1.5800000e+002
  1.6000000e+001  6.5016000e+002  4.3600000e+002
  5.6000000e+001  3.6320000e+002  3.6000000e+002
  2.7536938e+001  4.5752000e+002  4.0000000e+002
  4.0000000e+001  6.4012000e+002  4.5700000e+002
  4.8000000e+001  5.8996000e+002  2.7900000e+002
  4.8000000e+001  2.4080000e+001  7.3000000e+001
  6.4000000e+001  7.4648000e+002  4.4800000e+002
  4.8000000e+001  6.2608000e+002  4.0400000e+002
  1.1536938e+001  3.4916000e+002  3.0600000e+002
  5.6000000e+001  2.7892000e+002  2.9200000e+002
  3.2000000e+001  4.8160000e+001  5.2000000e+001
