  7.2000000e+001  4.9364000e+002  0.0000000e+000
  2.9525956e+002  1.0956400e+003  1.0620000e+003
  9.6000000e+001  4.9364000e+002  0.0000000e+000
  2.0800000e+002  4.5752000e+002  1.6000000e+001
  1.8400000e+002  3.2508000e+002  6.3000000e+001
  2.9701752e+002  1.9504800e+003  7.9800000e+002
  1.8962573e+002  4.5752000e+002  2.8000000e+001
  3.3733958e+002  1.5531600e+003  1.3520000e+003
  9.6000000e+001  4.9364000e+002  1.4000000e+001
  2.1600000e+002  1.8300800e+003  5.2400000e+002
  1.7484437e+002  6.8628000e+002  2.0100000e+002
  1.6889111e+002  6.2608000e+002  8.2000000e+001
  4.6173549e+002  4.4548000e+002  5.5400000e+002
  3.1658864e+002  5.4180000e+002  5.1400000e+002
  1.0799685e+002  5.5384000e+002  1.4900000e+002
  3.0400000e+002  4.0936000e+002  8.3000000e+001
  4.1527905e+002  7.5852000e+002  5.8200000e+002
  3.4400000e+002  1.1678800e+003  4.7600000e+002
  5.1249322e+002  2.0227200e+003  7.6000000e+002
  3.3331372e+002  1.3003200e+003  4.4200000e+002
