  0.0000000e+000  1.9588106e+005  0.0000000e+000
  0.0000000e+000  1.9215951e+005 -2.0000000e+000
  1.4429435e+002  1.9534087e+005  6.4000000e+001
  0.0000000e+000  1.9616041e+005  0.0000000e+000
  0.0000000e+000  1.9224639e+005  0.0000000e+000
  1.4429435e+002  1.9534087e+005  6.4000000e+001
  0.0000000e+000  1.9583189e+005  0.0000000e+000
  0.0000000e+000  1.9224639e+005  0.0000000e+000
  1.4429435e+002  1.9534087e+005  6.4000000e+001
  0.0000000e+000  1.9596357e+005  0.0000000e+000
  1.4429435e+002  1.9534087e+005  6.2000000e+001
  0.0000000e+000  1.9602873e+005  0.0000000e+000
  0.0000000e+000  1.9609389e+005  0.0000000e+000
  1.4429435e+002  1.9534087e+005  6.4000000e+001
  0.0000000e+000  1.9591877e+005  0.0000000e+000
  0.0000000e+000  1.9607217e+005  0.0000000e+000
  0.0000000e+000  1.9596357e+005  0.0000000e+000
  0.0000000e+000  1.9602873e+005  0.0000000e+000
  1.4429435e+002  1.9534087e+005  6.3000000e+001
  0.0000000e+000  1.9605045e+005  0.0000000e+000
  5.0142775e+002  2.6830663e+005  2.4400000e+003
  1.7082105e+003  3.0864661e+005  0.0000000e+000
  1.2935894e+003  2.2412088e+005  1.0870000e+003
  1.7002105e+003  3.1146738e+005  0.0000000e+000
  4.9342775e+002  2.5754455e+005  3.4130000e+003
  1.7002105e+003  3.0873089e+005  0.0000000e+000
  7.6755829e+002  2.6171837e+005  3.0240000e+003
  1.0349640e+003  2.3043189e+005  1.2600000e+003
  1.3226780e+003  2.7758384e+005  3.7500000e+002
  9.8550131e+002  3.0452838e+005  1.0140000e+003
  1.2736141e+003  2.3911145e+005  1.0490000e+003
  6.3295421e+002  2.9892285e+005  2.1060000e+003
  5.0942775e+002  2.9463848e+005  2.5060000e+003
  6.0119002e+002  2.7099022e+005  2.3540000e+003
  5.3319194e+002  2.9689240e+005  2.3000000e+003
  1.2746780e+003  2.4966231e+005  1.0360000e+003
  1.5933282e+003  2.3569125e+005  9.6700000e+002
  5.0142775e+002  2.6720332e+005  2.5090000e+003
  1.4513007e+003  2.4450531e+005  5.3200000e+002
  1.3095894e+003  2.2395904e+005  1.0030000e+003
  8.6860366e+002  2.4517470e+005  1.2170000e+003
  9.3500506e+002  2.0863480e+005  1.1900000e+003
  1.9075610e+003  3.2247781e+005  0.0000000e+000
  8.7900506e+002  2.1816582e+005  1.4610000e+003
  1.9765610e+003  3.2060369e+005  5.0000000e+000
  1.8896745e+003  3.2224857e+005  0.0000000e+000
  1.6341323e+003  2.7818819e+005  1.8000000e+001
  1.2810378e+003  2.5039140e+005  3.4100000e+002
  1.2515413e+003  2.3430514e+005  8.5900000e+002
  9.3500506e+002  2.6743727e+005  7.2900000e+002
  1.0142562e+003  2.3836825e+005  8.0400000e+002
  1.4970378e+003  2.9396174e+005  2.5000000e+001
  9.5390247e+002  2.8522387e+005  5.7200000e+002
  1.1102562e+003  2.8668710e+005  3.2600000e+002
  2.0146745e+003  3.1915449e+005  9.0000000e+000
  1.1655845e+003  2.7643110e+005  2.7700000e+002
  1.3530378e+003  2.6014232e+005  1.0100000e+002
  1.3690378e+003  2.6014232e+005  9.9000000e+001
  1.4970378e+003  2.9385314e+005  2.5000000e+001
  9.2460366e+002  2.2355894e+005  9.2900000e+002
  2.6036908e+002  2.0751990e+005  0.0000000e+000
  0.0000000e+000  2.0638088e+005  3.3000000e+002
  4.2949114e+001  2.0185758e+005  3.4800000e+002
  5.4305436e+001  2.5787277e+005  1.8000000e+001
  3.4949114e+001  2.0375082e+005  5.8700000e+002
  4.6511829e+002  2.0555801e+005  1.1000000e+001
  1.4199683e+000  2.2761651e+005  1.0000000e+002
  2.6949114e+001  2.0518038e+005  4.0000000e+002
  2.4305465e+002  2.4653297e+005  1.8000000e+001
  2.8436908e+002  2.0358831e+005  1.2000000e+001
  4.5711829e+002  2.0539895e+005  3.7000000e+001
  0.0000000e+000  2.1593904e+005  2.7200000e+002
  1.5016918e+002  2.1435495e+005  1.1100000e+002
  1.7569833e+002  2.0401679e+005  2.0900000e+002
  1.0230544e+002  2.5655789e+005  3.5000000e+001
  2.3636908e+002  2.0329201e+005  1.9600000e+002
  2.3505465e+002  2.5391823e+005  2.8000000e+001
  2.5236908e+002  2.0917931e+005  2.1000000e+001
  5.0949114e+001  2.0483479e+005  2.3200000e+002
  1.4199683e+000  2.0811850e+005  1.3500000e+002
  1.2009117e+003  2.1824872e+005  4.7700000e+002
  2.2133670e+003  1.8868128e+005  3.1400000e+002
  3.9247650e+003  2.4086731e+005  0.0000000e+000
  1.2009117e+003  2.1818852e+005  5.5100000e+002
  2.4066803e+003  2.8967877e+005  5.9000000e+001
  2.5824131e+003  2.7505693e+005  2.3000000e+001
  1.9101535e+003  2.3807502e+005  2.4100000e+002
  1.6086687e+003  2.2119980e+005  2.9500000e+002
  3.5581192e+003  2.1951372e+005  8.4000000e+001
  2.2133670e+003  2.0345366e+005  1.1200000e+002
  3.0109208e+003  2.4540612e+005  4.7000000e+001
  3.0140801e+003  2.2356574e+005  8.0000000e+001
  1.2249117e+003  2.2021121e+005  4.1900000e+002
  1.9706208e+003  2.6317345e+005  8.1000000e+001
  1.9529189e+003  2.5869201e+005  8.7000000e+001
  2.2293670e+003  1.9789649e+005  2.8000000e+002
  2.2133670e+003  2.2181727e+005  1.6100000e+002
  3.1121017e+003  1.9643461e+005  1.1000000e+002
  3.1201017e+003  1.9642057e+005  7.3000000e+001
  1.2249117e+003  2.2021121e+005  4.1000000e+002
  3.9718004e+002  2.8775954e+005  0.0000000e+000
  2.1868938e+002  1.9160213e+005  1.9960000e+003
  9.3444412e+001  2.7982626e+005  1.2600000e+003
  1.1491287e+003  2.7118147e+005  5.4000000e+001
  3.7123976e+002  2.8773546e+005  0.0000000e+000
  2.1068938e+002  1.9162149e+005  2.0340000e+003
  9.4824012e+002  2.7056260e+005  7.9000000e+001
  5.0323557e+002  2.1083512e+005  2.4600000e+002
  3.1068938e+002  2.3814802e+005  3.5100000e+002
  2.5468938e+002  1.9421086e+005  1.3130000e+003
  2.6268938e+002  2.1756536e+005  1.1030000e+003
  2.5672726e+002  2.8237546e+005  6.8000000e+002
  2.1868938e+002  2.1387221e+005  1.9340000e+003
  2.1078104e+002  2.8232564e+005  8.7900000e+002
  3.6091428e+002  2.3432583e+005  1.1800000e+002
  3.1068938e+002  2.0209672e+005  3.9500000e+002
  2.1068938e+002  2.1382405e+005  1.9350000e+003
  3.1068938e+002  2.2713702e+005  3.8200000e+002
  5.1123557e+002  2.3288987e+005  2.3500000e+002
  2.6984902e+002  2.8584935e+005  4.3000000e+001
  5.9827113e+003  2.0903339e+005  0.0000000e+000
  0.0000000e+000  1.9463723e+005  3.0000000e+000
  0.0000000e+000  1.9463723e+005  3.0000000e+000
  5.9827113e+003  2.0901167e+005  0.0000000e+000
  5.9107113e+003  2.1102918e+005  0.0000000e+000
  5.6616353e+003  2.0911298e+005  2.0000000e+000
  5.7176353e+003  2.0709547e+005  2.0000000e+000
  5.7267621e+003  2.0999028e+005  1.0000000e+000
  5.7267621e+003  2.0999028e+005  1.0000000e+000
  5.7176353e+003  2.0709547e+005  2.0000000e+000
  5.7016353e+003  2.0725279e+005  2.0000000e+000
  5.9427113e+003  2.1087462e+005  0.0000000e+000
  5.6616353e+003  2.0911298e+005  2.0000000e+000
  5.9107113e+003  2.1105326e+005  0.0000000e+000
  5.6776353e+003  2.0894362e+005  2.0000000e+000
  5.9507113e+003  2.0919071e+005  0.0000000e+000
  5.9667113e+003  2.0916899e+005  0.0000000e+000
  5.9427113e+003  2.1087462e+005  0.0000000e+000
  5.7016353e+003  2.0725279e+005  2.0000000e+000
  5.6776353e+003  2.0895566e+005  2.0000000e+000
  2.4516221e+002  1.7567330e+005  5.9500000e+002
  1.4452598e+002  2.4410445e+005  0.0000000e+000
  0.0000000e+000  2.3857510e+005 -1.0000000e+000
  1.4452598e+002  2.4400813e+005  0.0000000e+000
  2.5316221e+002  1.7566950e+005  5.8500000e+002
  3.9551705e+002  2.1358871e+005 -2.0000000e+000
  1.4452598e+002  1.8666232e+005  2.4900000e+002
  3.6371561e+002  1.7664533e+005  5.4200000e+002
  0.0000000e+000  2.3853898e+005  9.0000000e+000
  8.0996822e+001  2.3924575e+005 -1.0000000e+000
  1.4758149e+002  2.2395092e+005 -2.0000000e+000
  1.4452598e+002  1.8661516e+005  2.5800000e+002
  3.7171561e+002  1.7711471e+005  4.8100000e+002
  1.4758149e+002  2.0210750e+005 -3.0000000e+000
  3.7171561e+002  1.7706039e+005  4.8800000e+002
  2.5316221e+002  1.7577590e+005  5.7500000e+002
  3.8751705e+002  2.1356463e+005 -2.0000000e+000
  8.0996822e+001  2.3926747e+005 -3.0000000e+000
  3.8751705e+002  2.1369511e+005  6.0000000e+000
  1.4452598e+002  1.9363932e+005  1.1800000e+002
  1.4452598e+002  1.7131857e+005  3.3000000e+002
  1.4452598e+002  1.9262304e+005  0.0000000e+000
  0.0000000e+000  1.8618504e+005  4.8000000e+002
  0.0000000e+000  1.8577350e+005  5.9300000e+002
  1.4452598e+002  1.9262304e+005  0.0000000e+000
  1.4452598e+002  1.9224560e+005  3.0000000e+000
  9.8432821e+001  1.8074157e+005  3.1900000e+002
  1.3308947e+001  1.9135550e+005  6.4000000e+001
  1.4452598e+002  1.7219538e+005  2.3700000e+002
  1.1174177e+002  1.8545420e+005  5.4000000e+001
  1.3308947e+001  1.8113956e+005  2.0900000e+002
  0.0000000e+000  1.8679339e+005  4.2700000e+002
  1.3308947e+001  1.9127084e+005  1.3000000e+002
  1.3308947e+001  1.8094885e+005  3.5500000e+002
  9.8432821e+001  1.9079880e+005  5.6000000e+001
  9.8432821e+001  1.9095770e+005  4.3000000e+001
  9.8432821e+001  1.8347316e+005  1.0900000e+002
  0.0000000e+000  1.8657568e+005  4.7200000e+002
  0.0000000e+000  1.8678235e+005  3.9600000e+002
  0.0000000e+000  1.8798690e+005  1.9400000e+002
  7.9264885e+002  2.8364733e+005  2.5000000e+003
  3.5228861e+003  3.0721615e+005  0.0000000e+000
  1.4225478e+003  2.8060023e+005  1.7550000e+003
  3.5468861e+003  3.0643719e+005  1.0000000e+001
  2.5957785e+003  3.1000687e+005  1.2000000e+002
  8.7728658e+002  2.8181949e+005  3.1000000e+003
  2.8044226e+003  2.9438278e+005  2.2100000e+002
  1.8162892e+003  3.0287499e+005  5.1600000e+002
  2.0169682e+003  2.9380003e+005  2.8100000e+002
  9.7332151e+002  2.8935128e+005  1.5370000e+003
  1.1942254e+003  2.8143727e+005  2.2320000e+003
  1.6479738e+003  2.9154997e+005  7.3700000e+002
  1.5279738e+003  3.0803755e+005  9.7500000e+002
  1.7679389e+003  2.8198506e+005  1.4150000e+003
  2.5923771e+003  3.0998279e+005  1.1300000e+002
  1.9209333e+003  2.9132763e+005  6.1200000e+002
  1.2788981e+003  2.8762411e+005  1.2180000e+003
  7.9264885e+002  2.8456369e+005  2.3970000e+003
  1.4225478e+003  2.8064367e+005  1.8090000e+003
  8.7728658e+002  2.8235457e+005  3.0610000e+003
  6.4717878e+003  3.4288247e+005  0.0000000e+000
  0.0000000e+000  2.0667166e+005  1.4800000e+002
  1.1438939e+004  2.8064791e+005  0.0000000e+000
  0.0000000e+000  2.0620546e+005  2.7300000e+002
  6.4957878e+003  3.4288247e+005  0.0000000e+000
  2.2455201e+003  2.3979297e+005  4.2000000e+001
  5.7171849e+002  2.8968154e+005  3.7000000e+001
  1.2784176e+003  3.2175857e+005  2.5000000e+001
  4.7159165e+002  2.2079421e+005  5.8000000e+001
  4.4759165e+002  2.1984432e+005  7.0000000e+001
  3.0441472e+003  2.5757729e+005  8.0000000e+000
  8.4047456e+003  2.7302999e+005 -1.0000000e+000
  4.3363123e+003  3.3802812e+005  6.0000000e+000
  3.2995524e+003  2.2888629e+005  2.3000000e+001
  1.0045582e+004  2.4985743e+005  1.0000000e+000
  8.2652493e+003  2.4385326e+005  1.0000000e+000
  5.2973702e+003  2.3311897e+005  1.1000000e+001
  1.7340093e+003  3.2964271e+005  8.0000000e+000
  4.7959165e+002  2.2068561e+005  6.5000000e+001
  9.6016947e+003  2.4777431e+005  0.0000000e+000
  1.1810321e+004  4.4482444e+005  0.0000000e+000
  3.1648084e+003  2.9212429e+005  7.4800000e+002
  1.1941218e+004  4.4197208e+005  3.0000000e+000
  2.1622919e+003  3.0946187e+005  1.9760000e+003
  2.1542919e+003  3.0669903e+005  2.1350000e+003
  1.1325185e+004  4.4984904e+005  4.0000000e+000
  2.7172215e+003  3.0258359e+005  1.3130000e+003
  7.6281034e+003  3.8668498e+005  8.1000000e+001
  9.9972829e+003  4.1553081e+005  0.0000000e+000
  3.1874865e+003  3.2415902e+005  5.0800000e+002
  7.4039586e+003  3.9224476e+005  4.1000000e+001
  9.5036114e+003  4.1468412e+005  3.0000000e+001
  2.4813304e+003  3.0885251e+005  2.0590000e+003
  2.8586473e+003  2.9579337e+005  1.0260000e+003
  3.8155884e+003  3.3296289e+005  2.5400000e+002
  5.8852844e+003  3.5829872e+005  5.7000000e+001
  5.5631525e+003  3.5916098e+005  6.0000000e+001
  5.1192965e+003  3.5209179e+005  2.0000000e+002
  4.5107041e+003  3.2880895e+005  2.6200000e+002
  5.1753111e+003  3.5213334e+005  1.8300000e+002
  3.4043282e+002  2.5073646e+005  3.2410000e+003
  1.7530461e+003  2.2929433e+005  2.0350000e+003
  5.5652923e+003  3.0783223e+005  0.0000000e+000
  5.2805226e+003  3.2206007e+005  4.0000000e+000
  3.4043282e+002  2.5008486e+005  3.1070000e+003
  5.5647965e+003  3.0783223e+005  0.0000000e+000
  2.5983572e+003  2.6379881e+005  1.2360000e+003
  3.9424824e+003  2.8104152e+005  7.1300000e+002
  7.8173873e+002  2.8784538e+005  2.5480000e+003
  2.7283159e+003  2.9597490e+005  6.1800000e+002
  4.1844114e+003  3.1875602e+005  3.0800000e+002
  2.8214817e+003  2.3156668e+005  1.5350000e+003
  1.7370461e+003  2.3682125e+005  1.9460000e+003
  1.6467437e+003  2.3953186e+005  1.8090000e+003
  6.7767846e+002  2.7211924e+005  2.5800000e+003
  4.0362362e+003  2.3292666e+005  9.8400000e+002
  4.9469128e+003  3.0409556e+005  8.8000000e+001
  4.4400013e+003  2.8133547e+005  1.6700000e+002
  1.6627437e+003  2.3976506e+005  1.8050000e+003
  3.4043282e+002  2.6851367e+005  2.7910000e+003
  0.0000000e+000  1.9153073e+005  9.4600000e+002
  9.5935204e+001  2.8903534e+005  0.0000000e+000
  1.0393520e+002  2.8903534e+005  0.0000000e+000
  0.0000000e+000  1.9159589e+005  9.2100000e+002
  3.0495234e+002  2.2533000e+005  2.5000000e+001
  0.0000000e+000  1.9950172e+005  6.3100000e+002
  2.1695234e+002  2.0977184e+005  3.5400000e+002
  2.3161388e+001  2.0680560e+005  4.1400000e+002
  7.2881250e+001  2.3894512e+005  1.1100000e+002
  2.3295234e+002  2.0575157e+005  2.2500000e+002
  0.0000000e+000  2.0287973e+005  7.8500000e+002
  0.0000000e+000  1.9824592e+005  7.6500000e+002
  0.0000000e+000  2.1195216e+005  4.1600000e+002
  2.5695234e+002  2.0806916e+005  1.9100000e+002
  1.0765428e+002  2.6093370e+005  0.0000000e+000
  1.1848708e+002  2.5172039e+005  0.0000000e+000
  1.5161082e+001  2.1625558e+005  1.9300000e+002
  5.4191313e+001  2.8174880e+005  4.1000000e+001
  1.1170984e+001  2.7253988e+005  1.2500000e+002
  5.4800521e+001  2.2928083e+005  8.3000000e+001
  0.0000000e+000  1.7360489e+005  0.0000000e+000
  0.0000000e+000  1.7354469e+005  0.0000000e+000
  0.0000000e+000  1.7361693e+005  0.0000000e+000
  0.0000000e+000  1.7359385e+005  0.0000000e+000
  0.0000000e+000  1.7356877e+005  0.0000000e+000
  0.0000000e+000  1.7362897e+005  0.0000000e+000
  0.0000000e+000  1.7379937e+005  0.0000000e+000
  0.0000000e+000  1.7360489e+005  0.0000000e+000
  0.0000000e+000  1.7354469e+005  0.0000000e+000
  0.0000000e+000  1.7360489e+005  0.0000000e+000
  0.0000000e+000  1.7356877e+005  0.0000000e+000
  0.0000000e+000  1.7360489e+005  0.0000000e+000
  0.0000000e+000  1.7355673e+005  0.0000000e+000
  0.0000000e+000  1.7362897e+005  0.0000000e+000
  0.0000000e+000  1.7354569e+005  0.0000000e+000
  0.0000000e+000  1.7365429e+005  0.0000000e+000
  0.0000000e+000  1.7362897e+005  0.0000000e+000
  0.0000000e+000  1.7360489e+005  0.0000000e+000
  0.0000000e+000  1.7361693e+005  0.0000000e+000
  0.0000000e+000  1.7360489e+005  0.0000000e+000
  6.7711755e+001  2.0066632e+005  4.6500000e+002
  2.7620987e+002  2.8021583e+005  0.0000000e+000
  5.0666178e+002  2.3301595e+005  7.8000000e+001
  2.9091675e+002  2.8021583e+005  0.0000000e+000
  6.7711755e+001  2.0061816e+005  3.4500000e+002
  1.1255252e+002  2.3517360e+005  6.9000000e+001
  5.0666178e+002  2.3306411e+005  7.6000000e+001
  4.7349974e+002  2.6838660e+005  3.2000000e+001
  6.7711755e+001  2.3651669e+005  3.1400000e+002
  4.1463186e+002  2.2658854e+005  2.4700000e+002
  4.5749974e+002  2.7570141e+005  3.2000000e+001
  3.7695340e+002  2.2704043e+005  3.0100000e+002
  3.4329353e+002  2.3276895e+005  2.7400000e+002
  3.1929353e+002  2.3357886e+005  2.9800000e+002
  6.7711755e+001  2.3530537e+005  3.4900000e+002
  4.0533874e+002  2.2651134e+005  2.3700000e+002
  1.0771176e+002  2.3513016e+005  7.1000000e+001
  3.6895340e+002  2.2684495e+005  2.6800000e+002
  4.9749974e+002  2.6841068e+005  3.8000000e+001
  3.3529353e+002  2.3272551e+005  2.9600000e+002
  0.0000000e+000  1.6885521e+005  1.3100000e+002
  0.0000000e+000  1.6979462e+005  2.0000000e+000
  0.0000000e+000  1.6902525e+005  1.3100000e+002
  0.0000000e+000  1.6974014e+005  2.0000000e+000
  0.0000000e+000  1.6958810e+005  2.0000000e+000
  0.0000000e+000  1.6888029e+005  1.3200000e+002
  0.0000000e+000  1.6882145e+005  1.3200000e+002
  0.0000000e+000  1.6880209e+005  1.3200000e+002
  0.0000000e+000  1.6874525e+005  1.2900000e+002
  0.0000000e+000  1.6864493e+005  1.5700000e+002
  0.0000000e+000  1.6967894e+005  2.0000000e+000
  0.0000000e+000  1.6955025e+005  7.0000000e+000
  0.0000000e+000  1.6886489e+005  1.3300000e+002
  0.0000000e+000  1.6896381e+005  1.4400000e+002
  0.0000000e+000  1.6893005e+005  1.3300000e+002
  0.0000000e+000  1.6962086e+005  2.0000000e+000
  0.0000000e+000  1.6963121e+005  2.0000000e+000
  0.0000000e+000  1.6879265e+005  1.3400000e+002
  0.0000000e+000  1.6884181e+005  1.3200000e+002
  0.0000000e+000  1.6892869e+005  1.3400000e+002
  4.5962696e+003  3.0437016e+005  9.0700000e+002
  4.2418004e+003  3.0547526e+005  6.3900000e+002
  1.8223129e+004  4.7400837e+005  0.0000000e+000
  4.5562696e+003  3.0435812e+005  8.1500000e+002
  1.8343129e+004  4.7400837e+005  0.0000000e+000
  1.8023129e+004  4.7289213e+005 -2.0000000e+000
  1.1441661e+004  4.1018404e+005  1.3000000e+001
  7.7884775e+003  3.8381934e+005  5.8000000e+001
  6.0293477e+003  3.6454623e+005  1.6800000e+002
  1.1401661e+004  4.1700826e+005  1.3000000e+001
  1.0384113e+004  4.0918697e+005  1.6000000e+001
  8.2075560e+003  3.8206908e+005  2.5000000e+001
  4.9056798e+003  3.4202601e+005  4.5200000e+002
  4.2498004e+003  3.0545118e+005  6.3900000e+002
  5.1197230e+003  3.4594637e+005  2.5600000e+002
  4.2498004e+003  3.1921563e+005  5.7700000e+002
  4.8816798e+003  3.4195613e+005  4.6600000e+002
  5.4346899e+003  3.5264271e+005  2.2000000e+002
  4.2578004e+003  3.1921563e+005  5.6300000e+002
  4.2498004e+003  3.0549934e+005  6.6600000e+002
  0.0000000e+000  2.1095659e+005  1.4200000e+003
  7.7237866e+003  4.0755187e+005  2.0000000e+000
  5.8152458e+002  1.7737042e+005  1.1260000e+003
  5.4152458e+002  1.8296260e+005  1.6910000e+003
  7.7510406e+003  4.0758799e+005  2.0000000e+000
  4.1976881e+003  3.4983207e+005  6.0000000e+000
  1.7390949e+003  2.2084373e+005  3.5000000e+001
  4.0658478e+002  2.7360289e+005  3.7000000e+001
  0.0000000e+000  2.1463147e+005  3.7000000e+002
  0.0000000e+000  2.1157916e+005  1.2120000e+003
  2.4758364e+002  2.2742121e+005  4.5000000e+001
  4.6007792e+001  2.6752689e+005  2.0600000e+002
  5.8152458e+002  1.7967344e+005  1.1060000e+003
  0.0000000e+000  2.1285808e+005  8.3400000e+002
  9.7803486e+002  2.5392837e+005  1.1000000e+001
  0.0000000e+000  2.1281464e+005  8.1500000e+002
  5.4952458e+002  1.8335356e+005  1.8520000e+003
  0.0000000e+000  2.1100003e+005  1.3940000e+003
  9.4344638e+002  2.5605739e+005  4.0000000e+001
  1.7310949e+003  2.2084373e+005  3.8000000e+001
  9.5583495e+002  2.1707373e+005  0.0000000e+000
  0.0000000e+000  2.0362407e+005  2.3040000e+003
  7.9628733e+002  1.6565976e+005  1.1670000e+003
  1.9383704e+002  2.5828301e+005  6.4400000e+002
  1.2160294e+003  2.1569132e+005  0.0000000e+000
  0.0000000e+000  2.0226441e+005  2.5520000e+003
  7.9585980e+002  1.6693992e+005  1.1130000e+003
  3.9887930e+002  2.0147251e+005  9.0600000e+002
  1.1278519e+002  2.3371228e+005  1.0280000e+003
  4.4456157e+002  2.4951731e+005  3.0300000e+002
  1.2089791e+001  2.0681599e+005  1.5990000e+003
  8.2110647e+002  2.1192524e+005  1.2300000e+002
  6.9231192e+002  2.0433772e+005  6.9700000e+002
  1.1440294e+003  2.1571540e+005  0.0000000e+000
  9.3183495e+002  2.1704965e+005  0.0000000e+000
  1.6091732e+002  2.5709749e+005  7.6500000e+002
  3.8884938e+001  2.0394957e+005  1.8050000e+003
  4.6884347e+002  2.2826277e+005  2.3600000e+002
  3.8884938e+001  2.0328951e+005  1.8650000e+003
  4.2641957e+002  2.2593515e+005  5.4900000e+002
