  3.0153657e+004  1.0616547e+006  0.0000000e+000
  7.8063606e+003  9.6884867e+005  4.9410000e+003
  7.9063606e+003  8.2676604e+005  7.4950000e+003
  7.8423606e+003  8.3923896e+005  7.4040000e+003
  3.0865361e+004  9.4607060e+005  2.1300000e+003
  2.7379657e+004  1.1280305e+006  2.6500000e+002
  1.2253657e+004  8.5445635e+005  6.4990000e+003
  2.6582361e+004  8.9152668e+005  3.8650000e+003
  7.8773606e+003  9.3245107e+005  5.1190000e+003
  1.7185361e+004  8.5274601e+005  5.7090000e+003
  1.4977361e+004  8.7318520e+005  4.1610000e+003
  2.1261361e+004  1.0197207e+006  9.5800000e+002
  2.9631657e+004  1.0684753e+006  7.8000000e+001
  1.8241361e+004  1.0317641e+006  1.4230000e+003
  2.1213361e+004  9.8200412e+005  1.3020000e+003
  1.4908361e+004  1.0316202e+006  3.1700000e+003
  2.9719361e+004  9.0653872e+005  2.9360000e+003
  2.7363657e+004  1.1251142e+006  1.7000000e+002
  2.7639657e+004  1.0572516e+006  1.7700000e+002
  1.8153361e+004  1.0025797e+006  1.7860000e+003
  1.9799782e+004  1.0169250e+006  5.9060000e+003
  2.1866782e+004  1.0023130e+006  7.5620000e+003
  2.1730782e+004  1.0030924e+006  7.7220000e+003
  3.4915128e+004  1.1283086e+006  0.0000000e+000
  3.6035128e+004  1.1131590e+006  2.2600000e+002
  3.4723128e+004  1.1279828e+006  0.0000000e+000
  2.1907782e+004  1.0366456e+006  3.6890000e+003
  2.3493782e+004  1.0524109e+006  2.4470000e+003
  2.1355782e+004  1.0266536e+006  5.1890000e+003
  3.0236782e+004  1.0891858e+006  1.0860000e+003
  2.1426782e+004  1.0135592e+006  6.8570000e+003
  2.7101782e+004  1.0699111e+006  1.6590000e+003
  3.1484128e+004  1.1050808e+006  2.9000000e+002
  2.7775782e+004  1.0731914e+006  1.1310000e+003
  2.7245782e+004  1.0590033e+006  2.3530000e+003
  3.1332128e+004  1.1049939e+006  2.7600000e+002
  1.9720782e+004  1.0169250e+006  5.7370000e+003
  3.0188782e+004  1.0787710e+006  1.0910000e+003
  3.6139128e+004  1.1158017e+006  2.1400000e+002
  2.1699782e+004  1.0170231e+006  5.5440000e+003
  1.1791432e+004  8.4356110e+005  6.2440000e+003
  5.2053334e+003  8.8310072e+005  7.0320000e+003
  3.1811247e+004  1.0712463e+006  0.0000000e+000
  3.5325030e+004  9.5298815e+005  7.8700000e+002
  5.2053334e+003  8.8310072e+005  7.1590000e+003
  8.1058111e+003  8.8453534e+005  4.3440000e+003
  1.1831432e+004  8.4996308e+005  6.0900000e+003
  2.3550247e+004  1.0297437e+006  2.8000000e+002
  1.7044030e+004  9.1241815e+005  2.0620000e+003
  3.3431030e+004  9.5134300e+005  1.2740000e+003
  9.6440282e+003  8.8187281e+005  3.9830000e+003
  1.6204030e+004  9.8019318e+005  2.2450000e+003
  1.1503432e+004  8.6228194e+005  6.3260000e+003
  3.0353247e+004  1.0631388e+006  4.9000000e+001
  1.1649030e+004  9.1933705e+005  2.8450000e+003
  1.1852030e+004  9.1208635e+005  3.4630000e+003
  2.2332247e+004  1.0076820e+006  7.3000000e+002
  2.8911030e+004  9.9277679e+005  2.1900000e+002
  2.2488247e+004  1.0079892e+006  8.0300000e+002
  3.2377030e+004  1.0172524e+006  7.5000000e+001
  3.2897033e+004  1.0781065e+006  0.0000000e+000
  2.4215631e+004  7.5264115e+005  9.3380000e+003
  1.3156631e+004  8.6960992e+005  6.0380000e+003
  2.2726631e+004  7.5565411e+005  1.0179000e+004
  3.2996803e+004  1.0781934e+006  0.0000000e+000
  3.3821033e+004  9.7504883e+005  5.5100000e+002
  3.0975033e+004  1.0687978e+006  9.4000000e+001
  2.5368631e+004  9.5072659e+005  1.0480000e+003
  2.9262033e+004  8.5123323e+005  5.2030000e+003
  1.9256631e+004  8.7393757e+005  4.0960000e+003
  1.6727631e+004  8.9793748e+005  2.6960000e+003
  3.3165033e+004  8.1380350e+005  7.1430000e+003
  1.6682631e+004  9.0746551e+005  2.7650000e+003
  2.2684631e+004  8.3611631e+005  7.9510000e+003
  2.7452975e+004  8.4779256e+005  6.6220000e+003
  2.2569631e+004  7.7249767e+005  1.0083000e+004
  1.9064631e+004  8.7322184e+005  4.2950000e+003
  2.2333631e+004  9.2371369e+005  1.9020000e+003
  2.2333631e+004  9.2371369e+005  1.8830000e+003
  1.3380631e+004  8.6951167e+005  6.1560000e+003
  1.3714035e+004  8.6643278e+005  6.4740000e+003
  1.0539012e+004  8.9903196e+005  8.9040000e+003
  2.9917873e+004  1.0961459e+006  0.0000000e+000
  2.9909873e+004  1.0961242e+006  0.0000000e+000
  1.0539012e+004  8.9903196e+005  8.8980000e+003
  3.0101873e+004  1.0192334e+006  2.1000000e+001
  2.4880873e+004  9.6804060e+005  1.0340000e+003
  1.7368873e+004  8.9875084e+005  3.4700000e+003
  1.4272873e+004  9.1396168e+005  2.4250000e+003
  2.7945873e+004  1.0488083e+006  4.2600000e+002
  2.7953873e+004  1.0488083e+006  4.5400000e+002
  1.8232873e+004  9.3608484e+005  1.7450000e+003
  1.1940291e+004  9.0879246e+005  5.5580000e+003
  1.4194873e+004  8.7923078e+005  3.6650000e+003
  1.3706035e+004  8.6643278e+005  6.4280000e+003
  2.1306873e+004  9.4955924e+005  1.2680000e+003
  1.1988291e+004  9.2101142e+005  4.9420000e+003
  1.2307850e+004  8.8964304e+005  8.0780000e+003
  2.2512873e+004  9.9089583e+005  4.5900000e+002
  2.2132873e+004  9.7927449e+005  5.7200000e+002
  4.6667869e+003  7.9632200e+005  8.2340000e+003
  4.1377869e+003  8.1145628e+005  8.2950000e+003
  2.8153852e+004  1.0685704e+006  0.0000000e+000
  2.8141852e+004  1.0685269e+006  0.0000000e+000
  3.7558311e+004  9.5458827e+005  1.1400000e+003
  4.4310058e+003  8.0836637e+005  8.8000000e+003
  1.1393092e+004  8.5750269e+005  5.6040000e+003
  1.9568311e+004  9.0876882e+005  3.4520000e+003
  7.3483542e+003  8.5320411e+005  6.2070000e+003
  1.3263311e+004  8.7403760e+005  4.4020000e+003
  1.5467852e+004  8.6693577e+005  4.3770000e+003
  3.0811311e+004  9.4798817e+005  1.4890000e+003
  1.9608311e+004  9.0876882e+005  3.5110000e+003
  2.2545852e+004  9.7881236e+005  5.5600000e+002
  3.5970311e+004  9.4766993e+005  1.2630000e+003
  2.6237852e+004  1.0359529e+006  3.5700000e+002
  3.0731311e+004  9.4798817e+005  1.4420000e+003
  6.3765469e+003  8.2041650e+005  7.2700000e+003
  2.6381852e+004  1.0021200e+006  2.2900000e+002
  2.2553852e+004  9.7881236e+005  5.7100000e+002
  3.1574608e+004  1.0732385e+006  0.0000000e+000
  7.8106076e+003  8.5932909e+005  7.9690000e+003
  7.7768519e+003  8.9360748e+005  3.9710000e+003
  7.8506076e+003  8.5932909e+005  8.0530000e+003
  2.5865608e+004  1.0889594e+006  4.3700000e+002
  3.1539608e+004  1.0631327e+006  1.6000000e+001
  8.6119097e+003  8.7655599e+005  5.0880000e+003
  7.8666076e+003  8.6791230e+005  7.6770000e+003
  1.2663852e+004  9.3008490e+005  2.7130000e+003
  2.2803608e+004  9.9289784e+005  1.9690000e+003
  1.5041852e+004  9.3556624e+005  2.3030000e+003
  1.2636910e+004  9.1215923e+005  3.3500000e+003
  2.0914608e+004  1.0470799e+006  1.6370000e+003
  1.6762550e+004  9.4602137e+005  2.2650000e+003
  1.7616608e+004  8.9670919e+005  2.4170000e+003
  2.7598608e+004  1.0539515e+006  1.5000000e+002
  2.6110608e+004  9.7244728e+005  1.1160000e+003
  2.5442608e+004  9.7128776e+005  1.9780000e+003
  2.2362608e+004  1.0219587e+006  7.6400000e+002
  2.1300608e+004  1.0138561e+006  1.4460000e+003
  3.7950543e+003  9.2133111e+005  8.4530000e+003
  3.5975566e+004  1.1771068e+006  0.0000000e+000
  7.7132090e+003  7.3306503e+005  1.4811000e+004
  3.9583566e+004  9.8883175e+005  2.8450000e+003
  7.7052090e+003  7.3306503e+005  1.4835000e+004
  3.5903566e+004  1.1770417e+006  0.0000000e+000
  3.2765144e+004  9.5719935e+005  4.1310000e+003
  9.0099950e+003  9.0802987e+005  7.7730000e+003
  1.5249908e+004  8.6512505e+005  8.9440000e+003
  2.5376933e+004  9.5795847e+005  6.1700000e+003
  6.6070543e+003  9.7339211e+005  4.2640000e+003
  2.5148933e+004  1.0865256e+006  7.6300000e+002
  2.0102817e+004  1.0628144e+006  1.7870000e+003
  1.4367209e+004  7.9273159e+005  1.2856000e+004
  2.0694817e+004  1.0570847e+006  1.1070000e+003
  1.3105137e+004  8.3642791e+005  1.1054000e+004
  1.3005137e+004  8.3686643e+005  1.0770000e+004
  1.0704476e+004  1.0272181e+006  2.6150000e+003
  1.4399209e+004  7.9273159e+005  1.2912000e+004
  1.0572476e+004  1.0004818e+006  3.0460000e+003
  2.0376053e+004  9.3943136e+005  2.7490000e+003
  3.9048776e+004  1.1574382e+006  0.0000000e+000
  1.8297053e+004  9.7189226e+005  7.1150000e+003
  3.8896776e+004  1.1480032e+006  3.0000000e+000
  3.9176776e+004  1.1584165e+006 -1.0000000e+000
  1.9379053e+004  9.9857147e+005  6.0700000e+003
  3.1030505e+004  1.1107401e+006  6.2500000e+002
  1.9592053e+004  9.5014707e+005  3.8630000e+003
  3.3625776e+004  1.0376443e+006  2.2500000e+002
  3.3224776e+004  1.0658849e+006  5.4000000e+001
  2.6852053e+004  1.0457195e+006  1.3800000e+003
  2.8135505e+004  1.0188665e+006  1.4960000e+003
  2.4075053e+004  9.5101243e+005  1.4830000e+003
  3.0979505e+004  1.0471082e+006  5.2200000e+002
  2.3152053e+004  9.5884344e+005  1.8040000e+003
  1.8305053e+004  9.8219612e+005  6.9940000e+003
  3.9192776e+004  1.1583731e+006 -1.0000000e+000
  2.0376053e+004  9.3943136e+005  2.6700000e+003
  1.9315053e+004  9.8497735e+005  6.1080000e+003
  2.3032053e+004  9.5709138e+005  2.9330000e+003
  3.0646740e+004  1.0072455e+006  0.0000000e+000
  1.4311096e+004  9.0277351e+005  5.4430000e+003
  3.0678740e+004  1.0041848e+006  8.8000000e+001
  1.4319096e+004  9.0277351e+005  5.4620000e+003
  2.9520403e+004  1.0340848e+006  5.0000000e+001
  1.6832740e+004  8.7774483e+005  4.5050000e+003
  1.9259740e+004  9.2228184e+005  2.0860000e+003
  1.6749740e+004  9.5813994e+005  2.9760000e+003
  2.6031740e+004  1.0092910e+006  4.3300000e+002
  2.0964740e+004  9.6115518e+005  1.5740000e+003
  2.3573740e+004  9.7207612e+005  8.4400000e+002
  2.0073740e+004  9.1683120e+005  3.3920000e+003
  2.2745740e+004  9.6717263e+005  8.5700000e+002
  1.7096740e+004  8.8908780e+005  3.7810000e+003
  2.7759740e+004  9.9034000e+005  4.8900000e+002
  2.9912403e+004  1.0230961e+006  2.0700000e+002
  1.5767740e+004  9.0929278e+005  4.8520000e+003
  2.7799740e+004  9.9034000e+005  5.2400000e+002
  1.5791740e+004  9.0929278e+005  4.9400000e+003
  1.7112740e+004  8.8908780e+005  3.7690000e+003
  1.0797833e+004  8.6472990e+005  4.8630000e+003
  1.1186833e+004  8.3973651e+005  4.4730000e+003
  2.7092623e+004  1.0343321e+006  9.0000000e+000
  2.6924623e+004  1.0425582e+006  8.0000000e+000
  2.6919625e+004  1.0397108e+006  0.0000000e+000
  1.0725833e+004  8.6472990e+005  4.7140000e+003
  1.6522074e+004  9.3880193e+005  1.5000000e+003
  1.7324623e+004  9.0969983e+005  1.8270000e+003
  1.7436623e+004  8.8267115e+005  2.6350000e+003
  1.9556625e+004  9.8323090e+005  8.2600000e+002
  1.1186833e+004  8.3973651e+005  4.4980000e+003
  1.6282074e+004  8.7279160e+005  3.8310000e+003
  2.0030623e+004  9.6877195e+005  6.6900000e+002
  2.6737623e+004  1.0310263e+006  5.1000000e+001
  1.7329833e+004  8.6322628e+005  3.3170000e+003
  2.0254623e+004  9.8731955e+005  5.2600000e+002
  2.3615625e+004  9.9906858e+005  2.3900000e+002
  1.5971283e+004  8.9333192e+005  2.9830000e+003
  1.3922625e+004  8.9488880e+005  2.7990000e+003
  2.2568623e+004  1.0102850e+006  4.4600000e+002
  1.3360925e+004  8.2673947e+005  5.7940000e+003
  3.0719792e+004  1.0097638e+006  0.0000000e+000
  1.3360925e+004  8.2673947e+005  5.8190000e+003
  2.6430925e+004  1.0329396e+006  1.5800000e+002
  3.2455792e+004  9.4779120e+005  5.6400000e+002
  2.8369166e+004  8.9732849e+005  2.6260000e+003
  2.2122792e+004  8.7228231e+005  4.1370000e+003
  2.2764925e+004  9.0687659e+005  3.2730000e+003
  1.8209925e+004  8.5009443e+005  4.5710000e+003
  2.0340925e+004  8.5985987e+005  4.1110000e+003
  2.3776925e+004  9.8488287e+005  8.5700000e+002
  1.4584925e+004  9.1148863e+005  2.2180000e+003
  2.3594792e+004  9.7071795e+005  1.0390000e+003
  2.4887925e+004  1.0271607e+006  4.7200000e+002
  2.9736166e+004  9.0350657e+005  2.4070000e+003
  1.6683792e+004  8.4997679e+005  5.1140000e+003
  3.1575792e+004  9.2760020e+005  1.5910000e+003
  2.5351792e+004  9.5105875e+005  4.8800000e+002
  1.6544925e+004  9.3882140e+005  1.7030000e+003
  3.0735792e+004  9.7832884e+005  5.5000000e+001
  2.0709403e+004  9.2159543e+005  3.9660000e+003
  3.1322145e+004  1.0565608e+006  0.0000000e+000
  1.4743776e+004  9.4527128e+005  6.4460000e+003
  1.4759776e+004  9.4527128e+005  6.4460000e+003
  3.1250145e+004  1.0457278e+006  2.2400000e+002
  3.1098145e+004  1.0562567e+006  0.0000000e+000
  1.8522145e+004  9.7737756e+005  4.4760000e+003
  2.2892193e+004  1.0138165e+006  1.9670000e+003
  2.1061403e+004  9.5215846e+005  3.1650000e+003
  2.6946145e+004  1.0066235e+006  5.2900000e+002
  2.3475403e+004  9.9906847e+005  2.1030000e+003
  1.6899403e+004  9.3218167e+005  5.7930000e+003
  1.9915403e+004  9.7521161e+005  2.8760000e+003
  1.7675403e+004  9.3592252e+005  4.8600000e+003
  3.0018145e+004  1.0329650e+006  4.4300000e+002
  1.5222776e+004  9.3697352e+005  5.8520000e+003
  2.4705145e+004  1.0418387e+006  1.6350000e+003
  2.9978145e+004  1.0332049e+006  4.1000000e+002
  2.4703145e+004  9.6703013e+005  1.7340000e+003
  2.7796403e+004  1.0041491e+006  1.1730000e+003
  1.1276379e+004  8.7858221e+005  6.8260000e+003
  8.9159327e+003  8.8086315e+005  7.5550000e+003
  3.2627263e+004  9.8058927e+005  1.4020000e+003
  9.9619327e+003  8.8011484e+005  7.8760000e+003
  3.1115263e+004  1.0367339e+006  2.4800000e+002
  3.1547263e+004  1.0337422e+006  0.0000000e+000
  1.6018379e+004  9.1197791e+005  5.9340000e+003
  3.1227263e+004  1.0225695e+006  4.1200000e+002
  1.7892263e+004  8.8988450e+005  4.6640000e+003
  2.7130263e+004  9.4248243e+005  2.6810000e+003
  2.0362379e+004  9.8540247e+005  1.9710000e+003
  2.1545263e+004  9.5347312e+005  3.5710000e+003
  2.5397263e+004  9.6212407e+005  1.8430000e+003
  1.5473259e+004  9.2502549e+005  6.2690000e+003
  1.8074379e+004  9.3559885e+005  4.4800000e+003
  2.4823263e+004  9.9929564e+005  1.3780000e+003
  1.8759263e+004  9.9832857e+005  2.3060000e+003
  1.7344379e+004  9.8404798e+005  2.5300000e+003
  1.3306642e+004  9.0109321e+005  6.4310000e+003
  2.3297263e+004  9.2308875e+005  3.8350000e+003
  3.1924838e+004  1.0964586e+006  0.0000000e+000
  1.0897674e+004  9.8450977e+005  7.5770000e+003
  1.5198764e+004  9.6719314e+005  7.5290000e+003
  3.1724838e+004  1.0965268e+006 -1.0000000e+000
  1.1584674e+004  9.6855852e+005  9.4680000e+003
  3.4288923e+004  1.0638079e+006  6.3500000e+002
  2.1539764e+004  1.0408937e+006  1.6410000e+003
  2.3044923e+004  9.9988260e+005  3.9970000e+003
  1.7338764e+004  1.0212662e+006  3.8550000e+003
  2.8537679e+004  1.0723560e+006  8.9100000e+002
  2.0237923e+004  1.0322243e+006  2.9690000e+003
  2.8881679e+004  1.0808166e+006  4.3000000e+002
  1.8255764e+004  9.8193284e+005  6.3720000e+003
  3.4088923e+004  1.0635256e+006  6.4600000e+002
  1.9644923e+004  9.9011647e+005  5.5190000e+003
  1.8784679e+004  1.0063255e+006  3.6590000e+003
  1.3107679e+004  1.0055155e+006  5.1400000e+003
  1.0913674e+004  9.8450977e+005  7.6250000e+003
  2.1515923e+004  9.9804118e+005  4.5170000e+003
  1.1592674e+004  9.6855852e+005  9.4390000e+003
  3.7416752e+004  1.1473885e+006  0.0000000e+000
  1.8083674e+004  9.5979749e+005  4.7050000e+003
  3.7659752e+004  1.1488522e+006 -1.0000000e+000
  1.3228674e+004  9.9163251e+005  7.2830000e+003
  3.7808752e+004  1.1311501e+006  5.9000000e+001
  1.3228674e+004  9.9163251e+005  7.3410000e+003
  2.4607752e+004  1.0166239e+006  1.1210000e+003
  3.0029752e+004  1.0598239e+006  3.5000000e+002
  2.2003752e+004  1.0070642e+006  2.1200000e+003
  3.4528752e+004  1.1037924e+006  3.2000000e+001
  1.9727242e+004  1.0481066e+006  4.1190000e+003
  3.2871752e+004  1.0930336e+006  2.4800000e+002
  1.6298674e+004  9.8858673e+005  5.9430000e+003
  2.8303752e+004  1.0352472e+006  5.1100000e+002
  2.1552674e+004  1.0305154e+006  2.6730000e+003
  1.4188674e+004  9.8502308e+005  7.0610000e+003
  1.4577752e+004  9.8925526e+005  6.4130000e+003
  1.8107674e+004  9.8019661e+005  4.4820000e+003
  2.0772674e+004  9.7852872e+005  2.8020000e+003
  2.7111752e+004  1.0552721e+006  8.2100000e+002
  3.7382728e+004  1.1610908e+006  0.0000000e+000
  1.8263742e+004  9.3958633e+005  6.1000000e+003
  1.6604955e+004  9.5337762e+005  6.7990000e+003
  1.6612955e+004  9.5337762e+005  6.8120000e+003
  3.7246728e+004  1.1609170e+006  0.0000000e+000
  3.7886728e+004  1.1374873e+006  4.1000000e+002
  3.1514766e+004  1.0443735e+006  6.0800000e+002
  2.1929198e+004  9.6653051e+005  5.0940000e+003
  1.8752955e+004  9.9714597e+005  5.2580000e+003
  2.8172350e+004  1.1160869e+006  1.3470000e+003
  3.5860728e+004  1.1494236e+006  8.2000000e+001
  3.1771374e+004  1.1263860e+006  6.3100000e+002
  2.4424120e+004  9.6171508e+005  3.7650000e+003
  2.6363728e+004  9.9629681e+005  2.9870000e+003
  2.2795387e+004  1.0804963e+006  2.5670000e+003
  2.8758766e+004  9.7865631e+005  1.9990000e+003
  2.6553704e+004  1.0237182e+006  3.0100000e+003
  2.2835742e+004  9.8293493e+005  3.7380000e+003
  2.2771387e+004  1.0776143e+006  2.6760000e+003
  2.8656766e+004  9.8378873e+005  2.1560000e+003
  3.0808821e+004  1.0870805e+006  0.0000000e+000
  1.1834138e+004  8.3303933e+005  6.2340000e+003
  7.3886210e+003  8.3703097e+005  8.2340000e+003
  6.9753158e+003  8.8321103e+005  5.6410000e+003
  3.0840821e+004  1.0871674e+006  0.0000000e+000
  3.1704821e+004  1.0084298e+006  9.9900000e+002
  1.7963138e+004  9.2877030e+005  1.9400000e+003
  1.0237257e+004  8.9536174e+005  4.0020000e+003
  2.5493821e+004  1.0598546e+006  2.9200000e+002
  2.7881138e+004  1.0357055e+006  3.0000000e+001
  2.3444138e+004  9.6362147e+005  1.0190000e+003
  1.4361833e+004  8.9233234e+005  3.3490000e+003
  2.2722138e+004  9.9220360e+005  1.0860000e+003
  7.2126210e+003  9.4477442e+005  5.2050000e+003
  2.9718138e+004  1.0307144e+006  1.8500000e+002
  1.3466138e+004  9.3042721e+005  2.9880000e+003
  1.1938138e+004  8.4815447e+005  5.6330000e+003
  1.0436833e+004  8.3377225e+005  6.7880000e+003
  1.3604138e+004  8.6581003e+005  5.4660000e+003
  2.0466334e+004  9.9902490e+005  1.8560000e+003
  3.3816095e+004  1.1619143e+006  0.0000000e+000
  1.3758862e+004  7.9222244e+005  5.4590000e+003
  8.6796283e+003  8.3705824e+005  8.3290000e+003
  3.3926095e+004  1.1517470e+006  1.2000000e+001
  3.3824095e+004  1.1620229e+006  0.0000000e+000
  1.1374628e+004  8.5927014e+005  6.2820000e+003
  2.1082408e+004  8.9862602e+005  2.1020000e+003
  1.7956628e+004  9.1242160e+005  3.5950000e+003
  1.7636628e+004  8.3915356e+005  4.5190000e+003
  2.8361095e+004  1.0930425e+006  1.2900000e+002
  2.8363095e+004  1.0147876e+006  2.1500000e+002
  2.5889408e+004  1.0433954e+006  7.6300000e+002
  1.4087628e+004  8.5490818e+005  5.1200000e+003
  1.2886628e+004  8.3021335e+005  5.9670000e+003
  1.0391628e+004  8.1009051e+005  8.0500000e+003
  2.0518408e+004  9.4955539e+005  1.6550000e+003
  1.0407628e+004  8.3510787e+005  7.9240000e+003
  2.2114408e+004  9.8581464e+005  1.3480000e+003
  1.8332095e+004  9.5224421e+005  1.8140000e+003
  2.7610408e+004  9.9734444e+005  5.4100000e+002
  1.0821177e+004  8.4933732e+005  8.2660000e+003
  3.0255177e+004  9.8735342e+005  0.0000000e+000
  1.1511177e+004  8.2173770e+005  8.1050000e+003
  3.1543177e+004  9.1678682e+005  2.2750000e+003
  1.0821177e+004  8.4878917e+005  8.3230000e+003
  2.2968177e+004  1.0118029e+006  1.5630000e+003
  1.9840177e+004  8.9131814e+005  3.6910000e+003
  2.7549177e+004  9.7318682e+005  2.1400000e+002
  1.3439177e+004  8.5074747e+005  6.7780000e+003
  1.6332177e+004  9.1763858e+005  2.5170000e+003
  2.4469177e+004  9.5608834e+005  7.4600000e+002
  1.4878177e+004  8.6642850e+005  4.8220000e+003
  1.5884177e+004  9.3461050e+005  3.1710000e+003
  2.2752177e+004  1.0018884e+006  2.3690000e+003
  1.1511177e+004  8.2173770e+005  8.0610000e+003
  2.7205177e+004  9.4192203e+005  1.7200000e+003
  1.4886177e+004  8.9400238e+005  3.4890000e+003
  1.4124177e+004  8.7246790e+005  6.2220000e+003
  1.4116177e+004  8.8055982e+005  5.4100000e+003
  1.4998177e+004  8.7874754e+005  3.8860000e+003
