0.0 113876.89 942.0 
0.0 158680.86 7.0 
0.0 131624.3 352.0 
0.0 121233.57 789.0 
0.0 141625.74 153.0 
0.0 136423.73 274.0 
0.0 112878.89 1188.0 
0.0 121867.54 739.0 
0.0 126638.65 458.0 
0.0 147295.0 34.0 
0.0 163936.25 0.0 
0.0 137820.18 198.0 
0.0 151075.16 31.0 
0.0 120512.55 829.0 
0.0 144468.88 95.0 
0.0 140839.28 188.0 
0.0 146178.86 53.0 
0.0 129918.14 429.0 
0.0 124518.07 665.0 
0.0 161018.96 5.0 
0.0 153162.22 26.0 
0.0 130546.61 418.0 
0.0 138291.54 189.0 
0.0 137501.6 247.0 
