1.0112443124353799E13
1.0657804468929645E13
1.036024881929711E13
8.82284881630021E12
8.339098445746823E12
9.874403986583668E12
9.196297697679072E12
1.0879809601686773E13
1.1185505624146047E13
9.35273485878054E12
1.054662286770828E13
9.810197286636049E12
1.127752903659282E13
9.58084783216109E12
3.152063044384015E12
1.11672261397112E13
1.032982910437113E13
1.0871791246028738E13
1.0624147382661092E13
7.868379593865679E12
