3.478716935812872E14
3.635019094449858E14
3.066526418474066E14
2.93263479661341E14
3.60187178190769E14
3.5145323025869306E14
3.3859437623840756E14
3.266323226033523E14
3.769126254968166E14
2.159238231884459E14
8.498747100122342E13
2.5399059208256772E14
2.9820950593304556E14
3.269230355653454E14
2.2419104614524097E14
3.640043655731484E14
3.543092541754599E14
3.527916713852872E14
3.030652407769144E14
3.338860575406802E14
