8.6020237 221565.25 44.0
0.0 211398.67 39.0
6.6741473 221643.12 115.0
24.061714 212369.33 43.0
0.0 233829.3 89.0
0.0 225178.62 16.0
31.275202 213301.82 67.0
0.0 213115.6 92.0
643.29294 237428.53 17.0
18835.212 328647.66 104.0
3132.7929 286433.04 2.0
206.51195 220837.38 127.0
1228.6017 245905.45 148.0
96.581253 247819.56 149.0
951.00282 266153.88 130.0
16.829375 214013.49 43.0
81.650934 216959.52 43.0
0.0 215113.39 64.0
196.04535 240441.13 144.0
136.82779 217280.88 143.0
39.864246 217204.97 104.0
61.121235 217832.43 110.0
542.95585 242333.04 101.0
33.162319 224464.33 122.0
423.67297 224809.81 98.0
253.54424 245550.13 84.0
334.44818 236691.58 93.0
179.36853 228154.24 63.0
0.0 229679.84 40.0
6155.5507 313380.99 110.0
8.2062234 218123.72 114.0
6820.4456 301804.96 103.0
0.0 215706.53 127.0
51.181844 239053.8 9.0
608.84805 244073.35 41.0
0.0 225247.88 52.0
0.0 216223.85 112.0
24.560469 216776.24 90.0
242.05722 223762.01 89.0
73.8444 224043.21 57.0
0.0 212945.57 59.0
35.430996 212843.77 65.0
0.0 217259.57 69.0
13357.106 333292.25 93.0
0.0 224664.65 17.0
0.0 211560.55 131.0
15.175521 219132.48 127.0
0.0 215210.08 122.0
72.530996 212217.43 97.0
0.0 218828.45 111.0
567.63016 255137.4 59.0
76.540445 214258.89 137.0
25.303723 247999.82 37.0
2012.2899 283912.75 102.0
80.206911 213122.52 98.0
32.138036 220427.29 75.0
73.369467 222118.32 75.0
0.0 224975.86 45.0
0.0 207468.88 133.0
20.608697 213951.87 116.0
