52627.462 1043034.9 0.0
52579.462 1042948.0 0.0
49535.823 1028647.7 7.0
51717.823 1041255.1 0.0
51232.823 1036012.3 0.0
48459.462 1022390.1 83.0
50826.761 1036193.2 0.0
48334.462 1021645.3 69.0
49920.761 1028282.0 3.0
