  0.0000000e+000  2.8117596e-003  1.0084034e+000
  0.0000000e+000  1.3582555e-003  7.0921986e-001
  0.0000000e+000  6.3838824e-004  7.3758865e-001
  0.0000000e+000  1.9031351e-003  1.0069930e+000
  0.0000000e+000  2.7645124e-003  9.0756303e-001
  1.6959578e-001  1.6513742e-003  1.0069930e+000
  0.0000000e+000  1.2303801e-003  7.2796935e-001
  0.0000000e+000  1.2303801e-003  8.2758621e-001
  0.0000000e+000  1.6267604e-003  9.2561983e-001
  0.0000000e+000  1.2941467e-003  1.0000000e+000
  0.0000000e+000  2.8117596e-003  9.0756303e-001
  0.0000000e+000  7.4899603e-004  7.1631206e-001
  0.0000000e+000  1.5003176e-003  9.8601399e-001
  0.0000000e+000  1.2303801e-003  8.5440613e-001
  0.0000000e+000  1.5317279e-003  1.0082645e+000
  0.0000000e+000  6.8768305e-004  7.8014184e-001
  0.0000000e+000  2.8117596e-003  1.0084034e+000
  1.6959578e-001  1.7017263e-003  1.0069930e+000
  0.0000000e+000  1.2848205e-003  8.7356322e-001
  0.0000000e+000  1.4366954e-003  1.0247934e+000
