  0.0000000e+000  9.6040000e+002  7.5000000e+001
  2.1600000e+002  2.8472000e+002  1.4000000e+001
  2.3551266e+002  2.8472000e+002  1.3000000e+001
  0.0000000e+000  9.8212000e+002  8.8000000e+001
  0.0000000e+000  7.9868000e+002  2.5000000e+001
  1.4400000e+002  3.4988000e+002  1.5000000e+001
  8.0000000e+001  1.8816000e+002  2.1000000e+001
  0.0000000e+000  7.9632000e+002  2.4000000e+001
  1.1200000e+002  3.2816000e+002  1.6000000e+001
  1.2000000e+002  3.4020000e+002  1.5000000e+001
  1.1200000e+002  1.8816000e+002  2.1000000e+001
  0.0000000e+000  7.7460000e+002  2.6000000e+001
  0.0000000e+000  7.3116000e+002  1.7000000e+001
  0.0000000e+000  7.9868000e+002  4.2000000e+001
  1.6800000e+002  3.0644000e+002  1.8000000e+001
  0.0000000e+000  8.3008000e+002  8.3000000e+001
  1.1200000e+002  6.4428000e+002  1.6000000e+001
  1.1791569e+002  2.5332000e+002  2.1000000e+001
  0.0000000e+000  7.9868000e+002  2.5000000e+001
  0.0000000e+000  1.0038400e+003  1.0400000e+002
