  0.0000000e+000  8.2040000e+002  5.9900000e+002
  0.0000000e+000  1.0930800e+003  6.1900000e+002
  0.0000000e+000  5.4724000e+002  9.6000000e+001
  0.0000000e+000  7.0212000e+002  4.2800000e+002
  0.0000000e+000  5.4772000e+002  3.6500000e+002
  0.0000000e+000  3.5696000e+002  5.5000000e+001
  6.1564195e+001  3.7608000e+002  2.7400000e+002
  4.0000000e+001  5.4839103e+002  3.0900000e+002
  0.0000000e+000  8.1048000e+002  5.0000000e+000
  4.8000000e+001  7.4623103e+002  3.5300000e+002
  0.0000000e+000  6.4168000e+002  4.4500000e+002
  0.0000000e+000  6.8512000e+002  4.7600000e+002
  0.0000000e+000  7.8404000e+002  0.0000000e+000
  0.0000000e+000  1.3754400e+003  6.6900000e+002
  0.0000000e+000  2.8944000e+002  4.1900000e+002
  0.0000000e+000  1.8792000e+002  3.0000000e+002
  1.3848850e+000  6.3436000e+002  0.0000000e+000
  0.0000000e+000  3.6900000e+002  5.2000000e+001
