%!PS-Adobe-3.0 EPSF-3.0
%%Creator: MATLAB, The MathWorks, Inc. Version 7.12.0.635 (R2011a). Operating System: Microsoft Windows 7.
%%Title: C:\Users\santiago\Desktop\parasol\NSGAII\scenarios\powerProfiles\greenPowerProfiles.eps
%%CreationDate: 03/23/2015  11:10:37
%%DocumentNeededFonts: Helvetica
%%DocumentProcessColors: Cyan Magenta Yellow Black
%%LanguageLevel: 2
%%Pages: 1
%%BoundingBox:    96   238   515   553
%%EndComments

%%BeginProlog
% MathWorks dictionary
/MathWorks 160 dict begin
% definition operators
/bdef {bind def} bind def
/ldef {load def} bind def
/xdef {exch def} bdef
/xstore {exch store} bdef
% operator abbreviations
/c  /clip ldef
/cc /concat ldef
/cp /closepath ldef
/gr /grestore ldef
/gs /gsave ldef
/mt /moveto ldef
/np /newpath ldef
/cm /currentmatrix ldef
/sm /setmatrix ldef
/rm /rmoveto ldef
/rl /rlineto ldef
/s {show newpath} bdef
/sc {setcmykcolor} bdef
/sr /setrgbcolor ldef
/sg /setgray ldef
/w /setlinewidth ldef
/j /setlinejoin ldef
/cap /setlinecap ldef
/rc {rectclip} bdef
/rf {rectfill} bdef
% page state control
/pgsv () def
/bpage {/pgsv save def} bdef
/epage {pgsv restore} bdef
/bplot /gsave ldef
/eplot {stroke grestore} bdef
% orientation switch
/portraitMode 0 def /landscapeMode 1 def /rotateMode 2 def
% coordinate system mappings
/dpi2point 0 def
% font control
/FontSize 0 def
/FMS {/FontSize xstore findfont [FontSize 0 0 FontSize neg 0 0]
  makefont setfont} bdef
/ISOLatin1Encoding where {pop /WindowsLatin1Encoding 256 array bdef
ISOLatin1Encoding WindowsLatin1Encoding copy pop
/.notdef/.notdef/quotesinglbase/florin/quotedblbase/ellipsis/dagger
/daggerdbl/circumflex/perthousand/Scaron/guilsinglleft/OE/.notdef/.notdef
/.notdef/.notdef/quoteleft/quoteright/quotedblleft/quotedblright/bullet
/endash/emdash/tilde/trademark/scaron/guilsinglright/oe/.notdef/.notdef
/Ydieresis WindowsLatin1Encoding 128 32 getinterval astore pop}
{/WindowsLatin1Encoding StandardEncoding bdef} ifelse
/reencode {exch dup where {pop load} {pop StandardEncoding} ifelse
  exch dup 3 1 roll findfont dup length dict begin
  { 1 index /FID ne {def}{pop pop} ifelse } forall
  /Encoding exch def currentdict end definefont pop} bdef
/isroman {findfont /CharStrings get /Agrave known} bdef
/FMSR {3 1 roll 1 index dup isroman {reencode} {pop pop} ifelse
  exch FMS} bdef
/csm {1 dpi2point div -1 dpi2point div scale neg translate
 dup landscapeMode eq {pop -90 rotate}
  {rotateMode eq {90 rotate} if} ifelse} bdef
% line types: solid, dotted, dashed, dotdash
/SO { [] 0 setdash } bdef
/DO { [.5 dpi2point mul 4 dpi2point mul] 0 setdash } bdef
/DA { [6 dpi2point mul] 0 setdash } bdef
/DD { [.5 dpi2point mul 4 dpi2point mul 6 dpi2point mul 4
  dpi2point mul] 0 setdash } bdef
% macros for lines and objects
/L {lineto stroke} bdef
/MP {3 1 roll moveto 1 sub {rlineto} repeat} bdef
/AP {{rlineto} repeat} bdef
/PDlw -1 def
/W {/PDlw currentlinewidth def setlinewidth} def
/PP {closepath eofill} bdef
/DP {closepath stroke} bdef
/MR {4 -2 roll moveto dup  0 exch rlineto exch 0 rlineto
  neg 0 exch rlineto closepath} bdef
/FR {MR stroke} bdef
/PR {MR fill} bdef
/L1i {{currentfile picstr readhexstring pop} image} bdef
/tMatrix matrix def
/MakeOval {newpath tMatrix currentmatrix pop translate scale
0 0 1 0 360 arc tMatrix setmatrix} bdef
/FO {MakeOval stroke} bdef
/PO {MakeOval fill} bdef
/PD {currentlinewidth 2 div 0 360 arc fill
   PDlw -1 eq not {PDlw w /PDlw -1 def} if} def
/FA {newpath tMatrix currentmatrix pop translate scale
  0 0 1 5 -2 roll arc tMatrix setmatrix stroke} bdef
/PA {newpath tMatrix currentmatrix pop	translate 0 0 moveto scale
  0 0 1 5 -2 roll arc closepath tMatrix setmatrix fill} bdef
/FAn {newpath tMatrix currentmatrix pop translate scale
  0 0 1 5 -2 roll arcn tMatrix setmatrix stroke} bdef
/PAn {newpath tMatrix currentmatrix pop translate 0 0 moveto scale
  0 0 1 5 -2 roll arcn closepath tMatrix setmatrix fill} bdef
/vradius 0 def /hradius 0 def /lry 0 def
/lrx 0 def /uly 0 def /ulx 0 def /rad 0 def
/MRR {/vradius xdef /hradius xdef /lry xdef /lrx xdef /uly xdef
  /ulx xdef newpath tMatrix currentmatrix pop ulx hradius add uly
  vradius add translate hradius vradius scale 0 0 1 180 270 arc 
  tMatrix setmatrix lrx hradius sub uly vradius add translate
  hradius vradius scale 0 0 1 270 360 arc tMatrix setmatrix
  lrx hradius sub lry vradius sub translate hradius vradius scale
  0 0 1 0 90 arc tMatrix setmatrix ulx hradius add lry vradius sub
  translate hradius vradius scale 0 0 1 90 180 arc tMatrix setmatrix
  closepath} bdef
/FRR {MRR stroke } bdef
/PRR {MRR fill } bdef
/MlrRR {/lry xdef /lrx xdef /uly xdef /ulx xdef /rad lry uly sub 2 div def
  newpath tMatrix currentmatrix pop ulx rad add uly rad add translate
  rad rad scale 0 0 1 90 270 arc tMatrix setmatrix lrx rad sub lry rad
  sub translate rad rad scale 0 0 1 270 90 arc tMatrix setmatrix
  closepath} bdef
/FlrRR {MlrRR stroke } bdef
/PlrRR {MlrRR fill } bdef
/MtbRR {/lry xdef /lrx xdef /uly xdef /ulx xdef /rad lrx ulx sub 2 div def
  newpath tMatrix currentmatrix pop ulx rad add uly rad add translate
  rad rad scale 0 0 1 180 360 arc tMatrix setmatrix lrx rad sub lry rad
  sub translate rad rad scale 0 0 1 0 180 arc tMatrix setmatrix
  closepath} bdef
/FtbRR {MtbRR stroke } bdef
/PtbRR {MtbRR fill } bdef
/stri 6 array def /dtri 6 array def
/smat 6 array def /dmat 6 array def
/tmat1 6 array def /tmat2 6 array def /dif 3 array def
/asub {/ind2 exch def /ind1 exch def dup dup
  ind1 get exch ind2 get sub exch } bdef
/tri_to_matrix {
  2 0 asub 3 1 asub 4 0 asub 5 1 asub
  dup 0 get exch 1 get 7 -1 roll astore } bdef
/compute_transform {
  dmat dtri tri_to_matrix tmat1 invertmatrix 
  smat stri tri_to_matrix tmat2 concatmatrix } bdef
/ds {stri astore pop} bdef
/dt {dtri astore pop} bdef
/db {2 copy /cols xdef /rows xdef mul dup 3 mul string
  currentfile 
  3 index 0 eq {/ASCIIHexDecode filter}
  {/ASCII85Decode filter 3 index 2 eq {/RunLengthDecode filter} if }
  ifelse exch readstring pop
  dup 0 3 index getinterval /rbmap xdef
  dup 2 index dup getinterval /gbmap xdef
  1 index dup 2 mul exch getinterval /bbmap xdef pop pop}bdef
/it {gs np dtri aload pop moveto lineto lineto cp c
  cols rows 8 compute_transform 
  rbmap gbmap bbmap true 3 colorimage gr}bdef
/il {newpath moveto lineto stroke}bdef
currentdict end def
%%EndProlog

%%BeginSetup
MathWorks begin

0 cap

end
%%EndSetup

%%Page: 1 1
%%BeginPageSetup
%%PageBoundingBox:    96   238   515   553
MathWorks begin
bpage
%%EndPageSetup

%%BeginObject: obj1
bplot

/dpi2point 12 def
portraitMode 1152 6636 csm

    0     0  5039  3780 rc
86 dict begin %Colortable dictionary
/c0 { 0.000000 0.000000 0.000000 sr} bdef
/c1 { 1.000000 1.000000 1.000000 sr} bdef
/c2 { 0.900000 0.000000 0.000000 sr} bdef
/c3 { 0.000000 0.820000 0.000000 sr} bdef
/c4 { 0.000000 0.000000 0.800000 sr} bdef
/c5 { 0.910000 0.820000 0.320000 sr} bdef
/c6 { 1.000000 0.260000 0.820000 sr} bdef
/c7 { 0.000000 0.820000 0.820000 sr} bdef
c0
1 j
1 sg
   0    0 5040 3781 rf
6 w
0 1263 3905 0 0 -1263 655 1573 4 MP
PP
-3905 0 0 1263 3905 0 0 -1263 655 1573 5 MP stroke
4 w
DO
SO
6 w
0 sg
 655  310 mt 4560  310 L
 655 1573 mt 4560 1573 L
4560 1573 mt 4560  310 L
 655 1573 mt  655  310 L
 655 1573 mt 4560 1573 L
 655 1573 mt  655  310 L
 655 1573 mt  655 1533 L
 655  310 mt  655  349 L
%%IncludeResource: font Helvetica
/Helvetica /WindowsLatin1Encoding 120 FMSR

 622 1718 mt 
(0) s
1956 1573 mt 1956 1533 L
1956  310 mt 1956  349 L
1890 1718 mt 
(50) s
3258 1573 mt 3258 1533 L
3258  310 mt 3258  349 L
3158 1718 mt 
(100) s
4560 1573 mt 4560 1533 L
4560  310 mt 4560  349 L
4460 1718 mt 
(150) s
 655 1573 mt  694 1573 L
4560 1573 mt 4520 1573 L
 554 1617 mt 
(0) s
 655 1152 mt  694 1152 L
4560 1152 mt 4520 1152 L
 420 1196 mt 
(200) s
 655  731 mt  694  731 L
4560  731 mt 4520  731 L
 420  775 mt 
(400) s
 655  310 mt  694  310 L
4560  310 mt 4520  310 L
 420  354 mt 
(600) s
 655  310 mt 4560  310 L
 655 1573 mt 4560 1573 L
4560 1573 mt 4560  310 L
 655 1573 mt  655  310 L
gs 655 310 3906 1264 rc
/c8 { 0.000000 1.000000 0.000000 sr} bdef
c8
27 115 26 33 26 -103 26 -25 26 -13 26 16 26 -13 26 16 
26 89 26 40 26 24 26 -100 26 88 26 -120 26 119 26 -165 
26 115 26 86 26 -81 26 -65 26 -32 26 151 26 -61 26 -3 
26 68 26 -137 26 -53 26 -7 26 -8 26 15 27 116 26 38 
26 -43 26 -7 26 -152 26 126 26 43 26 -175 26 1 26 166 
26 -71 26 43 26 -199 26 120 26 53 26 -123 26 105 26 -83 
26 -49 26 35 26 -103 26 96 26 55 26 -112 26 29 26 29 
26 -22 26 84 26 -141 26 86 27 7 26 51 26 -91 26 79 
26 -105 26 13 26 68 26 -22 26 44 26 -27 26 5 26 -68 
26 97 26 -128 26 39 26 69 26 -112 26 -1 26 129 26 -53 
26 60 26 -72 26 25 26 -22 26 -81 26 61 26 47 26 -47 
26 -53 26 101 27 -19 26 -74 26 72 26 -88 26 74 26 -38 
26 -9 26 78 26 -111 26 19 26 6 26 -21 26 83 26 -99 
26 -79 26 95 26 -107 26 58 26 19 26 -61 26 -144 26 116 
26 -46 26 -83 26 42 26 -48 26 51 26 -112 26 -75 26 110 
27 -140 26 -43 26 -14 26 116 26 -114 26 -8 26 -16 26 28 
26 -7 26 -26 26 -2 26 17 26 -6 26 11 26 -27 26 36 
26 -28 26 20 26 -11 26 5 26 -6 26 -3 26 -6 26 -4 
26 2 26 7 26 -13 26 30 26 -13 681 1387 150 MP stroke
gr

c8
0 sg
1735  215 mt 
(Early morning energy generation) s
 338 1275 mt  -90 rotate
(Energy \(kW\)) s
90 rotate
2359 1861 mt 
(Timestep) s
1 sg
0 1263 3905 0 0 -1263 655 3364 4 MP
PP
-3905 0 0 1263 3905 0 0 -1263 655 3364 5 MP stroke
4 w
DO
SO
6 w
0 sg
 655 2101 mt 4560 2101 L
 655 3364 mt 4560 3364 L
4560 3364 mt 4560 2101 L
 655 3364 mt  655 2101 L
 655 3364 mt 4560 3364 L
 655 3364 mt  655 2101 L
 655 3364 mt  655 3324 L
 655 2101 mt  655 2140 L
 622 3509 mt 
(0) s
1956 3364 mt 1956 3324 L
1956 2101 mt 1956 2140 L
1890 3509 mt 
(50) s
3258 3364 mt 3258 3324 L
3258 2101 mt 3258 2140 L
3158 3509 mt 
(100) s
4560 3364 mt 4560 3324 L
4560 2101 mt 4560 2140 L
4460 3509 mt 
(150) s
 655 3364 mt  694 3364 L
4560 3364 mt 4520 3364 L
 420 3408 mt 
(350) s
 655 2943 mt  694 2943 L
4560 2943 mt 4520 2943 L
 420 2987 mt 
(400) s
 655 2522 mt  694 2522 L
4560 2522 mt 4520 2522 L
 420 2566 mt 
(450) s
 655 2101 mt  694 2101 L
4560 2101 mt 4520 2101 L
 420 2145 mt 
(500) s
 655 2101 mt 4560 2101 L
 655 3364 mt 4560 3364 L
4560 3364 mt 4560 2101 L
 655 3364 mt  655 2101 L
gs 655 2101 3906 1264 rc
c8
27 -181 26 302 26 -273 26 132 26 -72 26 124 26 73 26 66 
26 100 26 -54 26 104 26 -23 26 109 26 -61 26 142 26 -171 
26 37 26 164 26 113 26 24 26 3 26 -121 26 60 26 -46 
26 219 26 124 26 -228 26 80 26 -128 26 36 27 3 26 -12 
26 29 26 93 26 -147 26 228 26 -70 26 24 26 44 26 -46 
26 -68 26 -127 26 144 26 -23 26 107 26 -94 26 155 26 -251 
26 253 26 -411 26 386 26 -101 26 -109 26 -154 26 235 26 74 
26 -254 26 166 26 132 26 -243 27 207 26 -157 26 67 26 -243 
26 246 26 -46 26 -86 26 216 26 -106 26 -37 26 188 26 -26 
26 14 26 -124 26 150 26 -250 26 195 26 -285 26 84 26 -65 
26 -68 26 342 26 51 26 -390 26 203 26 -156 26 -3 26 20 
26 332 26 -239 27 220 26 3 26 -158 26 23 26 -50 26 -40 
26 106 26 115 26 -151 26 166 26 -1 26 -140 26 -161 26 -93 
26 387 26 -10 26 -57 26 -16 26 -282 26 83 26 279 26 -169 
26 49 26 -188 26 257 26 -229 26 -81 26 288 26 -228 26 177 
27 -110 26 -128 26 84 26 170 26 -30 26 -98 26 -89 26 36 
26 106 26 -257 26 53 26 -19 26 -72 26 -172 26 -49 26 15 
26 195 26 -102 26 -74 26 -117 26 173 26 9 26 -162 26 -162 
26 154 26 -198 26 -48 26 92 26 102 681 2954 150 MP stroke
gr

c8
0 sg
1916 2006 mt 
(Midday energy generation) s
 338 3066 mt  -90 rotate
(Energy \(kW\)) s
90 rotate
2359 3652 mt 
(Timestep) s

end %%Color Dict

eplot
%%EndObject

epage
end

showpage

%%Trailer
%%EOF
