%!PS-Adobe-3.0 EPSF-3.0
%%Creator: MATLAB, The MathWorks, Inc. Version 7.12.0.635 (R2011a). Operating System: Microsoft Windows 7.
%%Title: C:\Users\santiago\Desktop\parasol\NSGAII\scenarios\powerProfiles\powerProfiles.eps
%%CreationDate: 03/17/2015  16:41:44
%%DocumentNeededFonts: Helvetica
%%DocumentProcessColors: Cyan Magenta Yellow Black
%%LanguageLevel: 2
%%Pages: 1
%%BoundingBox:    96   238   515   553
%%EndComments

%%BeginProlog
% MathWorks dictionary
/MathWorks 160 dict begin
% definition operators
/bdef {bind def} bind def
/ldef {load def} bind def
/xdef {exch def} bdef
/xstore {exch store} bdef
% operator abbreviations
/c  /clip ldef
/cc /concat ldef
/cp /closepath ldef
/gr /grestore ldef
/gs /gsave ldef
/mt /moveto ldef
/np /newpath ldef
/cm /currentmatrix ldef
/sm /setmatrix ldef
/rm /rmoveto ldef
/rl /rlineto ldef
/s {show newpath} bdef
/sc {setcmykcolor} bdef
/sr /setrgbcolor ldef
/sg /setgray ldef
/w /setlinewidth ldef
/j /setlinejoin ldef
/cap /setlinecap ldef
/rc {rectclip} bdef
/rf {rectfill} bdef
% page state control
/pgsv () def
/bpage {/pgsv save def} bdef
/epage {pgsv restore} bdef
/bplot /gsave ldef
/eplot {stroke grestore} bdef
% orientation switch
/portraitMode 0 def /landscapeMode 1 def /rotateMode 2 def
% coordinate system mappings
/dpi2point 0 def
% font control
/FontSize 0 def
/FMS {/FontSize xstore findfont [FontSize 0 0 FontSize neg 0 0]
  makefont setfont} bdef
/ISOLatin1Encoding where {pop /WindowsLatin1Encoding 256 array bdef
ISOLatin1Encoding WindowsLatin1Encoding copy pop
/.notdef/.notdef/quotesinglbase/florin/quotedblbase/ellipsis/dagger
/daggerdbl/circumflex/perthousand/Scaron/guilsinglleft/OE/.notdef/.notdef
/.notdef/.notdef/quoteleft/quoteright/quotedblleft/quotedblright/bullet
/endash/emdash/tilde/trademark/scaron/guilsinglright/oe/.notdef/.notdef
/Ydieresis WindowsLatin1Encoding 128 32 getinterval astore pop}
{/WindowsLatin1Encoding StandardEncoding bdef} ifelse
/reencode {exch dup where {pop load} {pop StandardEncoding} ifelse
  exch dup 3 1 roll findfont dup length dict begin
  { 1 index /FID ne {def}{pop pop} ifelse } forall
  /Encoding exch def currentdict end definefont pop} bdef
/isroman {findfont /CharStrings get /Agrave known} bdef
/FMSR {3 1 roll 1 index dup isroman {reencode} {pop pop} ifelse
  exch FMS} bdef
/csm {1 dpi2point div -1 dpi2point div scale neg translate
 dup landscapeMode eq {pop -90 rotate}
  {rotateMode eq {90 rotate} if} ifelse} bdef
% line types: solid, dotted, dashed, dotdash
/SO { [] 0 setdash } bdef
/DO { [.5 dpi2point mul 4 dpi2point mul] 0 setdash } bdef
/DA { [6 dpi2point mul] 0 setdash } bdef
/DD { [.5 dpi2point mul 4 dpi2point mul 6 dpi2point mul 4
  dpi2point mul] 0 setdash } bdef
% macros for lines and objects
/L {lineto stroke} bdef
/MP {3 1 roll moveto 1 sub {rlineto} repeat} bdef
/AP {{rlineto} repeat} bdef
/PDlw -1 def
/W {/PDlw currentlinewidth def setlinewidth} def
/PP {closepath eofill} bdef
/DP {closepath stroke} bdef
/MR {4 -2 roll moveto dup  0 exch rlineto exch 0 rlineto
  neg 0 exch rlineto closepath} bdef
/FR {MR stroke} bdef
/PR {MR fill} bdef
/L1i {{currentfile picstr readhexstring pop} image} bdef
/tMatrix matrix def
/MakeOval {newpath tMatrix currentmatrix pop translate scale
0 0 1 0 360 arc tMatrix setmatrix} bdef
/FO {MakeOval stroke} bdef
/PO {MakeOval fill} bdef
/PD {currentlinewidth 2 div 0 360 arc fill
   PDlw -1 eq not {PDlw w /PDlw -1 def} if} def
/FA {newpath tMatrix currentmatrix pop translate scale
  0 0 1 5 -2 roll arc tMatrix setmatrix stroke} bdef
/PA {newpath tMatrix currentmatrix pop	translate 0 0 moveto scale
  0 0 1 5 -2 roll arc closepath tMatrix setmatrix fill} bdef
/FAn {newpath tMatrix currentmatrix pop translate scale
  0 0 1 5 -2 roll arcn tMatrix setmatrix stroke} bdef
/PAn {newpath tMatrix currentmatrix pop translate 0 0 moveto scale
  0 0 1 5 -2 roll arcn closepath tMatrix setmatrix fill} bdef
/vradius 0 def /hradius 0 def /lry 0 def
/lrx 0 def /uly 0 def /ulx 0 def /rad 0 def
/MRR {/vradius xdef /hradius xdef /lry xdef /lrx xdef /uly xdef
  /ulx xdef newpath tMatrix currentmatrix pop ulx hradius add uly
  vradius add translate hradius vradius scale 0 0 1 180 270 arc 
  tMatrix setmatrix lrx hradius sub uly vradius add translate
  hradius vradius scale 0 0 1 270 360 arc tMatrix setmatrix
  lrx hradius sub lry vradius sub translate hradius vradius scale
  0 0 1 0 90 arc tMatrix setmatrix ulx hradius add lry vradius sub
  translate hradius vradius scale 0 0 1 90 180 arc tMatrix setmatrix
  closepath} bdef
/FRR {MRR stroke } bdef
/PRR {MRR fill } bdef
/MlrRR {/lry xdef /lrx xdef /uly xdef /ulx xdef /rad lry uly sub 2 div def
  newpath tMatrix currentmatrix pop ulx rad add uly rad add translate
  rad rad scale 0 0 1 90 270 arc tMatrix setmatrix lrx rad sub lry rad
  sub translate rad rad scale 0 0 1 270 90 arc tMatrix setmatrix
  closepath} bdef
/FlrRR {MlrRR stroke } bdef
/PlrRR {MlrRR fill } bdef
/MtbRR {/lry xdef /lrx xdef /uly xdef /ulx xdef /rad lrx ulx sub 2 div def
  newpath tMatrix currentmatrix pop ulx rad add uly rad add translate
  rad rad scale 0 0 1 180 360 arc tMatrix setmatrix lrx rad sub lry rad
  sub translate rad rad scale 0 0 1 0 180 arc tMatrix setmatrix
  closepath} bdef
/FtbRR {MtbRR stroke } bdef
/PtbRR {MtbRR fill } bdef
/stri 6 array def /dtri 6 array def
/smat 6 array def /dmat 6 array def
/tmat1 6 array def /tmat2 6 array def /dif 3 array def
/asub {/ind2 exch def /ind1 exch def dup dup
  ind1 get exch ind2 get sub exch } bdef
/tri_to_matrix {
  2 0 asub 3 1 asub 4 0 asub 5 1 asub
  dup 0 get exch 1 get 7 -1 roll astore } bdef
/compute_transform {
  dmat dtri tri_to_matrix tmat1 invertmatrix 
  smat stri tri_to_matrix tmat2 concatmatrix } bdef
/ds {stri astore pop} bdef
/dt {dtri astore pop} bdef
/db {2 copy /cols xdef /rows xdef mul dup 3 mul string
  currentfile 
  3 index 0 eq {/ASCIIHexDecode filter}
  {/ASCII85Decode filter 3 index 2 eq {/RunLengthDecode filter} if }
  ifelse exch readstring pop
  dup 0 3 index getinterval /rbmap xdef
  dup 2 index dup getinterval /gbmap xdef
  1 index dup 2 mul exch getinterval /bbmap xdef pop pop}bdef
/it {gs np dtri aload pop moveto lineto lineto cp c
  cols rows 8 compute_transform 
  rbmap gbmap bbmap true 3 colorimage gr}bdef
/il {newpath moveto lineto stroke}bdef
currentdict end def
%%EndProlog

%%BeginSetup
MathWorks begin

0 cap

end
%%EndSetup

%%Page: 1 1
%%BeginPageSetup
%%PageBoundingBox:    96   238   515   553
MathWorks begin
bpage
%%EndPageSetup

%%BeginObject: obj1
bplot

/dpi2point 12 def
portraitMode 1152 6636 csm

    0     0  5039  3780 rc
85 dict begin %Colortable dictionary
/c0 { 0.000000 0.000000 0.000000 sr} bdef
/c1 { 1.000000 1.000000 1.000000 sr} bdef
/c2 { 0.900000 0.000000 0.000000 sr} bdef
/c3 { 0.000000 0.820000 0.000000 sr} bdef
/c4 { 0.000000 0.000000 0.800000 sr} bdef
/c5 { 0.910000 0.820000 0.320000 sr} bdef
/c6 { 1.000000 0.260000 0.820000 sr} bdef
/c7 { 0.000000 0.820000 0.820000 sr} bdef
c0
1 j
1 sg
   0    0 5040 3781 rf
6 w
0 610 3905 0 0 -610 655 986 4 MP
PP
-3905 0 0 610 3905 0 0 -610 655 986 5 MP stroke
4 w
DO
SO
6 w
0 sg
 655  376 mt 4560  376 L
 655  986 mt 4560  986 L
4560  986 mt 4560  376 L
 655  986 mt  655  376 L
 655  986 mt 4560  986 L
 655  986 mt  655  376 L
 655  986 mt  655  946 L
 655  376 mt  655  415 L
%%IncludeResource: font Helvetica
/Helvetica /WindowsLatin1Encoding 120 FMSR

 622 1131 mt 
(0) s
1956  986 mt 1956  946 L
1956  376 mt 1956  415 L
1890 1131 mt 
(50) s
3258  986 mt 3258  946 L
3258  376 mt 3258  415 L
3158 1131 mt 
(100) s
4560  986 mt 4560  946 L
4560  376 mt 4560  415 L
4460 1131 mt 
(150) s
 655  986 mt  694  986 L
4560  986 mt 4520  986 L
 554 1030 mt 
(0) s
 655  681 mt  694  681 L
4560  681 mt 4520  681 L
 354  725 mt 
(2000) s
 655  376 mt  694  376 L
4560  376 mt 4520  376 L
 354  420 mt 
(4000) s
 655  376 mt 4560  376 L
 655  986 mt 4560  986 L
4560  986 mt 4560  376 L
 655  986 mt  655  376 L
gs 655 376 3906 611 rc
/c8 { 0.000000 0.000000 1.000000 sr} bdef
c8
27 0 26 0 26 0 26 0 26 0 26 0 26 0 26 0 
26 0 26 0 26 0 26 0 26 0 26 0 26 0 26 0 
26 0 26 0 26 0 26 0 26 0 26 0 26 0 26 0 
26 0 26 0 26 0 26 0 26 0 26 0 27 0 26 0 
26 0 26 0 26 0 26 0 26 0 26 0 26 0 26 0 
26 0 26 0 26 0 26 0 26 0 26 0 26 0 26 0 
26 0 26 386 26 0 26 0 26 0 26 0 26 0 26 0 
26 0 26 0 26 0 26 0 27 0 26 0 26 0 26 0 
26 0 26 0 26 0 26 0 26 0 26 0 26 0 26 0 
26 0 26 0 26 0 26 0 26 0 26 0 26 0 26 0 
26 0 26 0 26 0 26 0 26 0 26 0 26 0 26 0 
26 0 26 0 27 0 26 0 26 0 26 0 26 0 26 0 
26 0 26 0 26 0 26 -386 26 0 26 0 26 0 26 0 
26 0 26 0 26 0 26 0 26 0 26 0 26 0 26 0 
26 0 26 0 26 0 26 0 26 0 26 0 26 0 26 0 
27 0 26 0 26 0 26 0 26 0 26 0 26 0 26 0 
26 0 26 0 26 0 26 0 26 0 26 0 26 0 26 0 
26 0 26 0 26 0 26 0 26 0 26 0 26 0 26 0 
26 0 26 0 26 0 26 0 26 0 681 857 150 MP stroke
gr

c8
0 sg
2380  281 mt 
(Profile A) s
 272 1015 mt  -90 rotate
(Energy \(kW\)) s
90 rotate
2359 1274 mt 
(Timestep) s
1 sg
0 609 3905 0 0 -609 655 2118 4 MP
PP
-3905 0 0 609 3905 0 0 -609 655 2118 5 MP stroke
4 w
DO
SO
6 w
0 sg
 655 1509 mt 4560 1509 L
 655 2118 mt 4560 2118 L
4560 2118 mt 4560 1509 L
 655 2118 mt  655 1509 L
 655 2118 mt 4560 2118 L
 655 2118 mt  655 1509 L
 655 2118 mt  655 2078 L
 655 1509 mt  655 1548 L
 622 2263 mt 
(0) s
1956 2118 mt 1956 2078 L
1956 1509 mt 1956 1548 L
1890 2263 mt 
(50) s
3258 2118 mt 3258 2078 L
3258 1509 mt 3258 1548 L
3158 2263 mt 
(100) s
4560 2118 mt 4560 2078 L
4560 1509 mt 4560 1548 L
4460 2263 mt 
(150) s
 655 2118 mt  694 2118 L
4560 2118 mt 4520 2118 L
 554 2162 mt 
(0) s
 655 1813 mt  694 1813 L
4560 1813 mt 4520 1813 L
 354 1857 mt 
(2000) s
 655 1509 mt  694 1509 L
4560 1509 mt 4520 1509 L
 354 1553 mt 
(4000) s
 655 1509 mt 4560 1509 L
 655 2118 mt 4560 2118 L
4560 2118 mt 4560 1509 L
 655 2118 mt  655 1509 L
gs 655 1509 3906 610 rc
c8
27 0 26 0 26 0 26 0 26 0 26 0 26 0 26 0 
26 0 26 0 26 0 26 0 26 0 26 0 26 0 26 0 
26 0 26 0 26 0 26 0 26 0 26 0 26 0 26 0 
26 0 26 0 26 0 26 0 26 0 26 0 27 0 26 0 
26 0 26 0 26 0 26 0 26 0 26 0 26 0 26 192 
26 0 26 0 26 0 26 0 26 0 26 0 26 0 26 0 
26 0 26 0 26 0 26 0 26 0 26 0 26 0 26 0 
26 0 26 0 26 0 26 -385 27 0 26 0 26 0 26 0 
26 0 26 0 26 0 26 0 26 0 26 0 26 0 26 0 
26 0 26 0 26 0 26 0 26 0 26 0 26 0 26 0 
26 0 26 0 26 0 26 0 26 0 26 0 26 0 26 0 
26 0 26 0 27 0 26 0 26 0 26 0 26 0 26 0 
26 0 26 0 26 0 26 385 26 0 26 0 26 0 26 0 
26 0 26 0 26 0 26 0 26 0 26 0 26 0 26 0 
26 0 26 0 26 0 26 0 26 0 26 0 26 0 26 -192 
27 0 26 0 26 0 26 0 26 0 26 0 26 0 26 0 
26 0 26 0 26 0 26 0 26 0 26 0 26 0 26 0 
26 0 26 0 26 0 26 0 26 0 26 0 26 0 26 0 
26 0 26 0 26 0 26 0 26 0 681 1796 150 MP stroke
gr

c8
0 sg
2380 1414 mt 
(Profile B) s
 272 2147 mt  -90 rotate
(Energy \(kW\)) s
90 rotate
2359 2406 mt 
(Timestep) s
1 sg
0 610 3905 0 0 -610 655 3251 4 MP
PP
-3905 0 0 610 3905 0 0 -610 655 3251 5 MP stroke
4 w
DO
SO
6 w
0 sg
 655 2641 mt 4560 2641 L
 655 3251 mt 4560 3251 L
4560 3251 mt 4560 2641 L
 655 3251 mt  655 2641 L
 655 3251 mt 4560 3251 L
 655 3251 mt  655 2641 L
 655 3251 mt  655 3211 L
 655 2641 mt  655 2680 L
 622 3396 mt 
(0) s
1956 3251 mt 1956 3211 L
1956 2641 mt 1956 2680 L
1890 3396 mt 
(50) s
3258 3251 mt 3258 3211 L
3258 2641 mt 3258 2680 L
3158 3396 mt 
(100) s
4560 3251 mt 4560 3211 L
4560 2641 mt 4560 2680 L
4460 3396 mt 
(150) s
 655 3251 mt  694 3251 L
4560 3251 mt 4520 3251 L
 554 3295 mt 
(0) s
 655 2946 mt  694 2946 L
4560 2946 mt 4520 2946 L
 354 2990 mt 
(2000) s
 655 2641 mt  694 2641 L
4560 2641 mt 4520 2641 L
 354 2685 mt 
(4000) s
 655 2641 mt 4560 2641 L
 655 3251 mt 4560 3251 L
4560 3251 mt 4560 2641 L
 655 3251 mt  655 2641 L
gs 655 2641 3906 611 rc
c8
27 0 26 0 26 0 26 0 26 0 26 0 26 0 26 0 
26 0 26 0 26 0 26 0 26 0 26 0 26 0 26 0 
26 0 26 0 26 0 26 0 26 0 26 0 26 0 26 0 
26 0 26 0 26 0 26 0 26 0 26 0 27 0 26 0 
26 0 26 0 26 0 26 0 26 0 26 0 26 0 26 0 
26 0 26 0 26 0 26 0 26 0 26 0 26 0 26 0 
26 0 26 0 26 8 26 8 26 8 26 8 26 8 26 7 
26 8 26 8 26 8 26 8 27 8 26 8 26 8 26 8 
26 7 26 8 26 8 26 8 26 8 26 8 26 8 26 8 
26 7 26 8 26 8 26 8 26 8 26 8 26 8 26 8 
26 7 26 8 26 8 26 8 26 8 26 8 26 8 26 8 
26 8 26 7 27 8 26 8 26 8 26 8 26 8 26 8 
26 8 26 7 26 8 26 0 26 0 26 0 26 0 26 0 
26 0 26 0 26 0 26 0 26 0 26 0 26 0 26 0 
26 0 26 0 26 0 26 0 26 0 26 0 26 0 26 0 
27 0 26 0 26 0 26 0 26 0 26 0 26 0 26 0 
26 0 26 0 26 0 26 0 26 0 26 0 26 0 26 0 
26 0 26 0 26 0 26 0 26 0 26 0 26 0 26 0 
26 0 26 0 26 0 26 0 26 0 681 2736 150 MP stroke
gr

c8
0 sg
2377 2546 mt 
(Profile C) s
 272 3280 mt  -90 rotate
(Energy \(kW\)) s
90 rotate
2359 3539 mt 
(Timestep) s

end %%Color Dict

eplot
%%EndObject

epage
end

showpage

%%Trailer
%%EOF
