  2.5964195e+001  2.0988000e+002  2.3500000e+002
  0.0000000e+000  0.0000000e+000  0.0000000e+000
  5.8444478e+000  9.8212000e+002  2.7000000e+002
  0.0000000e+000  9.4600000e+002  3.9500000e+002
  8.3802529e+000  2.7076800e+003  6.4000000e+002
  7.0790736e+001  3.3760000e+001  2.0900000e+002
  0.0000000e+000  6.9480000e+002  4.8600000e+002
  4.8000000e+001  5.8207661e-011  2.8000000e+001
  1.9662043e+001  5.8207661e-011  7.2000000e+001
  5.2003559e+001  1.2040000e+001  1.7800000e+002
  1.5536204e+002  1.3244000e+002  3.0000000e+000
  0.0000000e+000  1.6651200e+003  4.7200000e+002
  9.9915692e+001  3.6120000e+001  2.1800000e+002
  3.8061647e+001  2.8472000e+002  2.1900000e+002
  5.9533653e+001  1.2040000e+001  1.5800000e+002
  1.0106419e+002  1.2040000e+001  5.0000000e+000
  6.9964195e+001  5.8207661e-011  1.2000000e+001
  1.0558333e+001  3.6120000e+001  2.4400000e+002
  4.6962043e+001  1.4472000e+002  3.0700000e+002
  3.7221905e+001  0.0000000e+000  1.2000000e+001
  1.5210356e+002  0.0000000e+000  1.0300000e+002
  1.6690662e+001  4.0300000e+002  3.2600000e+002
  1.6000000e+001  1.2040000e+001  2.0300000e+002
  0.0000000e+000  0.0000000e+000  0.0000000e+000
  2.3103813e+002  1.9264000e+002  0.0000000e+000
  5.8620425e+000  3.6120000e+001  2.2000000e+002
  5.2626237e+001  0.0000000e+000  6.0000000e+000
