  7.1962043e+001  9.6320000e+001  2.0000000e+000
  0.0000000e+000  1.2040000e+001  1.8900000e+002
  8.8000000e+001  0.0000000e+000  5.5000000e+001
  0.0000000e+000  2.7268000e+002  2.8800000e+002
  0.0000000e+000  7.7200000e+001  2.4000000e+002
  0.0000000e+000  1.2040000e+001  2.4800000e+002
  0.0000000e+000  2.2924000e+002  3.0500000e+002
  7.5156918e+000  5.8207661e-011  1.5200000e+002
  0.0000000e+000  0.0000000e+000  0.0000000e+000
  0.0000000e+000  3.6120000e+001  3.5000000e+002
  0.0000000e+000  0.0000000e+000  0.0000000e+000
  0.0000000e+000  1.2300000e+002  5.6200000e+002
  0.0000000e+000  3.1612000e+002  3.5100000e+002
  1.0400000e+002  2.4080000e+001  1.0700000e+002
  6.8596190e+001  3.6120000e+001  1.7700000e+002
  0.0000000e+000  7.9560000e+001  2.2000000e+002
  0.0000000e+000  2.5096000e+002  3.4700000e+002
  4.8590722e+001  1.2040000e+001  4.6000000e+001
  1.4726467e+001  2.4080000e+001  1.4600000e+002
  3.5309275e+001  3.6120000e+001  2.7600000e+002
  0.0000000e+000  1.6644000e+002  4.3000000e+002
  3.1398572e+001  1.2040000e+001  1.7600000e+002
  0.0000000e+000  9.8920000e+001  2.7100000e+002
  6.9762043e+001  1.2040000e+001  2.0000000e+000
  1.6000000e+001  7.9560000e+001  2.6400000e+002
  5.0161025e+002  6.0200000e+001  0.0000000e+000
  1.0679899e+001  2.4080000e+001  5.8000000e+001
  0.0000000e+000  0.0000000e+000  0.0000000e+000
  2.8481801e+001  8.9240000e+001  2.3700000e+002
  4.8000000e+001  0.0000000e+000  1.0000000e+000
