  4.2400000e+002  1.2361200e+003  0.0000000e+000
  3.2000000e+001  1.4450800e+003  7.7500000e+002
  1.2631648e+002  4.9672000e+002  3.8000000e+002
  3.3600000e+002  1.2361200e+003  0.0000000e+000
  3.7600000e+002  1.1374400e+003  2.1000000e+001
  4.0000000e+001  1.3124000e+003  8.3100000e+002
  2.7200000e+002  5.7156000e+002  1.6300000e+002
  1.4400000e+002  4.4148000e+002  4.9000000e+001
  2.3200000e+002  7.6704000e+002  2.2600000e+002
  1.2968352e+002  5.1112000e+002  3.1300000e+002
  1.3600000e+002  5.8596000e+002  3.7000000e+002
  1.9899275e+002  6.9716000e+002  1.9600000e+002
  4.0000000e+001  1.3121600e+003  7.1500000e+002
  5.6000000e+001  1.6068000e+003  7.1600000e+002
  1.2000000e+002  9.8424000e+002  6.6200000e+002
  1.7638545e+002  4.1480000e+002  2.4300000e+002
  2.2052260e+002  4.7760000e+002  7.8000000e+001
  2.4000000e+001  1.3678800e+003  6.5100000e+002
  1.3600000e+002  9.6016000e+002  6.7500000e+002
  3.2000000e+001  1.4380000e+003  7.2700000e+002
