0.0 218455.16 24.0
0.0 208044.61 131.0
1706.9998 275892.2 0.0
1749.9998 275347.49 0.0
1722.9998 275856.08 0.0
0.0 208068.69 131.0
201.76646 240781.18 7.0
0.0 218479.24 42.0
1757.9998 275371.57 0.0
0.0 214663.91 110.0
209.76646 240877.5 9.0
72.705438 230491.03 9.0
48.705438 230528.42 9.0
0.0 214524.82 110.0
22.963917 223603.51 12.0
22.963917 223519.23 14.0
0.0 224947.41 31.0
0.0 214621.14 123.0
0.0 224923.33 28.0
0.0 214555.55 115.0
