  1.3569053e-002  2.5103709e-005  3.7827520e-002
  3.3522270e-003  2.0184749e-005  0.0000000e+000
  7.8058872e-003  1.9747923e-004  5.8284457e-002
  7.2697078e-003  1.6922398e-004  5.6629335e-002
  4.0809720e-003  2.0184749e-005  0.0000000e+000
  4.8152588e-003  2.3457638e-004  0.0000000e+000
  4.4545995e-003  0.0000000e+000  4.7219457e-002
  3.0626935e-003  2.3935391e-005  5.1152510e-002
  6.0168420e-003  1.1102230e-016  2.4777757e-002
  7.7845484e-003  8.2843288e-004  4.7775176e-002
  1.6217945e-002  4.5104981e-004  1.7218543e-001
  6.6216406e-003  2.1321605e-005  9.5541401e-002
  8.9609239e-003  5.7318830e-004  6.0831510e-002
  7.1079068e-003  9.0735605e-005  1.0026385e-001
  5.5414134e-003  1.3011460e-004  2.8505747e-001
  1.7514423e-002  5.3881236e-005  4.6192949e-002
  2.2253247e-002  2.5103709e-005  7.5134479e-002
  3.6299643e-003  7.8192128e-005  0.0000000e+000
  3.2123102e-003  2.4218619e-005  4.4891966e-002
  1.5378518e-002  8.0821855e-005  3.6689137e-002
