  0.0000000e+000  1.2198144e+005  5.7600000e+002
  0.0000000e+000  1.3358290e+005  1.2200000e+002
  0.0000000e+000  1.3532836e+005  1.0700000e+002
  0.0000000e+000  1.3983558e+005  8.0000000e+000
  0.0000000e+000  1.2166858e+005  8.1800000e+002
  0.0000000e+000  1.2788357e+005  2.9500000e+002
  0.0000000e+000  1.4724148e+005  0.0000000e+000
  0.0000000e+000  1.3444053e+005  9.8000000e+001
