  5.7394985e-004  1.1102230e-016  3.0827474e-002
  4.0117746e-004  1.1102230e-016  9.7731239e-002
  1.3574277e-003  1.1102230e-016  5.5939661e-002
  0.0000000e+000  2.9087432e-005  7.8995341e-003
  0.0000000e+000  0.0000000e+000  1.6498625e-002
  7.5117018e-004  0.0000000e+000  9.6322242e-002
  4.1934655e-004  0.0000000e+000  3.9768020e-002
  5.8338377e-004  1.1102230e-016  1.8784242e-002
  1.1736343e-003  0.0000000e+000  9.2146597e-002
  0.0000000e+000  1.1102230e-016  7.9245283e-002
  3.6174542e-003  3.0555230e-004  2.2727273e-001
  5.0757234e-004  1.1102230e-016  1.7896275e-002
  3.8737543e-004  1.1102230e-016  7.6923077e-002
  0.0000000e+000  1.1102230e-016  3.6124795e-002
  2.0481398e-003  1.4281892e-004  1.1764706e-001
  4.8454601e-004  1.1102230e-016  3.3501606e-002
  1.2008792e-002  8.3337497e-004  0.0000000e+000
  0.0000000e+000  1.1102230e-016  6.1728395e-002
  5.4619812e-004  0.0000000e+000  2.4066646e-002
