  0.0000000e+000  0.0000000e+000  1.7667845e-003
  5.5485498e-003  0.0000000e+000  6.6871637e-002
  5.3806833e-004  0.0000000e+000  2.0880180e-002
  5.4491087e-004  0.0000000e+000  4.4549763e-002
  0.0000000e+000  0.0000000e+000  7.0539419e-002
  0.0000000e+000  0.0000000e+000  2.2094565e-003
  0.0000000e+000  3.3306691e-016  2.0384835e-002
  2.2219630e-003  0.0000000e+000  1.0028249e-001
  5.8668231e-004  0.0000000e+000  3.1965903e-002
  0.0000000e+000  3.3306691e-016  3.8613427e-002
  0.0000000e+000  0.0000000e+000  2.1455224e-002
  4.2157850e-004  2.2204460e-016  5.6989247e-002
  0.0000000e+000  2.2204460e-016  0.0000000e+000
  2.3830801e-003  0.0000000e+000  8.4062196e-002
  6.8776973e-004  7.1515147e-005  0.0000000e+000
  0.0000000e+000  0.0000000e+000  1.4084507e-002
  5.2940865e-004  0.0000000e+000  3.5538546e-002
  8.7767416e-003  5.4464614e-004  0.0000000e+000
  5.0946328e-004  0.0000000e+000  3.7749039e-002
  8.5018199e-004  2.2204460e-016  9.1320755e-002
  4.9290055e-003  1.1102230e-016  1.1533587e-001
  0.0000000e+000  2.2204460e-016  8.4507042e-003
  4.0091408e-004  0.0000000e+000  4.1724618e-002
