  4.5911827e-004  1.1102230e-016  0.0000000e+000
  0.0000000e+000  1.1102230e-016  3.4700315e-002
  0.0000000e+000  1.1102230e-016  3.2339002e-002
  0.0000000e+000  1.1102230e-016  8.9552239e-003
  0.0000000e+000  0.0000000e+000  4.1330645e-002
  0.0000000e+000  0.0000000e+000  2.5329281e-002
  0.0000000e+000  1.1102230e-016  1.2658228e-002
  0.0000000e+000  1.1102230e-016  1.7857143e-002
  4.4337040e-004  2.3522768e-005  0.0000000e+000
  0.0000000e+000  1.1102230e-016  3.0539311e-002
  0.0000000e+000  3.3306691e-016  1.1201823e-002
  3.2200305e-004  0.0000000e+000  4.1962556e-002
  2.7486419e-004  0.0000000e+000  1.3428452e-002
  0.0000000e+000  1.1102230e-016  6.8908490e-003
  1.4155064e-003  2.2692167e-005  0.0000000e+000
  0.0000000e+000  0.0000000e+000  3.8098339e-002
  6.0660644e-004  0.0000000e+000  5.7609965e-002
  0.0000000e+000  0.0000000e+000  8.2788671e-002
  1.9323855e-003  0.0000000e+000  2.8215377e-002
  5.5126613e-004  0.0000000e+000  5.7068742e-002
  0.0000000e+000  0.0000000e+000  1.8540528e-002
  4.3086028e-004  1.1102230e-016  0.0000000e+000
