  2.6449639e+004  1.0071164e+006  1.4000000e+001
  1.1363857e+004  8.9745369e+005  2.8180000e+003
  2.4365510e+004  9.9188512e+005  8.9000000e+001
  2.4919014e+004  9.8880846e+005  6.5000000e+001
  2.3367688e+004  9.7761669e+005  2.0500000e+002
  1.7482627e+004  9.3320542e+005  1.7710000e+003
  2.3037929e+004  9.5438826e+005  1.2320000e+003
  1.5574957e+004  9.3382583e+005  2.0450000e+003
  1.8632310e+004  9.6170570e+005  1.1490000e+003
  1.0580224e+004  8.7870642e+005  3.7680000e+003
  1.2052857e+004  8.9264295e+005  3.0680000e+003
  1.9928610e+004  9.7126766e+005  3.3900000e+002
  1.5831357e+004  9.2248250e+005  2.1580000e+003
  1.3388457e+004  9.2701566e+005  2.1930000e+003
  2.1444410e+004  9.7553522e+005  3.4400000e+002
  1.1826757e+004  8.8706667e+005  3.5150000e+003
  1.8240510e+004  9.6636536e+005  4.5100000e+002
  2.7591920e+004  1.0260677e+006  0.0000000e+000
  1.8606388e+004  9.4866158e+005  1.2820000e+003
  1.2973357e+004  9.0746192e+005  2.3370000e+003
  1.6729408e+004  9.5739765e+005  1.6660000e+003
  2.2464110e+004  9.8015898e+005  3.8100000e+002
  1.1679057e+004  8.8777231e+005  3.3700000e+003
  1.2437457e+004  9.1205197e+005  2.6620000e+003
  1.3294757e+004  9.2062032e+005  2.3790000e+003
  1.3163657e+004  9.2990194e+005  2.0670000e+003
  1.5507776e+004  9.4304449e+005  1.7850000e+003
  1.2918057e+004  9.0292074e+005  2.7390000e+003
  2.2583218e+004  9.9635853e+005  2.3000000e+002
