  2.1183882e+004  8.8043568e+005  2.0540000e+003
  2.0191351e+004  8.8895317e+005  9.9700000e+002
  1.9708751e+004  8.8698094e+005  1.5480000e+003
  1.7430159e+004  8.9892080e+005  2.3330000e+003
  1.9443994e+004  8.7184944e+005  2.4760000e+003
  1.4813694e+004  8.6589494e+005  3.0570000e+003
  1.9899559e+004  8.8504393e+005  1.6500000e+003
  1.8970259e+004  8.9321532e+005  3.2900000e+002
  2.2477118e+004  9.5702808e+005  0.0000000e+000
  1.6383594e+004  8.7478971e+005  2.4550000e+003
  2.0794082e+004  8.8471635e+005  1.8750000e+003
  2.1700143e+004  8.7802921e+005  2.3620000e+003
  1.4772394e+004  8.6473098e+005  3.3520000e+003
  1.8445294e+004  8.6451579e+005  2.9580000e+003
  1.4126694e+004  8.6105932e+005  3.7000000e+003
  1.8509151e+004  8.9699439e+005  2.2300000e+002
  1.8300594e+004  8.6689174e+005  2.6060000e+003
  1.5544794e+004  8.5737300e+005  3.9060000e+003
  1.9283851e+004  9.0799077e+005  1.4400000e+002
  1.6549094e+004  8.5715733e+005  3.3460000e+003
  1.8955351e+004  9.1088511e+005  6.8000000e+001
  1.8992059e+004  8.9202717e+005  4.0500000e+002
  1.6439294e+004  8.7286144e+005  2.9000000e+003
  1.5911494e+004  8.7028654e+005  3.0530000e+003
  1.8775486e+004  8.9049770e+005  1.0340000e+003
  1.6640594e+004  8.5602361e+005  3.6520000e+003
  1.7142294e+004  8.5930443e+005  3.0860000e+003
  1.8495594e+004  8.6582482e+005  2.9270000e+003
  2.0419851e+004  8.8757467e+005  1.1500000e+003
