  3.6982164e-002  1.0318769e-003  2.6361243e-001
  2.6443174e-001  4.5805252e-004  2.5905276e-001
  2.0412440e-002  3.1939101e-004  3.0982164e-001
  9.7684984e-002  1.3359826e-003  2.4682762e-001
  3.4850764e-001  1.9288713e-003  2.2387762e-001
  1.0180569e-001  8.6474031e-004  2.5623372e-001
  8.6093346e-002  6.5828181e-004  1.5630085e-001
  2.7730559e-002  1.2732710e-003  2.1812720e-001
  6.1606143e-002  4.2427692e-004  3.1821344e-001
  1.0786094e-001  5.2611761e-004  2.2538236e-001
  1.2952807e-001  4.8284172e-004  3.2236770e-001
  2.3393152e-001  2.0258289e-003  2.7475546e-001
  1.3534565e-001  1.5911506e-003  2.7818213e-001
  4.4760260e-002  4.7899410e-004  2.3660231e-001
  6.8722639e-002  1.4308459e-003  2.2364920e-001
  3.4949225e-002  6.9863110e-004  2.5063806e-001
  1.4755056e-001  7.0550552e-004  2.3675239e-001
  5.9588752e-002  1.0588724e-003  3.2997819e-001
  5.0074503e-002  8.1388634e-004  2.3928047e-001
  5.4693391e-002  6.3924504e-004  4.4234928e-001
  7.9129280e-002  6.7785588e-004  3.3188936e-001
  3.5355111e-002  4.5971463e-004  2.3093538e-001
  3.0000691e-002  6.6754863e-004  2.5481955e-001
  1.4496298e-001  7.7296712e-004  2.0977324e-001
  6.9616308e-002  8.3283110e-004  2.6200214e-001
  3.4150541e-002  7.9969010e-004  2.4988437e-001
  6.1894438e-002  1.3524426e-003  2.0515418e-001
  2.0139692e-002  9.5564317e-004  2.8153732e-001
  2.1088628e-002  4.0344315e-004  2.3449516e-001
  4.5948021e-002  4.5773725e-004  2.6382973e-001
  7.5347672e-002  3.2919170e-003  3.0941381e-001
  7.1907734e-002  3.1233750e-003  3.5410074e-001
  4.6564387e-002  1.0250989e-003  2.5492370e-001
  3.1398345e-001  7.6765626e-004  2.1997272e-001
  4.3144706e-001  2.3721199e-004  1.3350434e-001
  1.0434105e-001  7.3849917e-004  2.3846052e-001
  3.5951648e-001  7.0344413e-004  2.8668016e-001
  6.1917713e-002  2.9496008e-004  3.6494629e-001
  1.4448285e-001  1.1210141e-003  3.3211209e-001
  2.2923670e-002  5.6368207e-004  2.5937855e-001
  9.7103221e-002  6.1302115e-004  2.4075647e-001
  2.3430566e-001  3.5704778e-004  1.8199395e-001
  5.3537825e-002  7.3430010e-004  2.4359857e-001
  1.3692603e-001  1.8264479e-003  2.4050841e-001
  9.4658517e-002  7.1273859e-004  2.3517030e-001
  8.4591356e-002  9.7019507e-004  2.5857458e-001
  9.4666190e-002  8.9924022e-004  1.1497202e-001
  1.2107134e-001  6.3547352e-004  1.8957667e-001
  4.2928713e-002  8.9099518e-004  2.2865225e-001
  3.6277158e-002  3.2623570e-004  2.8642870e-001
  5.3939001e-002  7.4749766e-004  2.5723345e-001
  4.4258429e-002  3.3310632e-004  4.4962596e-001
  8.2421537e-002  3.0728761e-004  2.1069654e-001
  1.6653025e-001  7.1935418e-004  2.9165547e-001
  3.2703484e-001  9.7293701e-004  2.4565993e-001
  7.7130338e-002  7.8705996e-004  2.0208184e-001
  2.8579956e-001  8.0583137e-004  3.2223772e-001
  5.5090801e-002  3.5997598e-004  2.5656519e-001
  1.7875718e-001  1.2852622e-003  1.5187315e-001
  3.5393096e-002  6.6846245e-004  1.6691973e-001
  1.2338828e-001  1.1323230e-003  2.2515794e-001
  9.5351336e-002  1.5077926e-003  3.6540645e-001
  2.3937731e-001  1.1619973e-003  4.1401670e-001
  1.7135986e-001  4.2532322e-004  2.4726227e-001
  0.0000000e+000  3.1345567e-005  4.3277833e-002
  1.7933021e-001  1.4589169e-003  2.7198761e-001
  3.0740216e-002  3.5434789e-004  2.8414241e-001
  1.0297458e-001  1.5426711e-003  1.1809947e-001
  1.4404123e-001  3.7488880e-004  2.9350307e-001
  2.1611320e-001  5.8370669e-004  4.3311772e-001
  3.8792792e-001  6.2082536e-004  1.4265062e-001
  1.1465723e-001  1.0541893e-003  2.0786123e-001
  2.9907441e-001  1.9791502e-003  1.5282596e-001
  6.6102271e-002  2.7257529e-004  1.4750936e-001
  3.0801375e-001  9.4706816e-004  2.1780841e-001
  9.7535493e-002  1.1087296e-003  2.2717554e-001
  2.1581543e-002  6.3192242e-004  3.0538431e-001
  2.2363338e-001  1.0205726e-003  3.4149788e-001
  6.2395229e-002  5.0140993e-004  1.3456164e-001
  2.8441256e-001  3.7997623e-004  3.1861431e-001
  2.9442487e-001  1.5168852e-003  1.3929580e-001
  2.2549311e-001  1.8629751e-003  2.3222151e-001
  7.3774103e-002  7.4909065e-004  1.1590933e-001
  1.1237376e-001  1.0721098e-003  2.0203520e-001
  2.1986495e-001  1.3031304e-003  3.2328320e-001
  1.9268625e-001  8.0035113e-004  2.7167686e-001
  1.0518291e-001  1.3378153e-003  2.4330875e-001
  2.8780182e-002  1.5951944e-003  2.0077962e-001
  1.8988968e-001  9.6045200e-004  2.0895289e-001
  6.7991737e-002  2.5878135e-003  1.6099394e-001
  1.1703191e-001  2.8475523e-004  2.0978524e-001
  1.1339585e-001  2.2494122e-003  2.7568754e-001
  2.1267242e-001  2.7737789e-003  2.0911549e-001
  5.1995708e-002  9.9009501e-004  4.0788673e-001
  1.2381967e-001  6.5222128e-004  1.9459214e-001
  6.5782195e-002  6.7278823e-004  2.4106870e-001
  4.0732819e-002  3.5755159e-004  2.2063203e-001
  8.8547208e-002  1.0327980e-003  1.9764015e-001
  0.0000000e+000  3.4430554e-005  1.2380182e-001
  2.1618176e-001  6.3894008e-004  1.8660992e-001
  1.7405833e-001  1.4847387e-003  1.9844891e-001
  1.6996161e-001  1.0149202e-003  2.2224163e-001
  2.1508617e-001  1.5201727e-003  1.8340701e-001
  2.6788787e-002  6.7076786e-004  3.9061703e-001
  2.1592031e-001  8.1610142e-004  2.1730464e-001
  5.8297137e-002  5.9186213e-004  2.1868013e-001
  4.9499514e-002  4.6989261e-004  2.8381269e-001
  5.2978823e-002  6.3219610e-004  3.4940434e-001
  8.0131480e-002  1.6637514e-003  2.7795595e-001
  1.1447690e-001  7.3987779e-004  2.9735095e-001
  1.2743146e-001  1.1113495e-003  3.9725697e-001
  2.2555814e-001  1.1341231e-003  2.1046133e-001
  1.3572944e-001  2.0556704e-003  2.4229390e-001
  1.9112631e-001  1.1857983e-003  2.1674084e-001
  2.6599552e-002  7.4926231e-004  2.0829586e-001
  8.2029814e-002  9.8173808e-004  2.5582801e-001
  2.0361931e-001  9.0502903e-004  1.9872161e-001
  5.6119685e-002  3.4202991e-004  2.4237796e-001
  7.2549776e-002  2.2069839e-003  2.0460632e-001
  4.1309760e-002  1.4053802e-003  1.7335450e-001
