  3.8167097e+003  7.9359255e+005  0.0000000e+000
  3.8327097e+003  7.9374459e+005  0.0000000e+000
  4.2976326e+003  7.1626955e+005  0.0000000e+000
  1.8562229e+003  6.3979006e+005  2.0490000e+003
  1.8562229e+003  6.3419402e+005  2.3420000e+003
  1.8562229e+003  6.3419402e+005  2.4210000e+003
  2.1440606e+003  6.4093003e+005  1.6690000e+003
  2.7424369e+003  6.8929506e+005  6.4900000e+002
  2.8262229e+003  7.1147797e+005  6.5200000e+002
  1.9122229e+003  7.7205510e+005  1.1630000e+003
  3.3041583e+003  7.1732008e+005  3.1700000e+002
  3.8241125e+003  6.8114526e+005  2.9500000e+002
  1.9042229e+003  7.5041839e+005  1.4590000e+003
  1.8962229e+003  7.5699619e+005  1.3790000e+003
  2.9839443e+003  6.5118651e+005  1.0130000e+003
  3.7281125e+003  7.2115296e+005  2.9500000e+002
  3.1209930e+003  6.5627570e+005  4.6400000e+002
  3.7687097e+003  7.7162414e+005  2.2600000e+002
  3.7121125e+003  7.2110952e+005  2.9500000e+002
  3.8161125e+003  6.6912907e+005  3.0300000e+002
