  0.0000000e+000  5.7792000e+002  5.0700000e+002
  0.0000000e+000  4.8160000e+001  1.4200000e+002
  0.0000000e+000  6.2608000e+002  5.2100000e+002
  0.0000000e+000  1.0836000e+002  1.4300000e+002
  0.0000000e+000  2.9103830e-011  1.2100000e+002
  0.0000000e+000  1.2040000e+001  0.0000000e+000
  0.0000000e+000  0.0000000e+000  0.0000000e+000
  0.0000000e+000  5.4180000e+002  4.4000000e+002
  0.0000000e+000  5.8996000e+002  4.8300000e+002
  0.0000000e+000  4.9364000e+002  4.1000000e+002
  0.0000000e+000  5.0568000e+002  3.6800000e+002
  0.0000000e+000  0.0000000e+000  1.2800000e+002
