  5.5671928e+001  1.2972183e+005  7.4400000e+002
  0.0000000e+000  1.3945660e+005  3.7100000e+002
  0.0000000e+000  1.3015081e+005  6.3400000e+002
  0.0000000e+000  1.4088359e+005  2.6900000e+002
  0.0000000e+000  1.3650635e+005  4.1500000e+002
  0.0000000e+000  1.5180798e+005  0.0000000e+000
  0.0000000e+000  1.4414278e+005  5.0000000e+000
  0.0000000e+000  1.3086179e+005  5.8200000e+002
  0.0000000e+000  1.2572450e+005  8.0500000e+002
  0.0000000e+000  1.3183155e+005  4.9700000e+002
  0.0000000e+000  1.3234936e+005  4.9500000e+002
  0.0000000e+000  1.4138189e+005  1.7100000e+002
