  0.0000000e+000  1.5652000e+002  1.6700000e+002
  8.0000000e+000  4.8160000e+002  3.2000000e+002
  0.0000000e+000  6.5016000e+002  3.6800000e+002
  0.0000000e+000  1.8060000e+002  3.4000000e+002
  3.1253223e+001  2.9103830e-011  8.3000000e+001
  8.0000000e+000  2.2876000e+002  1.9800000e+002
  2.4000000e+001  3.1304000e+002  3.6300000e+002
  4.8000000e+001  1.5652000e+002  5.0000000e+000
  1.2308798e+000  8.4280000e+002  7.2700000e+002
  3.2000000e+001  0.0000000e+000  5.5000000e+001
  8.0000000e+000  0.0000000e+000  0.0000000e+000
  3.2000000e+001  0.0000000e+000  4.9000000e+001
  1.6000000e+001  2.9103830e-011  5.9000000e+001
  0.0000000e+000  1.8060000e+002  2.1800000e+002
  0.0000000e+000  4.6956000e+002  3.0600000e+002
  2.9606490e+001  1.6856000e+002  4.9000000e+001
  4.9253252e+001  0.0000000e+000  2.1000000e+001
  0.0000000e+000  1.5652000e+002  6.2000000e+001
  4.0000000e+001  0.0000000e+000  4.9000000e+001
  1.0268861e+002  2.6488000e+002  0.0000000e+000
  5.7959560e+001  5.1772000e+002  1.0000000e+000
  4.2997497e+001  2.4080000e+002  5.0000000e+000
  8.0000000e+000  3.9732000e+002  4.2600000e+002
  8.0000000e+000  4.5752000e+002  5.1500000e+002
