  0.0000000e+000  6.7848008e-003  4.4623656e-001
  0.0000000e+000  2.9059260e-003  4.8927875e-001
  0.0000000e+000  4.9458270e-003  6.1209964e-001
  0.0000000e+000  6.5256017e-003  6.8148148e-001
  0.0000000e+000  8.5996638e-005  3.2173913e-001
  0.0000000e+000  5.9455680e-003  0.0000000e+000
  0.0000000e+000  5.5304365e-003  0.0000000e+000
  0.0000000e+000  5.3939090e-003  6.0068259e-001
