  1.6800000e+002  6.5016000e+002  1.0830000e+003
  2.4000000e+001  6.7424000e+002  1.5440000e+003
  4.0000000e+001  3.6120000e+001  0.0000000e+000
  3.2000000e+001  6.9832000e+002  1.6080000e+003
  8.8000000e+001  1.8060000e+002  4.6400000e+002
  3.9200000e+002  2.4080000e+001  1.0000000e+001
  3.5200838e+002  6.9832000e+002  9.5800000e+002
  5.5200000e+002  4.8160000e+001  4.4600000e+002
  6.4000000e+001  5.7792000e+002  1.2590000e+003
  6.4000000e+001  5.5384000e+002  1.3960000e+003
  5.5140363e+001  1.6856000e+002  5.6500000e+002
  4.0000000e+001  1.2040000e+002  4.9200000e+002
  1.6819113e+002  5.6588000e+002  9.4400000e+002
  1.5219113e+002  6.9832000e+002  1.1600000e+003
  9.6000000e+001  5.8207661e-011  4.0000000e+001
  3.8400000e+002  1.0354400e+003  1.0740000e+003
  6.4920161e+001  2.2876000e+002  4.7600000e+002
  4.3200000e+002  8.1872000e+002  9.2700000e+002
  1.2800000e+002  5.5384000e+002  1.0270000e+003
  1.3600000e+002  1.6856000e+002  5.1500000e+002
