  1.6423196e+003  3.0287513e+005  9.1000000e+002
  1.0307186e+003  3.1274905e+005  1.1400000e+002
  1.7702196e+003  3.0106702e+005  1.1490000e+003
  9.1018998e+002  3.0853683e+005  3.0500000e+002
  8.3284069e+000  2.7671211e+005  1.6300000e+003
  0.0000000e+000  2.6936986e+005  1.7240000e+003
  1.0249386e+003  3.1204412e+005  2.6900000e+002
  5.4328407e+001  2.8915100e+005  1.5170000e+003
  6.2528407e+001  2.8160350e+005  1.4750000e+003
  0.0000000e+000  2.6466449e+005  1.7610000e+003
  3.2855125e+003  3.4386906e+005  0.0000000e+000
  1.1445483e+003  3.1817833e+005  3.4000000e+001
  5.4328407e+001  2.8559146e+005  1.4760000e+003
  2.8844880e+003  3.4669707e+005  0.0000000e+000
  1.8923807e+002  3.0486171e+005  1.2000000e+003
  1.2414628e+002  2.9777214e+005  1.2440000e+003
  7.5644031e+002  3.0785987e+005  4.7000000e+002
