  5.6000000e+001  2.3283064e-010  3.3900000e+002
  2.6400000e+002  5.2128000e+002  5.5000000e+001
  3.0400000e+002  6.5160000e+002  5.8100000e+002
  1.2880000e+002  6.5160000e+001  5.2800000e+002
  8.0000000e+001  2.3283064e-010  3.6800000e+002
  7.2000000e+001  2.3283064e-010  3.2800000e+002
  7.2000000e+001  2.1720000e+001  5.3000000e+002
  7.2000000e+001  1.1641532e-010  4.6800000e+002
  8.0000000e+001  1.1641532e-010  4.5200000e+002
  4.8000000e+001  1.1641532e-010  4.1100000e+002
  1.0400000e+002  1.7376000e+002  3.5800000e+002
  5.1200000e+002  9.7740000e+002  5.2600000e+002
  2.5600000e+002  5.2128000e+002  3.5900000e+002
  1.5450000e+002  1.9548000e+002  4.8100000e+002
  1.1200000e+002  2.3283064e-010  4.8200000e+002
  3.1200000e+002  5.2128000e+002  2.2400000e+002
  5.5200000e+002  8.9052000e+002  3.5400000e+002
  5.6000000e+001  1.1641532e-010  3.3800000e+002
  1.5750000e+002  1.7376000e+002  3.0700000e+002
  1.1200000e+002  1.1641532e-010  4.1400000e+002
  1.0400000e+002  2.1720000e+002  0.0000000e+000
  5.6000000e+001  1.1641532e-010  3.4700000e+002
  8.2500000e+001  3.4924597e-010  3.5000000e+002
  4.8000000e+001  2.1720000e+001  4.6900000e+002
  8.8000000e+001  2.6064000e+002  1.1100000e+002
