  1.1775000e+004  7.6173336e+005  3.8030000e+003
  1.9978000e+004  8.7657213e+005  5.2900000e+002
  1.2891600e+004  7.7677148e+005  3.1510000e+003
  1.4061400e+004  7.8911362e+005  2.6370000e+003
  3.0303600e+004  1.0278487e+006  0.0000000e+000
  1.0564100e+004  7.9008692e+005  4.5270000e+003
  1.6684200e+004  8.3405589e+005  1.4130000e+003
  1.9292700e+004  8.6883810e+005  7.4600000e+002
  1.1192900e+004  7.5497613e+005  4.4640000e+003
  1.7491000e+004  8.3918277e+005  1.1340000e+003
  1.7641500e+004  8.4498617e+005  1.1020000e+003
  1.9833300e+004  8.7301302e+005  5.9800000e+002
  1.0284600e+004  7.8257672e+005  5.1470000e+003
  2.2651400e+004  9.1432401e+005  1.9600000e+002
  2.1089700e+004  8.9258803e+005  3.1700000e+002
  2.4199100e+004  9.3574243e+005  9.6000000e+001
  1.0488900e+004  7.9528024e+005  4.4830000e+003
  1.4959200e+004  8.0503919e+005  2.0100000e+003
  1.1232900e+004  7.5244769e+005  4.6000000e+003
  1.0974500e+004  7.5934042e+005  4.6260000e+003
  1.0758700e+004  7.9801075e+005  4.4710000e+003
  1.1561500e+004  7.5967077e+005  3.9630000e+003
  1.2813200e+004  7.7459592e+005  3.2860000e+003
  1.6097200e+004  8.2083300e+005  1.5480000e+003
  1.4818200e+004  8.0586448e+005  2.1930000e+003
  1.7177000e+004  8.3660669e+005  1.1850000e+003
  1.0401700e+004  7.6578807e+005  4.8370000e+003
  1.8634400e+004  8.5528786e+005  8.1200000e+002
