  2.2005832e-003  2.2204460e-016  3.6648649e-001
  8.1988087e-003  4.8120906e-004  6.1111111e-001
  1.0876526e-002  6.4548149e-004  7.6750330e-001
  6.3287718e-003  7.0596810e-005  2.4672897e-001
  4.4569735e-003  2.2204460e-016  1.0165746e-001
  4.0098911e-003  2.2204460e-016  9.1390359e-002
  3.6087693e-003  2.3622967e-005  2.3103749e-001
  3.3409898e-003  1.1102230e-016  2.8888889e-001
  3.7815225e-003  1.1102230e-016  2.5293788e-001
  2.6416008e-003  1.1102230e-016  1.3668108e-001
  4.5704643e-003  1.8169846e-004  2.6246334e-001
  1.7189572e-002  9.3889371e-004  8.4702093e-001
  8.4794886e-003  4.9473507e-004  7.5420168e-001
  6.4286606e-003  2.0196116e-004  3.8603531e-001
  4.5949661e-003  2.2204460e-016  4.2504409e-001
  1.0155556e-002  4.9152369e-004  6.5882353e-001
  1.8084012e-002  8.4988294e-004  7.3596674e-001
  2.8723841e-003  1.1102230e-016  1.4030718e-001
  7.0099073e-003  1.8225348e-004  2.0984279e-001
  6.3784227e-003  1.1102230e-016  1.0767230e-001
  2.9062862e-003  1.9213317e-004  0.0000000e+000
  3.2527125e-003  1.1102230e-016  5.9941268e-002
  4.3101422e-003  3.3306691e-016  1.3844937e-001
  2.2950255e-003  2.3463438e-005  2.4503657e-001
  2.8300825e-003  2.4384699e-004  6.3068182e-001
