  0.0000000e+000  0.0000000e+000  3.2000000e+001
  8.0000000e+000  1.1641532e-010  1.7200000e+002
  8.0000000e+000  2.3283064e-010  2.4900000e+002
  8.0000000e+000  2.3283064e-010  1.3700000e+002
  0.0000000e+000  1.1641532e-010  1.6000000e+001
  0.0000000e+000  2.1720000e+001  2.7200000e+002
  3.2000000e+001  2.1720000e+001  2.1800000e+002
  5.6000000e+001  2.1720000e+001  1.5900000e+002
  8.0000000e+000  1.1641532e-010  6.5000000e+001
  8.0000000e+000  0.0000000e+000  1.9600000e+002
  0.0000000e+000  2.3283064e-010  5.0000000e+001
  1.6000000e+001  1.1641532e-010  5.6000000e+001
  3.2000000e+001  2.1720000e+001  2.1900000e+002
  8.0000000e+000  1.1641532e-010  1.1000000e+002
  8.0000000e+000  2.3283064e-010  1.9000000e+002
  5.6000000e+001  2.1720000e+001  1.1400000e+002
  8.0000000e+000  2.1720000e+001  2.5400000e+002
  8.0000000e+000  1.1641532e-010  3.1400000e+002
  0.0000000e+000  2.1720000e+001  4.7000000e+001
  1.6000000e+001  2.1720000e+001  2.2000000e+001
  8.0000000e+000  1.1641532e-010  7.5000000e+001
  1.1200000e+002  2.8236000e+002  0.0000000e+000
  7.2000000e+001  1.3032000e+002  2.0000000e+000
  2.4000000e+001  1.1641532e-010  8.3000000e+001
