  3.3072054e-003  3.7631283e-004  9.4781900e-002
  1.5241339e-002  1.2460557e-003  0.0000000e+000
  1.0777252e-002  2.4158066e-003  1.3212484e-001
  1.2515087e-002  1.1732733e-003  0.0000000e+000
  5.4667044e-003  2.4189661e-003  1.4064603e-001
  1.3584671e-002  1.1028746e-003  0.0000000e+000
  8.5521239e-003  4.4452347e-004  1.9902064e-001
  1.1708168e-002  1.3703025e-003  1.2555391e-001
  5.3094132e-003  3.9503046e-004  1.2647475e-001
  1.3885831e-002  9.3878393e-004  7.3154362e-001
  5.7321869e-003  5.1690028e-004  1.0744337e-001
  4.9143271e-003  9.8536120e-004  1.5331747e-001
  1.5922565e-002  8.0782670e-004  6.6246057e-001
  2.6457643e-003  5.4650816e-004  9.7227884e-002
  8.8480447e-003  6.0225290e-004  1.3689293e-001
  1.3642136e-002  5.4772076e-004  9.5493562e-002
  6.5520331e-003  5.5682693e-004  5.8397933e-001
  1.6790140e-002  9.0563645e-004  1.1019930e-001
  1.1106935e-002  2.0189981e-003  1.3735750e-001
  1.3529824e-002  1.0779161e-003  0.0000000e+000
