15994.588 473522.66 0.0
16180.3 472407.53 2.0
16026.588 473546.74 0.0
14385.62 444782.74 86.0
16219.643 471931.95 13.0
11132.072 412906.02 69.0
14294.62 444652.26 60.0
10039.915 390584.94 166.0
11225.072 412871.86 92.0
