  1.0400000e+002  1.1641532e-010  7.3400000e+002
  7.3600000e+001  1.1641532e-010  5.7200000e+002
  0.0000000e+000  2.3283064e-010  9.4000000e+001
  8.0000000e+000  2.3283064e-010  2.6200000e+002
  0.0000000e+000  2.3283064e-010  2.4800000e+002
  0.0000000e+000  0.0000000e+000  6.3100000e+002
  0.0000000e+000  2.3283064e-010  5.3000000e+001
  5.6000000e+001  2.3283064e-010  2.8900000e+002
  0.0000000e+000  1.1641532e-010  3.5600000e+002
  0.0000000e+000  1.1641532e-010  0.0000000e+000
  5.6000000e+001  2.1720000e+001  0.0000000e+000
  0.0000000e+000  2.3283064e-010  4.3900000e+002
  0.0000000e+000  1.1641532e-010  4.0400000e+002
  6.4000000e+001  2.3283064e-010  4.9900000e+002
  0.0000000e+000  4.3440000e+001  7.0000000e+000
  1.0470000e+002  1.1641532e-010  6.9400000e+002
  3.8400000e+001  2.3283064e-010  6.1200000e+002
  1.1200000e+002  1.1641532e-010  6.1400000e+002
