  1.4751039e-003  2.4061571e-005  9.7301406e-002
  8.0089823e-004  2.3948566e-005  1.3965407e-001
  7.1077291e-004  7.0475186e-005  4.9165121e-002
  5.3605144e-003  1.1102230e-016  7.7863578e-002
  0.0000000e+000  6.4465466e-005  0.0000000e+000
  2.0014101e-003  2.2204460e-016  4.8954373e-002
  7.0750078e-004  2.4006118e-005  7.9718205e-002
  7.8791072e-004  1.1102230e-016  1.5519126e-001
  4.1015767e-003  7.2963446e-005  8.3621285e-002
  3.0997380e-003  0.0000000e+000  6.3316583e-002
  1.4870646e-003  2.2204460e-016  4.5813586e-002
  0.0000000e+000  1.1102230e-016  3.4893617e-001
  1.4364647e-003  1.8407862e-004  2.8292683e-001
  5.3069236e-003  9.6182882e-005  6.0984308e-002
  2.1204499e-003  1.1102230e-016  8.9604176e-002
  1.7166554e-003  7.3484330e-005  5.0131062e-002
  0.0000000e+000  1.1102230e-016  8.7216249e-002
  1.5902647e-003  1.1102230e-016  8.1820443e-002
  2.8002986e-003  1.1102230e-016  7.0971185e-002
  1.7326315e-003  2.2204460e-016  5.6245765e-002
  6.4240674e-004  4.5240580e-005  6.5605096e-001
  2.8106534e-003  2.2204460e-016  7.1862710e-002
  0.0000000e+000  1.1102230e-016  5.2260574e-002
  3.8840666e-004  2.2204460e-016  6.4970646e-002
  3.7983628e-003  9.5133221e-005  4.3064024e-002
  2.1141550e-003  2.3905474e-005  7.8310940e-002
  5.6133686e-004  2.7219275e-004  0.0000000e+000
  5.2011312e-004  4.5639717e-005  3.4767025e-001
  0.0000000e+000  0.0000000e+000  1.0551306e-002
  3.0992115e-004  0.0000000e+000  1.4995131e-001
  2.3719367e-003  1.1445076e-004  1.2601260e-001
  4.9940791e-004  2.3210685e-005  5.0598477e-002
