  7.0251816e+003  2.4861974e+005  3.1850000e+003
  1.4387926e+004  2.8383434e+005  1.1090000e+003
  2.0021799e+004  3.0737810e+005  1.4100000e+002
  1.0216520e+004  2.6058254e+005  2.2670000e+003
  1.1941936e+004  2.6762163e+005  1.7620000e+003
  1.0070045e+004  2.6261632e+005  2.2920000e+003
  1.5582446e+004  2.8487833e+005  7.6000000e+002
  8.5011587e+003  2.5487400e+005  2.6220000e+003
  6.6483819e+003  2.4329188e+005  3.8230000e+003
  1.5252191e+004  2.7995250e+005  1.0200000e+003
  1.2891110e+004  2.7271260e+005  1.6260000e+003
  1.3532147e+004  2.7456162e+005  1.2820000e+003
  1.8518051e+004  2.9789549e+005  2.1900000e+002
  1.7430804e+004  2.9221218e+005  5.8800000e+002
  6.2882353e+003  2.5019136e+005  4.3200000e+003
  2.8156600e+004  3.4804231e+005  0.0000000e+000
  1.4022024e+004  2.7789094e+005  1.2870000e+003
  1.0737550e+004  2.6475301e+005  2.1070000e+003
  2.1396282e+004  3.1387626e+005  6.3000000e+001
  1.0935720e+004  2.6902678e+005  2.1160000e+003
