  0.0000000e+000  5.7792000e+002  2.6300000e+002
  5.0023713e+002  6.9832000e+002  0.0000000e+000
  4.6823713e+002  7.1036000e+002  0.0000000e+000
  0.0000000e+000  5.5384000e+002  2.6200000e+002
  2.0365306e+002  6.2608000e+002  1.6000000e+001
  2.0035606e+002  2.2876000e+002  1.1600000e+002
  2.1246581e+002  4.4548000e+002  6.9000000e+001
  1.4105317e+002  3.2508000e+002  1.6200000e+002
  0.0000000e+000  2.7692000e+002  1.8200000e+002
  1.4960856e+001  3.1304000e+002  1.7200000e+002
  2.1165306e+002  6.8628000e+002  1.7000000e+001
  2.3646581e+002  4.4548000e+002  6.4000000e+001
  1.7650686e+002  1.8060000e+002  1.6200000e+002
  2.0279764e+002  1.4448000e+002  1.1500000e+002
  2.1165306e+002  6.7424000e+002  5.0000000e+000
  1.9646581e+002  4.4548000e+002  7.1000000e+001
  1.6901212e+002  5.1772000e+002  6.9000000e+001
  1.4960856e+001  3.2508000e+002  1.7500000e+002
  1.8668028e+002  5.6588000e+002  1.9000000e+001
  2.1701212e+002  3.0100000e+002  6.9000000e+001
