  0.0000000e+000  1.3244000e+002  2.9200000e+002
  0.0000000e+000  3.0100000e+002  2.5100000e+002
  0.0000000e+000  2.9103830e-011  9.0000000e+000
  0.0000000e+000  1.0836000e+002  2.7000000e+002
  0.0000000e+000  2.9103830e-011  1.3000000e+001
  0.0000000e+000  1.6856000e+002  2.0400000e+002
  0.0000000e+000  1.0836000e+002  1.7100000e+002
  3.7774147e+001  8.4280000e+001  0.0000000e+000
  0.0000000e+000  1.3244000e+002  7.9000000e+001
  1.3990028e+002  4.8160000e+001  0.0000000e+000
  0.0000000e+000  7.2240000e+001  1.8000000e+001
  0.0000000e+000  2.9103830e-011  0.0000000e+000
  4.0000000e+001  0.0000000e+000  0.0000000e+000
  1.6000000e+001  2.9103830e-011  0.0000000e+000
