  8.6014949e-003  2.8178348e-005  4.9444046e-002
  1.8572564e-002  1.0550563e-003  1.5793955e-001
  1.6747291e-003  3.6140470e-005  2.4308085e-002
  1.8440472e-002  9.3971502e-004  1.6919058e-001
  7.6492382e-003  2.9994509e-004  1.9583753e-001
  2.5875679e-002  5.5927086e-004  1.1947890e-001
