  3.0400000e+002  2.3892000e+002  2.0600000e+002
  1.4400000e+002  2.3283064e-010  7.9000000e+001
  1.6800000e+002  3.2580000e+002  7.5000000e+001
  8.0000000e+001  4.3440000e+001  4.1000000e+001
  2.4000000e+002  8.6880000e+001  1.3000000e+001
  1.6000000e+001  8.6880000e+001  1.8000000e+001
  4.8200000e+001  6.5160000e+001  9.0000000e+000
  1.6800000e+002  2.6064000e+002  0.0000000e+000
  7.3700000e+001  6.5160000e+001  6.1000000e+001
  8.0000000e+001  1.1641532e-010  4.0000000e+000
  4.8000000e+001  1.3032000e+002  1.4100000e+002
  1.1200000e+002  4.3440000e+001  1.5000000e+001
  1.7600000e+002  1.5204000e+002  0.0000000e+000
  1.1200000e+002  2.3283064e-010  1.2400000e+002
  1.5200000e+002  4.3440000e+001  1.1000000e+001
  5.6000000e+001  2.1720000e+001  2.0000000e+000
  6.5700000e+001  4.3440000e+001  1.5000000e+001
  2.4000000e+001  2.1720000e+001  1.1000000e+001
  3.2000000e+001  4.3440000e+001  4.0000000e+001
  1.6000000e+001  4.3440000e+001  1.0600000e+002
  4.0000000e+001  6.5160000e+001  6.0000000e+000
  1.3820000e+002  8.6880000e+001  4.4000000e+001
  9.6000000e+001  1.1641532e-010  2.0000000e+000
  1.0700000e+002  1.5204000e+002  7.1000000e+001
  1.4400000e+002  8.6880000e+001  1.0000000e+001
  7.2000000e+001  4.3440000e+001  3.4000000e+001
  2.7800000e+001  1.1641532e-010  1.3000000e+001
  1.4400000e+002  8.6880000e+001  4.4000000e+001
  2.0000000e+002  8.6880000e+001  0.0000000e+000
  7.2000000e+001  2.3283064e-010  1.2700000e+002
  1.8400000e+002  8.6880000e+001  1.0000000e+001
  3.6800000e+002  6.0816000e+002  1.1000000e+002
  8.0000000e+001  1.1641532e-010  1.1700000e+002
  1.3600000e+002  1.9548000e+002  0.0000000e+000
  8.0000000e+001  4.3440000e+001  3.0000000e+000
  4.6400000e+002  6.7332000e+002  2.3700000e+002
