  0.0000000e+000  1.1102230e-016  9.9889012e-003
  1.6549099e-003  0.0000000e+000  6.2754686e-002
  0.0000000e+000  1.1102230e-016  0.0000000e+000
  3.5646494e-003  1.7557325e-004  0.0000000e+000
  3.5303722e-003  3.3306691e-016  3.3457249e-002
  4.3102055e-003  3.3306691e-016  3.5389282e-002
  4.5259108e-003  3.3306691e-016  5.5845511e-002
  2.3361223e-002  6.6117809e-004  0.0000000e+000
  0.0000000e+000  2.2204460e-016  2.9986962e-002
  0.0000000e+000  1.1102230e-016  5.2631579e-002
  4.4751072e-003  0.0000000e+000  5.5151915e-002
  0.0000000e+000  3.3306691e-016  3.0487805e-003
  0.0000000e+000  1.1102230e-016  0.0000000e+000
  0.0000000e+000  3.3306691e-016  2.6747196e-002
  0.0000000e+000  0.0000000e+000  0.0000000e+000
  2.8646626e-003  2.2204460e-016  4.5914397e-002
  0.0000000e+000  1.1102230e-016  0.0000000e+000
  1.2916768e-003  3.3306691e-016  3.7003610e-002
  1.4527317e-002  0.0000000e+000  3.8516405e-002
