  1.4581982e+003  2.8161684e+005  1.1990000e+003
  4.3833250e+003  2.5839985e+005  0.0000000e+000
  4.3784115e+003  2.1509981e+005  5.9000000e+002
  5.6016385e+003  2.2436182e+005  1.6400000e+002
  1.4502781e+003  2.7024154e+005  1.2630000e+003
  2.2216593e+003  3.0297381e+005  3.2300000e+002
  1.5941982e+003  2.4122667e+005  1.0730000e+003
  3.8848202e+003  2.2398741e+005  5.3600000e+002
  2.1318457e+003  2.8741903e+005  3.4200000e+002
  2.7009163e+003  2.3186461e+005  1.5300000e+002
  5.2299084e+003  2.2516754e+005  2.0500000e+002
  2.0631982e+003  2.2357213e+005  1.0800000e+003
  2.9756593e+003  2.1772711e+005  7.4700000e+002
  2.7313250e+003  2.3703683e+005  3.4000000e+001
  2.1896593e+003  2.7810309e+005  5.1600000e+002
  4.3944115e+003  2.1522021e+005  6.1000000e+002
  1.5541982e+003  2.7073203e+005  9.3500000e+002
  4.3193250e+003  2.5839985e+005  0.0000000e+000
  2.3382544e+003  3.0305809e+005  3.8500000e+002
  2.9996593e+003  2.1772711e+005  7.6700000e+002
