2 11 15
3 6 10
4 17 25
7 11 21
8 13 150
11 6 18
12 19 37
15 17 36
16 9 27
16 10 150
16 12 32
16 17 36
16 18 38
19 14 35
19 11 33
22 14 39
22 12 150
24 10 150
25 7 33
27 9 38
27 14 44
28 10 39
28 8 38
28 14 150
29 7 38
31 9 41
34 8 43
35 1 36
35 13 52
35 12 49
36 4 41
36 13 52
40 8 150
40 20 150
45 9 56
48 8 58
49 12 62
50 18 69
52 10 64
52 10 64
55 21 83
56 9 150
57 9 68
60 8 68
62 11 74
63 11 150
63 7 71
63 4 68
64 8 150
64 14 80
65 15 81
65 12 81
67 1 68
67 5 150
69 17 88
71 11 83
71 10 83
73 15 150
74 11 150
74 1 75
74 9 85
75 7 82
76 14 94
78 7 87
81 7 89
84 9 95
85 5 91
86 4 150
86 2 89
86 9 150
86 8 150
88 4 150
88 8 97
89 8 98
90 13 105
90 16 107
91 12 105
92 19 113
93 1 94
95 13 112
97 5 150
98 7 106
99 14 117
102 13 150
103 6 109
103 5 109
104 10 150
104 7 112
105 7 114
105 6 150
106 7 114
106 24 132
107 14 124
107 18 150
109 14 128
109 9 119
111 1 112
111 4 116
112 11 126
112 10 124
