3770.0503 271256.22 0.0
3760.645 271268.26 0.0
3516.9459 277016.65 0.0
1902.2947 255334.62 8.0
1332.6133 234317.59 84.0
1876.8765 255382.78 9.0
1010.8606 235614.19 117.0
3628.9459 277004.61 0.0
1816.6133 257321.58 8.0
1010.8606 235614.19 112.0
1093.2842 234872.02 32.0
