  0.0000000e+000  3.3028000e+002  4.3300000e+002
  0.0000000e+000  6.8536000e+002  0.0000000e+000
  0.0000000e+000  1.1752400e+003  5.6000000e+001
  0.0000000e+000  1.1728800e+003  2.6000000e+001
  0.0000000e+000  1.2597600e+003  2.3000000e+001
  0.0000000e+000  2.3632000e+002  2.5500000e+002
  0.0000000e+000  1.5107200e+003  2.4000000e+001
  0.0000000e+000  1.2064000e+002  8.1000000e+001
  2.2114057e+001  8.6148000e+002  0.0000000e+000
  0.0000000e+000  9.1460000e+002  1.1100000e+002
  0.0000000e+000  1.3466400e+003  2.4000000e+001
  0.0000000e+000  1.1568000e+002  2.2300000e+002
