  0.0000000e+000  7.2240000e+001  2.5400000e+002
  0.0000000e+000  1.0836000e+002  3.0100000e+002
  9.6258099e+001  1.5652000e+002  0.0000000e+000
  1.2825810e+002  3.8528000e+002  0.0000000e+000
  1.5200000e+002  2.1672000e+002  0.0000000e+000
  0.0000000e+000  8.4280000e+001  3.0000000e+002
  1.0400000e+002  2.5284000e+002  6.0000000e+000
  9.6000000e+001  2.4080000e+002  2.0000000e+000
  0.0000000e+000  4.8160000e+001  2.2300000e+002
  4.8000000e+001  3.6120000e+001  0.0000000e+000
  1.0425810e+002  8.4280000e+001  0.0000000e+000
  8.8258099e+001  1.6856000e+002  4.0000000e+000
  0.0000000e+000  6.0200000e+001  3.0200000e+002
  4.0000000e+001  0.0000000e+000  2.0000000e+000
  1.1516480e+001  2.6488000e+002  2.4500000e+002
  0.0000000e+000  4.8160000e+001  2.4000000e+002
  0.0000000e+000  4.8160000e+001  2.6900000e+002
  2.4000000e+001  1.4448000e+002  0.0000000e+000
  7.2258099e+001  2.4080000e+001  1.2000000e+001
  0.0000000e+000  4.8160000e+001  2.3900000e+002
