  1.0535896e+002  1.6434000e+003  7.8900000e+002
  2.5142591e+002  4.2859200e+003  1.5050000e+003
  4.6360933e+002  7.3964000e+002  0.0000000e+000
  3.3589448e+002  2.7511200e+003  1.3810000e+003
  3.7720897e+002  3.6168000e+002  5.3000000e+001
  3.2806906e+002  5.7792000e+002  1.2000000e+001
  1.9180743e+002  4.9932000e+002  5.8100000e+002
  5.3870543e+002  1.6880000e+002  8.3200000e+002
  1.9781338e+002  2.2876000e+002  4.4000000e+001
  1.8618662e+002  1.4472000e+002  4.0900000e+002
  1.8400000e+002  1.8816000e+002  3.9600000e+002
  2.0000000e+002  1.6148000e+002  8.0000000e+001
  3.8847287e+002  2.7220000e+002  7.1000000e+001
  6.4000000e+001  1.7588000e+002  6.3000000e+001
  3.5320897e+002  3.6144000e+002  6.9000000e+001
  2.9376227e+002  1.5180000e+002  9.2000000e+001
  1.3563778e+002  1.9784000e+002  5.1000000e+001
  3.8597304e+002  1.6644000e+002  1.7400000e+002
  1.4400000e+002  2.6512000e+002  1.2000000e+001
  5.2855970e+002  4.7052000e+002  9.5900000e+002
