  0.0000000e+000  5.2490715e-003  2.1978022e-002
  0.0000000e+000  1.1102230e-016  2.9822926e-002
  0.0000000e+000  4.3318572e-003  0.0000000e+000
  0.0000000e+000  5.6168827e-003  9.4117647e-002
  0.0000000e+000  3.8407282e-003  7.3701843e-002
  0.0000000e+000  3.8934733e-003  0.0000000e+000
  0.0000000e+000  3.3695461e-003  0.0000000e+000
