  0.0000000e+000  4.3440000e+001  6.5000000e+001
  0.0000000e+000  2.7240891e+002  1.3700000e+002
  0.0000000e+000  6.0816000e+002  6.0000000e+001
  0.0000000e+000  8.0364000e+002  4.4000000e+001
  0.0000000e+000  6.2988000e+002  0.0000000e+000
  0.0000000e+000  4.7784000e+002  4.5000000e+001
  0.0000000e+000  0.0000000e+000  1.7900000e+002
  0.0000000e+000  7.1676000e+002  4.0000000e+001
  0.0000000e+000  5.0092000e+002  1.3400000e+002
  0.0000000e+000  4.5612000e+002  1.7800000e+002
  0.0000000e+000  6.2988000e+002  0.0000000e+000
  0.0000000e+000  6.4428000e+002  0.0000000e+000
