  8.6285600e-004  1.1102230e-016  2.3784168e-002
  1.1642067e-002  1.1102230e-016  1.6666667e-001
  1.3209646e-002  3.8201880e-004  7.4029708e-002
  3.4116635e-003  1.8024028e-004  0.0000000e+000
  8.3187515e-004  1.1102230e-016  4.9464138e-002
  1.8408588e-003  1.1102230e-016  2.4625268e-002
  2.7513960e-003  2.8248667e-005  0.0000000e+000
  3.9017684e-004  1.1102230e-016  4.6787969e-002
  5.0513756e-003  1.6329714e-004  1.0384615e+000
  9.6503614e-003  8.2522962e-005  6.1725395e-002
  2.9120655e-003  3.3306691e-016  4.7435190e-002
  4.7884002e-003  1.2921773e-004  6.6666667e-001
  3.1186562e-003  3.3306691e-016  5.5028854e-002
  9.1918066e-003  4.0540036e-004  8.8959492e-002
  5.3546654e-003  3.7072120e-004  1.1250000e+000
  7.1722632e-003  2.1504870e-004  1.0714286e+000
  1.0374037e-002  2.6914247e-004  1.1246040e-001
  9.7068849e-004  3.3306691e-016  3.1991175e-002
  7.9248903e-003  7.4705663e-005  3.0459770e-001
  5.5300365e-003  0.0000000e+000  7.2609209e-002
