  1.4854000e+004  7.0000614e+005  2.6200000e+002
  1.3774300e+004  6.8592694e+005  1.9730000e+003
  1.3681000e+004  6.7782337e+005  3.0860000e+003
  1.3474500e+004  6.8393958e+005  2.3100000e+003
  1.3498900e+004  6.7210744e+005  3.6090000e+003
  2.1411400e+004  7.4525289e+005  0.0000000e+000
  1.3545500e+004  6.7108286e+005  3.8270000e+003
  1.7017600e+004  7.1207009e+005  5.6000000e+001
  1.3483900e+004  6.7494932e+005  3.1340000e+003
  1.3420200e+004  6.7383881e+005  3.2650000e+003
  1.5416900e+004  6.9929230e+005  1.5300000e+002
  1.4321000e+004  6.9446969e+005  6.7300000e+002
  1.5116200e+004  6.9888520e+005  2.0100000e+002
  1.4339100e+004  6.9552245e+005  9.0000000e+002
  1.3582100e+004  6.8074713e+005  2.7230000e+003
  1.4511800e+004  6.9515254e+005  5.2000000e+002
  1.3657800e+004  6.8227085e+005  2.5740000e+003
  1.4183700e+004  6.9308013e+005  1.2040000e+003
