0.0 234512.0 37.0
30.805575 302547.8 34.0
35.304486 302506.72 38.0
0.0 173716.93 87.0
0.0 207427.5 36.0
0.0 250202.6 45.0
0.0 219777.36 41.0
0.0 275686.88 49.0
0.0 275686.88 47.0
0.0 207487.7 51.0
0.0 248393.71 38.0
0.0 234536.08 49.0
0.0 248369.63 39.0
0.0 207451.58 37.0
0.0 234548.12 48.0
