0.0 278144.25 3.0
0.0 284670.18 3.0
0.0 278144.25 3.0
0.0 233348.55 19.0
0.0 284432.22 3.0
0.0 194610.08 28.0
0.0 233264.27 11.0
0.0 190759.73 98.0
0.0 284396.1 3.0
0.0 193933.5 48.0
0.0 190803.17 92.0
0.0 278578.16 2.0
