%!PS-Adobe-2.0 EPSF-1.2
%%Creator: MATLAB, The Mathworks, Inc. Version 7.8.0.347 (R2009a). Operating System: Linux 3.13.0-30-generic #54-Ubuntu SMP Mon Jun 9 22:45:01 UTC 2014 i686.
%%Title: ./output/FP-fig.75_10_5_100_2.L.log.p3.txt.sch3-(75-500)-ejec1.fig.eps
%%CreationDate: 07/03/2014  14:56:55
%%DocumentNeededFonts: Helvetica
%%DocumentProcessColors: Cyan Magenta Yellow Black
%%Extensions: CMYK
%%Pages: 1
%%BoundingBox:   118   197   493   583
%%EndComments

%%BeginProlog
% MathWorks dictionary
/MathWorks 160 dict begin
% definition operators
/bdef {bind def} bind def
/ldef {load def} bind def
/xdef {exch def} bdef
/xstore {exch store} bdef
% operator abbreviations
/c  /clip ldef
/cc /concat ldef
/cp /closepath ldef
/gr /grestore ldef
/gs /gsave ldef
/mt /moveto ldef
/np /newpath ldef
/cm /currentmatrix ldef
/sm /setmatrix ldef
/rm /rmoveto ldef
/rl /rlineto ldef
/s {show newpath} bdef
/sc {setcmykcolor} bdef
/sr /setrgbcolor ldef
/sg /setgray ldef
/w /setlinewidth ldef
/j /setlinejoin ldef
/cap /setlinecap ldef
/rc {rectclip} bdef
/rf {rectfill} bdef
% page state control
/pgsv () def
/bpage {/pgsv save def} bdef
/epage {pgsv restore} bdef
/bplot /gsave ldef
/eplot {stroke grestore} bdef
% orientation switch
/portraitMode 0 def /landscapeMode 1 def /rotateMode 2 def
% coordinate system mappings
/dpi2point 0 def
% font control
/FontSize 0 def
/FMS {/FontSize xstore findfont [FontSize 0 0 FontSize neg 0 0]
  makefont setfont} bdef
/reencode {exch dup where {pop load} {pop StandardEncoding} ifelse
  exch dup 3 1 roll findfont dup length dict begin
  { 1 index /FID ne {def}{pop pop} ifelse } forall
  /Encoding exch def currentdict end definefont pop} bdef
/isroman {findfont /CharStrings get /Agrave known} bdef
/FMSR {3 1 roll 1 index dup isroman {reencode} {pop pop} ifelse
  exch FMS} bdef
/csm {1 dpi2point div -1 dpi2point div scale neg translate
 dup landscapeMode eq {pop -90 rotate}
  {rotateMode eq {90 rotate} if} ifelse} bdef
% line types: solid, dotted, dashed, dotdash
/SO { [] 0 setdash } bdef
/DO { [.5 dpi2point mul 4 dpi2point mul] 0 setdash } bdef
/DA { [6 dpi2point mul] 0 setdash } bdef
/DD { [.5 dpi2point mul 4 dpi2point mul 6 dpi2point mul 4
  dpi2point mul] 0 setdash } bdef
% macros for lines and objects
/L {lineto stroke} bdef
/MP {3 1 roll moveto 1 sub {rlineto} repeat} bdef
/AP {{rlineto} repeat} bdef
/PDlw -1 def
/W {/PDlw currentlinewidth def setlinewidth} def
/PP {closepath eofill} bdef
/DP {closepath stroke} bdef
/MR {4 -2 roll moveto dup  0 exch rlineto exch 0 rlineto
  neg 0 exch rlineto closepath} bdef
/FR {MR stroke} bdef
/PR {MR fill} bdef
/L1i {{currentfile picstr readhexstring pop} image} bdef
/tMatrix matrix def
/MakeOval {newpath tMatrix currentmatrix pop translate scale
0 0 1 0 360 arc tMatrix setmatrix} bdef
/FO {MakeOval stroke} bdef
/PO {MakeOval fill} bdef
/PD {currentlinewidth 2 div 0 360 arc fill
   PDlw -1 eq not {PDlw w /PDlw -1 def} if} def
/FA {newpath tMatrix currentmatrix pop translate scale
  0 0 1 5 -2 roll arc tMatrix setmatrix stroke} bdef
/PA {newpath tMatrix currentmatrix pop	translate 0 0 moveto scale
  0 0 1 5 -2 roll arc closepath tMatrix setmatrix fill} bdef
/FAn {newpath tMatrix currentmatrix pop translate scale
  0 0 1 5 -2 roll arcn tMatrix setmatrix stroke} bdef
/PAn {newpath tMatrix currentmatrix pop translate 0 0 moveto scale
  0 0 1 5 -2 roll arcn closepath tMatrix setmatrix fill} bdef
/vradius 0 def /hradius 0 def /lry 0 def
/lrx 0 def /uly 0 def /ulx 0 def /rad 0 def
/MRR {/vradius xdef /hradius xdef /lry xdef /lrx xdef /uly xdef
  /ulx xdef newpath tMatrix currentmatrix pop ulx hradius add uly
  vradius add translate hradius vradius scale 0 0 1 180 270 arc 
  tMatrix setmatrix lrx hradius sub uly vradius add translate
  hradius vradius scale 0 0 1 270 360 arc tMatrix setmatrix
  lrx hradius sub lry vradius sub translate hradius vradius scale
  0 0 1 0 90 arc tMatrix setmatrix ulx hradius add lry vradius sub
  translate hradius vradius scale 0 0 1 90 180 arc tMatrix setmatrix
  closepath} bdef
/FRR {MRR stroke } bdef
/PRR {MRR fill } bdef
/MlrRR {/lry xdef /lrx xdef /uly xdef /ulx xdef /rad lry uly sub 2 div def
  newpath tMatrix currentmatrix pop ulx rad add uly rad add translate
  rad rad scale 0 0 1 90 270 arc tMatrix setmatrix lrx rad sub lry rad
  sub translate rad rad scale 0 0 1 270 90 arc tMatrix setmatrix
  closepath} bdef
/FlrRR {MlrRR stroke } bdef
/PlrRR {MlrRR fill } bdef
/MtbRR {/lry xdef /lrx xdef /uly xdef /ulx xdef /rad lrx ulx sub 2 div def
  newpath tMatrix currentmatrix pop ulx rad add uly rad add translate
  rad rad scale 0 0 1 180 360 arc tMatrix setmatrix lrx rad sub lry rad
  sub translate rad rad scale 0 0 1 0 180 arc tMatrix setmatrix
  closepath} bdef
/FtbRR {MtbRR stroke } bdef
/PtbRR {MtbRR fill } bdef
/stri 6 array def /dtri 6 array def
/smat 6 array def /dmat 6 array def
/tmat1 6 array def /tmat2 6 array def /dif 3 array def
/asub {/ind2 exch def /ind1 exch def dup dup
  ind1 get exch ind2 get sub exch } bdef
/tri_to_matrix {
  2 0 asub 3 1 asub 4 0 asub 5 1 asub
  dup 0 get exch 1 get 7 -1 roll astore } bdef
/compute_transform {
  dmat dtri tri_to_matrix tmat1 invertmatrix 
  smat stri tri_to_matrix tmat2 concatmatrix } bdef
/ds {stri astore pop} bdef
/dt {dtri astore pop} bdef
/db {2 copy /cols xdef /rows xdef mul dup 3 mul string
  currentfile exch readhexstring pop
  dup 0 3 index getinterval /rbmap xdef
  dup 2 index dup getinterval /gbmap xdef
  1 index dup 2 mul exch getinterval /bbmap xdef pop pop}bdef
/it {gs np dtri aload pop moveto lineto lineto cp c
  cols rows 8 compute_transform 
  rbmap gbmap bbmap true 3 colorimage gr}bdef
/il {newpath moveto lineto stroke}bdef
currentdict end def
%%EndProlog

%%BeginSetup
MathWorks begin

0 cap

end
%%EndSetup

%%Page: 1 1
%%BeginPageSetup
%%PageBoundingBox:   118   197   493   583
MathWorks begin
bpage
%%EndPageSetup

%%BeginObject: obj1
bplot

/dpi2point 12 def
portraitMode 0216 7344 csm

 1208   341  4502  4634 MR c np
85 dict begin %Colortable dictionary
/c0 { 0.000000 0.000000 0.000000 sr} bdef
/c1 { 1.000000 1.000000 1.000000 sr} bdef
/c2 { 0.900000 0.000000 0.000000 sr} bdef
/c3 { 0.000000 0.820000 0.000000 sr} bdef
/c4 { 0.000000 0.000000 0.800000 sr} bdef
/c5 { 0.910000 0.820000 0.320000 sr} bdef
/c6 { 1.000000 0.260000 0.820000 sr} bdef
/c7 { 0.000000 0.820000 0.820000 sr} bdef
c0
1 j
1 sg
   0    0 6913 5186 PR
6 w
-2427 642 1210 1285 2427 -641 1758 3329 4 MP
PP
-1210 -1286 -2427 642 1210 1285 2427 -641 1758 3329 5 MP stroke
0 2299 2427 -641 0 -2299 1758 3329 4 MP
PP
-2427 641 0 2299 2427 -641 0 -2299 1758 3329 5 MP stroke
0 2299 1210 1285 0 -2299 4185 2688 4 MP
PP
-1210 -1285 0 2299 1210 1285 0 -2299 4185 2688 5 MP stroke
4 w
DO
0 sg
1758 3329 mt 4185 2688 L
4185 2688 mt 4185  389 L
2162 3757 mt 4588 3116 L
4588 3116 mt 4588  817 L
2565 4186 mt 4991 3545 L
4991 3545 mt 4991 1246 L
2968 4615 mt 5395 3973 L
5395 3973 mt 5395 1674 L
2968 4615 mt 1758 3329 L
1758 3329 mt 1758 1030 L
3777 4401 mt 2567 3115 L
2567 3115 mt 2567  816 L
4586 4187 mt 3376 2901 L
3376 2901 mt 3376  602 L
5395 3973 mt 4185 2688 L
4185 2688 mt 4185  389 L
1758 3329 mt 4185 2688 L
4185 2688 mt 5395 3973 L
1758 2946 mt 4185 2304 L
4185 2304 mt 5395 3590 L
1758 2562 mt 4185 1921 L
4185 1921 mt 5395 3207 L
1758 2179 mt 4185 1538 L
4185 1538 mt 5395 2824 L
1758 1796 mt 4185 1155 L
4185 1155 mt 5395 2441 L
1758 1413 mt 4185  772 L
4185  772 mt 5395 2057 L
1758 1030 mt 4185  389 L
4185  389 mt 5395 1674 L
SO
6 w
1758 3329 mt 2968 4615 L
2968 4615 mt 5395 3973 L
1758 3329 mt 1758 1030 L
1758 3329 mt 1698 3345 L
%%IncludeResource: font Helvetica
/Helvetica /ISOLatin1Encoding 120 FMSR

1531 3465 mt 
(20) s
2162 3757 mt 2101 3773 L
1935 3893 mt 
(30) s
2565 4186 mt 2504 4202 L
2338 4322 mt 
(40) s
2968 4615 mt 2908 4631 L
2741 4750 mt 
(50) s
2968 4615 mt 3011 4660 L
3035 4796 mt 
(0) s
3777 4401 mt 3820 4447 L
3844 4583 mt 
(50) s
4586 4187 mt 4629 4233 L
4652 4369 mt 
(100) s
5395 3973 mt 5438 4019 L
5461 4155 mt 
(150) s
1758 3329 mt 1715 3283 L
1626 3302 mt 
(0) s
1758 2946 mt 1715 2900 L
1492 2919 mt 
(500) s
1758 2562 mt 1715 2517 L
1426 2535 mt 
(1000) s
1758 2179 mt 1715 2133 L
1426 2152 mt 
(1500) s
1758 1796 mt 1715 1750 L
1426 1769 mt 
(2000) s
1758 1413 mt 1715 1367 L
1426 1386 mt 
(2500) s
1758 1030 mt 1715  984 L
1426 1003 mt 
(3000) s
4193 4923 mt 
(temperature profile) s
gs 1758 389 3638 4227 MR c np
gs 2626 1424 1593 3083 MR c np
/c8 { 0.000000 0.000000 1.000000 sr} bdef
c8
2749 1980 mt 2821 1980 L
2785 1944 mt 2785 2016 L
2760 1955 mt 2810 2005 L
2810 1955 mt 2760 2005 L
gr

c8
gs 2626 1424 1593 3083 MR c np
2742 3322 mt 2814 3322 L
2778 3286 mt 2778 3358 L
2753 3297 mt 2803 3347 L
2803 3297 mt 2753 3347 L
gr

gs 2626 1424 1593 3083 MR c np
2663 2217 mt 2735 2217 L
2699 2181 mt 2699 2253 L
2674 2192 mt 2724 2242 L
2724 2192 mt 2674 2242 L
gr

gs 2626 1424 1593 3083 MR c np
2798 2807 mt 2870 2807 L
2834 2771 mt 2834 2843 L
2809 2782 mt 2859 2832 L
2859 2782 mt 2809 2832 L
gr

gs 2626 1424 1593 3083 MR c np
2762 3496 mt 2834 3496 L
2798 3460 mt 2798 3532 L
2773 3471 mt 2823 3521 L
2823 3471 mt 2773 3521 L
gr

gs 2626 1424 1593 3083 MR c np
2767 1738 mt 2839 1738 L
2803 1702 mt 2803 1774 L
2778 1713 mt 2828 1763 L
2828 1713 mt 2778 1763 L
gr

gs 2626 1424 1593 3083 MR c np
2770 3327 mt 2842 3327 L
2806 3291 mt 2806 3363 L
2781 3302 mt 2831 3352 L
2831 3302 mt 2781 3352 L
gr

gs 2626 1424 1593 3083 MR c np
2992 4313 mt 3064 4313 L
3028 4277 mt 3028 4349 L
3003 4288 mt 3053 4338 L
3053 4288 mt 3003 4338 L
gr

gs 2626 1424 1593 3083 MR c np
2672 2053 mt 2744 2053 L
2708 2017 mt 2708 2089 L
2683 2028 mt 2733 2078 L
2733 2028 mt 2683 2078 L
gr

gs 2626 1424 1593 3083 MR c np
2698 2165 mt 2770 2165 L
2734 2129 mt 2734 2201 L
2709 2140 mt 2759 2190 L
2759 2140 mt 2709 2190 L
gr

gs 2626 1424 1593 3083 MR c np
2752 2265 mt 2824 2265 L
2788 2229 mt 2788 2301 L
2763 2240 mt 2813 2290 L
2813 2240 mt 2763 2290 L
gr

gs 2626 1424 1593 3083 MR c np
2772 2538 mt 2844 2538 L
2808 2502 mt 2808 2574 L
2783 2513 mt 2833 2563 L
2833 2513 mt 2783 2563 L
gr

gs 2626 1424 1593 3083 MR c np
2974 2603 mt 3046 2603 L
3010 2567 mt 3010 2639 L
2985 2578 mt 3035 2628 L
3035 2578 mt 2985 2628 L
gr

gs 2626 1424 1593 3083 MR c np
2891 2952 mt 2963 2952 L
2927 2916 mt 2927 2988 L
2902 2927 mt 2952 2977 L
2952 2927 mt 2902 2977 L
gr

gs 2626 1424 1593 3083 MR c np
2729 2616 mt 2801 2616 L
2765 2580 mt 2765 2652 L
2740 2591 mt 2790 2641 L
2790 2591 mt 2740 2641 L
gr

gs 2626 1424 1593 3083 MR c np
2730 3266 mt 2802 3266 L
2766 3230 mt 2766 3302 L
2741 3241 mt 2791 3291 L
2791 3241 mt 2741 3291 L
gr

gs 2626 1424 1593 3083 MR c np
2872 3690 mt 2944 3690 L
2908 3654 mt 2908 3726 L
2883 3665 mt 2933 3715 L
2933 3665 mt 2883 3715 L
gr

gs 2626 1424 1593 3083 MR c np
2795 2806 mt 2867 2806 L
2831 2770 mt 2831 2842 L
2806 2781 mt 2856 2831 L
2856 2781 mt 2806 2831 L
gr

gs 2626 1424 1593 3083 MR c np
2861 1844 mt 2933 1844 L
2897 1808 mt 2897 1880 L
2872 1819 mt 2922 1869 L
2922 1819 mt 2872 1869 L
gr

gs 2626 1424 1593 3083 MR c np
2864 2085 mt 2936 2085 L
2900 2049 mt 2900 2121 L
2875 2060 mt 2925 2110 L
2925 2060 mt 2875 2110 L
gr

gs 2626 1424 1593 3083 MR c np
2994 2257 mt 3066 2257 L
3030 2221 mt 3030 2293 L
3005 2232 mt 3055 2282 L
3055 2232 mt 3005 2282 L
gr

gs 2626 1424 1593 3083 MR c np
3018 2744 mt 3090 2744 L
3054 2708 mt 3054 2780 L
3029 2719 mt 3079 2769 L
3079 2719 mt 3029 2769 L
gr

gs 2626 1424 1593 3083 MR c np
3161 3011 mt 3233 3011 L
3197 2975 mt 3197 3047 L
3172 2986 mt 3222 3036 L
3222 2986 mt 3172 3036 L
gr

gs 2626 1424 1593 3083 MR c np
3901 3143 mt 3973 3143 L
3937 3107 mt 3937 3179 L
3912 3118 mt 3962 3168 L
3962 3118 mt 3912 3168 L
gr

gs 2626 1424 1593 3083 MR c np
3604 3302 mt 3676 3302 L
3640 3266 mt 3640 3338 L
3615 3277 mt 3665 3327 L
3665 3277 mt 3615 3327 L
gr

gs 2626 1424 1593 3083 MR c np
3473 3253 mt 3545 3253 L
3509 3217 mt 3509 3289 L
3484 3228 mt 3534 3278 L
3534 3228 mt 3484 3278 L
gr

gs 2626 1424 1593 3083 MR c np
3028 2956 mt 3100 2956 L
3064 2920 mt 3064 2992 L
3039 2931 mt 3089 2981 L
3089 2931 mt 3039 2981 L
gr

gs 2626 1424 1593 3083 MR c np
2925 1790 mt 2997 1790 L
2961 1754 mt 2961 1826 L
2936 1765 mt 2986 1815 L
2986 1765 mt 2936 1815 L
gr

gs 2626 1424 1593 3083 MR c np
3220 2963 mt 3292 2963 L
3256 2927 mt 3256 2999 L
3231 2938 mt 3281 2988 L
3281 2938 mt 3231 2988 L
gr

gs 2626 1424 1593 3083 MR c np
3119 3043 mt 3191 3043 L
3155 3007 mt 3155 3079 L
3130 3018 mt 3180 3068 L
3180 3018 mt 3130 3068 L
gr

gs 2626 1424 1593 3083 MR c np
2885 2777 mt 2957 2777 L
2921 2741 mt 2921 2813 L
2896 2752 mt 2946 2802 L
2946 2752 mt 2896 2802 L
gr

gs 2626 1424 1593 3083 MR c np
3292 3172 mt 3364 3172 L
3328 3136 mt 3328 3208 L
3303 3147 mt 3353 3197 L
3353 3147 mt 3303 3197 L
gr

gs 2626 1424 1593 3083 MR c np
3621 3123 mt 3693 3123 L
3657 3087 mt 3657 3159 L
3632 3098 mt 3682 3148 L
3682 3098 mt 3632 3148 L
gr

gs 2626 1424 1593 3083 MR c np
2871 3919 mt 2943 3919 L
2907 3883 mt 2907 3955 L
2882 3894 mt 2932 3944 L
2932 3894 mt 2882 3944 L
gr

gs 2626 1424 1593 3083 MR c np
3502 3345 mt 3574 3345 L
3538 3309 mt 3538 3381 L
3513 3320 mt 3563 3370 L
3563 3320 mt 3513 3370 L
gr

gs 2626 1424 1593 3083 MR c np
3619 3273 mt 3691 3273 L
3655 3237 mt 3655 3309 L
3630 3248 mt 3680 3298 L
3680 3248 mt 3630 3298 L
gr

gs 2626 1424 1593 3083 MR c np
3106 3996 mt 3178 3996 L
3142 3960 mt 3142 4032 L
3117 3971 mt 3167 4021 L
3167 3971 mt 3117 4021 L
gr

gs 2626 1424 1593 3083 MR c np
3845 3175 mt 3917 3175 L
3881 3139 mt 3881 3211 L
3856 3150 mt 3906 3200 L
3906 3150 mt 3856 3200 L
gr

gs 2626 1424 1593 3083 MR c np
2947 3626 mt 3019 3626 L
2983 3590 mt 2983 3662 L
2958 3601 mt 3008 3651 L
3008 3601 mt 2958 3651 L
gr

gs 2626 1424 1593 3083 MR c np
2844 3665 mt 2916 3665 L
2880 3629 mt 2880 3701 L
2855 3640 mt 2905 3690 L
2905 3640 mt 2855 3690 L
gr

gs 2626 1424 1593 3083 MR c np
2759 3249 mt 2831 3249 L
2795 3213 mt 2795 3285 L
2770 3224 mt 2820 3274 L
2820 3224 mt 2770 3274 L
gr

gs 2626 1424 1593 3083 MR c np
2761 1559 mt 2833 1559 L
2797 1523 mt 2797 1595 L
2772 1534 mt 2822 1584 L
2822 1534 mt 2772 1584 L
gr

gs 2626 1424 1593 3083 MR c np
2806 2072 mt 2878 2072 L
2842 2036 mt 2842 2108 L
2817 2047 mt 2867 2097 L
2867 2047 mt 2817 2097 L
gr

gs 2626 1424 1593 3083 MR c np
2672 1678 mt 2744 1678 L
2708 1642 mt 2708 1714 L
2683 1653 mt 2733 1703 L
2733 1653 mt 2683 1703 L
gr

gs 2626 1424 1593 3083 MR c np
2886 3716 mt 2958 3716 L
2922 3680 mt 2922 3752 L
2897 3691 mt 2947 3741 L
2947 3691 mt 2897 3741 L
gr

gs 2626 1424 1593 3083 MR c np
2885 3571 mt 2957 3571 L
2921 3535 mt 2921 3607 L
2896 3546 mt 2946 3596 L
2946 3546 mt 2896 3596 L
gr

gs 2626 1424 1593 3083 MR c np
3172 3881 mt 3244 3881 L
3208 3845 mt 3208 3917 L
3183 3856 mt 3233 3906 L
3233 3856 mt 3183 3906 L
gr

gs 2626 1424 1593 3083 MR c np
3958 3140 mt 4030 3140 L
3994 3104 mt 3994 3176 L
3969 3115 mt 4019 3165 L
4019 3115 mt 3969 3165 L
gr

gs 2626 1424 1593 3083 MR c np
4000 3102 mt 4072 3102 L
4036 3066 mt 4036 3138 L
4011 3077 mt 4061 3127 L
4061 3077 mt 4011 3127 L
gr

gs 2626 1424 1593 3083 MR c np
3042 4374 mt 3114 4374 L
3078 4338 mt 3078 4410 L
3053 4349 mt 3103 4399 L
3103 4349 mt 3053 4399 L
gr

gs 2626 1424 1593 3083 MR c np
2839 2385 mt 2911 2385 L
2875 2349 mt 2875 2421 L
2850 2360 mt 2900 2410 L
2900 2360 mt 2850 2410 L
gr

gs 2626 1424 1593 3083 MR c np
2836 2802 mt 2908 2802 L
2872 2766 mt 2872 2838 L
2847 2777 mt 2897 2827 L
2897 2777 mt 2847 2827 L
gr

gs 2626 1424 1593 3083 MR c np
2823 3474 mt 2895 3474 L
2859 3438 mt 2859 3510 L
2834 3449 mt 2884 3499 L
2884 3449 mt 2834 3499 L
gr

gs 2626 1424 1593 3083 MR c np
2860 1604 mt 2932 1604 L
2896 1568 mt 2896 1640 L
2871 1579 mt 2921 1629 L
2921 1579 mt 2871 1629 L
gr

gs 2626 1424 1593 3083 MR c np
4109 3056 mt 4181 3056 L
4145 3020 mt 4145 3092 L
4120 3031 mt 4170 3081 L
4170 3031 mt 4120 3081 L
gr

gs 2626 1424 1593 3083 MR c np
4066 3082 mt 4138 3082 L
4102 3046 mt 4102 3118 L
4077 3057 mt 4127 3107 L
4127 3057 mt 4077 3107 L
gr

gs 2626 1424 1593 3083 MR c np
3738 3137 mt 3810 3137 L
3774 3101 mt 3774 3173 L
3749 3112 mt 3799 3162 L
3799 3112 mt 3749 3162 L
gr

gs 2626 1424 1593 3083 MR c np
3135 2972 mt 3207 2972 L
3171 2936 mt 3171 3008 L
3146 2947 mt 3196 2997 L
3196 2947 mt 3146 2997 L
gr

gs 2626 1424 1593 3083 MR c np
3063 4433 mt 3135 4433 L
3099 4397 mt 3099 4469 L
3074 4408 mt 3124 4458 L
3124 4408 mt 3074 4458 L
gr

gs 2626 1424 1593 3083 MR c np
2997 4278 mt 3069 4278 L
3033 4242 mt 3033 4314 L
3008 4253 mt 3058 4303 L
3058 4253 mt 3008 4303 L
gr

gs 2626 1424 1593 3083 MR c np
2864 3817 mt 2936 3817 L
2900 3781 mt 2900 3853 L
2875 3792 mt 2925 3842 L
2925 3792 mt 2875 3842 L
gr

gs 2626 1424 1593 3083 MR c np
2849 3373 mt 2921 3373 L
2885 3337 mt 2885 3409 L
2860 3348 mt 2910 3398 L
2910 3348 mt 2860 3398 L
gr

gs 2626 1424 1593 3083 MR c np
2844 3706 mt 2916 3706 L
2880 3670 mt 2880 3742 L
2855 3681 mt 2905 3731 L
2905 3681 mt 2855 3731 L
gr

gs 2626 1424 1593 3083 MR c np
2830 2339 mt 2902 2339 L
2866 2303 mt 2866 2375 L
2841 2314 mt 2891 2364 L
2891 2314 mt 2841 2364 L
gr

gs 2626 1424 1593 3083 MR c np
2817 3168 mt 2889 3168 L
2853 3132 mt 2853 3204 L
2828 3143 mt 2878 3193 L
2878 3143 mt 2828 3193 L
gr

gs 2626 1424 1593 3083 MR c np
2808 2130 mt 2880 2130 L
2844 2094 mt 2844 2166 L
2819 2105 mt 2869 2155 L
2869 2105 mt 2819 2155 L
gr

gs 2626 1424 1593 3083 MR c np
2777 3476 mt 2849 3476 L
2813 3440 mt 2813 3512 L
2788 3451 mt 2838 3501 L
2838 3451 mt 2788 3501 L
gr

gs 2626 1424 1593 3083 MR c np
2771 2980 mt 2843 2980 L
2807 2944 mt 2807 3016 L
2782 2955 mt 2832 3005 L
2832 2955 mt 2782 3005 L
gr

gs 2626 1424 1593 3083 MR c np
2744 3465 mt 2816 3465 L
2780 3429 mt 2780 3501 L
2755 3440 mt 2805 3490 L
2805 3440 mt 2755 3490 L
gr

gs 2626 1424 1593 3083 MR c np
2724 2367 mt 2796 2367 L
2760 2331 mt 2760 2403 L
2735 2342 mt 2785 2392 L
2785 2342 mt 2735 2392 L
gr

gs 2626 1424 1593 3083 MR c np
2724 2952 mt 2796 2952 L
2760 2916 mt 2760 2988 L
2735 2927 mt 2785 2977 L
2785 2927 mt 2735 2977 L
gr

gs 2626 1424 1593 3083 MR c np
2711 2913 mt 2783 2913 L
2747 2877 mt 2747 2949 L
2722 2888 mt 2772 2938 L
2772 2888 mt 2722 2938 L
gr

gs 2626 1424 1593 3083 MR c np
2666 2710 mt 2738 2710 L
2702 2674 mt 2702 2746 L
2677 2685 mt 2727 2735 L
2727 2685 mt 2677 2735 L
gr

gs 2626 1424 1593 3083 MR c np
2707 1984 mt 2779 1984 L
2743 1948 mt 2743 2020 L
2718 1959 mt 2768 2009 L
2768 1959 mt 2718 2009 L
gr

gs 2626 1424 1593 3083 MR c np
2707 1497 mt 2779 1497 L
2743 1461 mt 2743 1533 L
2718 1472 mt 2768 1522 L
2768 1472 mt 2718 1522 L
gr

gr

c8
0 sg
1688 4914 mt 
(power profile) s
1344 2850 mt  -90 rotate
(QoS \(deadline violations\)) s
90 rotate

end %%Color Dict

eplot
%%EndObject

epage
end

showpage

%%Trailer
%%EOF
