%!PS-Adobe-2.0 EPSF-1.2
%%Creator: MATLAB, The Mathworks, Inc. Version 7.8.0.347 (R2009a). Operating System: Linux 3.13.0-30-generic #54-Ubuntu SMP Mon Jun 9 22:45:01 UTC 2014 i686.
%%Title: ./output/FP-fig.75_10_5_100_2.L.log.p2.txt.sch3-(75-500)-ejec1.fig.eps
%%CreationDate: 07/03/2014  14:56:54
%%DocumentNeededFonts: Helvetica
%%DocumentProcessColors: Cyan Magenta Yellow Black
%%Extensions: CMYK
%%Pages: 1
%%BoundingBox:   124   197   493   583
%%EndComments

%%BeginProlog
% MathWorks dictionary
/MathWorks 160 dict begin
% definition operators
/bdef {bind def} bind def
/ldef {load def} bind def
/xdef {exch def} bdef
/xstore {exch store} bdef
% operator abbreviations
/c  /clip ldef
/cc /concat ldef
/cp /closepath ldef
/gr /grestore ldef
/gs /gsave ldef
/mt /moveto ldef
/np /newpath ldef
/cm /currentmatrix ldef
/sm /setmatrix ldef
/rm /rmoveto ldef
/rl /rlineto ldef
/s {show newpath} bdef
/sc {setcmykcolor} bdef
/sr /setrgbcolor ldef
/sg /setgray ldef
/w /setlinewidth ldef
/j /setlinejoin ldef
/cap /setlinecap ldef
/rc {rectclip} bdef
/rf {rectfill} bdef
% page state control
/pgsv () def
/bpage {/pgsv save def} bdef
/epage {pgsv restore} bdef
/bplot /gsave ldef
/eplot {stroke grestore} bdef
% orientation switch
/portraitMode 0 def /landscapeMode 1 def /rotateMode 2 def
% coordinate system mappings
/dpi2point 0 def
% font control
/FontSize 0 def
/FMS {/FontSize xstore findfont [FontSize 0 0 FontSize neg 0 0]
  makefont setfont} bdef
/reencode {exch dup where {pop load} {pop StandardEncoding} ifelse
  exch dup 3 1 roll findfont dup length dict begin
  { 1 index /FID ne {def}{pop pop} ifelse } forall
  /Encoding exch def currentdict end definefont pop} bdef
/isroman {findfont /CharStrings get /Agrave known} bdef
/FMSR {3 1 roll 1 index dup isroman {reencode} {pop pop} ifelse
  exch FMS} bdef
/csm {1 dpi2point div -1 dpi2point div scale neg translate
 dup landscapeMode eq {pop -90 rotate}
  {rotateMode eq {90 rotate} if} ifelse} bdef
% line types: solid, dotted, dashed, dotdash
/SO { [] 0 setdash } bdef
/DO { [.5 dpi2point mul 4 dpi2point mul] 0 setdash } bdef
/DA { [6 dpi2point mul] 0 setdash } bdef
/DD { [.5 dpi2point mul 4 dpi2point mul 6 dpi2point mul 4
  dpi2point mul] 0 setdash } bdef
% macros for lines and objects
/L {lineto stroke} bdef
/MP {3 1 roll moveto 1 sub {rlineto} repeat} bdef
/AP {{rlineto} repeat} bdef
/PDlw -1 def
/W {/PDlw currentlinewidth def setlinewidth} def
/PP {closepath eofill} bdef
/DP {closepath stroke} bdef
/MR {4 -2 roll moveto dup  0 exch rlineto exch 0 rlineto
  neg 0 exch rlineto closepath} bdef
/FR {MR stroke} bdef
/PR {MR fill} bdef
/L1i {{currentfile picstr readhexstring pop} image} bdef
/tMatrix matrix def
/MakeOval {newpath tMatrix currentmatrix pop translate scale
0 0 1 0 360 arc tMatrix setmatrix} bdef
/FO {MakeOval stroke} bdef
/PO {MakeOval fill} bdef
/PD {currentlinewidth 2 div 0 360 arc fill
   PDlw -1 eq not {PDlw w /PDlw -1 def} if} def
/FA {newpath tMatrix currentmatrix pop translate scale
  0 0 1 5 -2 roll arc tMatrix setmatrix stroke} bdef
/PA {newpath tMatrix currentmatrix pop	translate 0 0 moveto scale
  0 0 1 5 -2 roll arc closepath tMatrix setmatrix fill} bdef
/FAn {newpath tMatrix currentmatrix pop translate scale
  0 0 1 5 -2 roll arcn tMatrix setmatrix stroke} bdef
/PAn {newpath tMatrix currentmatrix pop translate 0 0 moveto scale
  0 0 1 5 -2 roll arcn closepath tMatrix setmatrix fill} bdef
/vradius 0 def /hradius 0 def /lry 0 def
/lrx 0 def /uly 0 def /ulx 0 def /rad 0 def
/MRR {/vradius xdef /hradius xdef /lry xdef /lrx xdef /uly xdef
  /ulx xdef newpath tMatrix currentmatrix pop ulx hradius add uly
  vradius add translate hradius vradius scale 0 0 1 180 270 arc 
  tMatrix setmatrix lrx hradius sub uly vradius add translate
  hradius vradius scale 0 0 1 270 360 arc tMatrix setmatrix
  lrx hradius sub lry vradius sub translate hradius vradius scale
  0 0 1 0 90 arc tMatrix setmatrix ulx hradius add lry vradius sub
  translate hradius vradius scale 0 0 1 90 180 arc tMatrix setmatrix
  closepath} bdef
/FRR {MRR stroke } bdef
/PRR {MRR fill } bdef
/MlrRR {/lry xdef /lrx xdef /uly xdef /ulx xdef /rad lry uly sub 2 div def
  newpath tMatrix currentmatrix pop ulx rad add uly rad add translate
  rad rad scale 0 0 1 90 270 arc tMatrix setmatrix lrx rad sub lry rad
  sub translate rad rad scale 0 0 1 270 90 arc tMatrix setmatrix
  closepath} bdef
/FlrRR {MlrRR stroke } bdef
/PlrRR {MlrRR fill } bdef
/MtbRR {/lry xdef /lrx xdef /uly xdef /ulx xdef /rad lrx ulx sub 2 div def
  newpath tMatrix currentmatrix pop ulx rad add uly rad add translate
  rad rad scale 0 0 1 180 360 arc tMatrix setmatrix lrx rad sub lry rad
  sub translate rad rad scale 0 0 1 0 180 arc tMatrix setmatrix
  closepath} bdef
/FtbRR {MtbRR stroke } bdef
/PtbRR {MtbRR fill } bdef
/stri 6 array def /dtri 6 array def
/smat 6 array def /dmat 6 array def
/tmat1 6 array def /tmat2 6 array def /dif 3 array def
/asub {/ind2 exch def /ind1 exch def dup dup
  ind1 get exch ind2 get sub exch } bdef
/tri_to_matrix {
  2 0 asub 3 1 asub 4 0 asub 5 1 asub
  dup 0 get exch 1 get 7 -1 roll astore } bdef
/compute_transform {
  dmat dtri tri_to_matrix tmat1 invertmatrix 
  smat stri tri_to_matrix tmat2 concatmatrix } bdef
/ds {stri astore pop} bdef
/dt {dtri astore pop} bdef
/db {2 copy /cols xdef /rows xdef mul dup 3 mul string
  currentfile exch readhexstring pop
  dup 0 3 index getinterval /rbmap xdef
  dup 2 index dup getinterval /gbmap xdef
  1 index dup 2 mul exch getinterval /bbmap xdef pop pop}bdef
/it {gs np dtri aload pop moveto lineto lineto cp c
  cols rows 8 compute_transform 
  rbmap gbmap bbmap true 3 colorimage gr}bdef
/il {newpath moveto lineto stroke}bdef
currentdict end def
%%EndProlog

%%BeginSetup
MathWorks begin

0 cap

end
%%EndSetup

%%Page: 1 1
%%BeginPageSetup
%%PageBoundingBox:   124   197   493   583
MathWorks begin
bpage
%%EndPageSetup

%%BeginObject: obj1
bplot

/dpi2point 12 def
portraitMode 0216 7344 csm

 1274   340  4436  4635 MR c np
85 dict begin %Colortable dictionary
/c0 { 0.000000 0.000000 0.000000 sr} bdef
/c1 { 1.000000 1.000000 1.000000 sr} bdef
/c2 { 0.900000 0.000000 0.000000 sr} bdef
/c3 { 0.000000 0.820000 0.000000 sr} bdef
/c4 { 0.000000 0.000000 0.800000 sr} bdef
/c5 { 0.910000 0.820000 0.320000 sr} bdef
/c6 { 1.000000 0.260000 0.820000 sr} bdef
/c7 { 0.000000 0.820000 0.820000 sr} bdef
c0
1 j
1 sg
   0    0 6913 5186 PR
6 w
-2427 641 1210 1285 2427 -641 1758 3329 4 MP
PP
-1210 -1285 -2427 641 1210 1285 2427 -641 1758 3329 5 MP stroke
0 2299 2427 -641 0 -2299 1758 3329 4 MP
PP
-2427 641 0 2299 2427 -641 0 -2299 1758 3329 5 MP stroke
0 2299 1210 1285 0 -2299 4185 2688 4 MP
PP
-1210 -1285 0 2299 1210 1285 0 -2299 4185 2688 5 MP stroke
4 w
DO
0 sg
1758 3329 mt 4185 2688 L
4185 2688 mt 4185  389 L
2000 3586 mt 4427 2945 L
4427 2945 mt 4427  646 L
2242 3843 mt 4669 3202 L
4669 3202 mt 4669  903 L
2484 4100 mt 4911 3459 L
4911 3459 mt 4911 1160 L
2726 4357 mt 5153 3716 L
5153 3716 mt 5153 1417 L
2968 4614 mt 5395 3973 L
5395 3973 mt 5395 1674 L
2968 4614 mt 1758 3329 L
1758 3329 mt 1758 1030 L
3575 4454 mt 2365 3168 L
2365 3168 mt 2365  869 L
4181 4294 mt 2972 3008 L
2972 3008 mt 2972  709 L
4788 4134 mt 3578 2848 L
3578 2848 mt 3578  549 L
5395 3973 mt 4185 2688 L
4185 2688 mt 4185  389 L
1758 3329 mt 4185 2688 L
4185 2688 mt 5395 3973 L
1758 3041 mt 4185 2400 L
4185 2400 mt 5395 3686 L
1758 2754 mt 4185 2113 L
4185 2113 mt 5395 3399 L
1758 2467 mt 4185 1825 L
4185 1825 mt 5395 3111 L
1758 2179 mt 4185 1538 L
4185 1538 mt 5395 2824 L
1758 1892 mt 4185 1251 L
4185 1251 mt 5395 2536 L
1758 1604 mt 4185  963 L
4185  963 mt 5395 2249 L
1758 1317 mt 4185  676 L
4185  676 mt 5395 1962 L
1758 1030 mt 4185  389 L
4185  389 mt 5395 1674 L
SO
6 w
1758 3329 mt 2968 4614 L
2968 4614 mt 5395 3973 L
1758 3329 mt 1758 1030 L
1758 3329 mt 1698 3345 L
%%IncludeResource: font Helvetica
/Helvetica /ISOLatin1Encoding 120 FMSR

1531 3465 mt 
(20) s
2000 3586 mt 1940 3602 L
1773 3722 mt 
(25) s
2242 3843 mt 2182 3859 L
2015 3979 mt 
(30) s
2484 4100 mt 2424 4116 L
2257 4236 mt 
(35) s
2726 4357 mt 2666 4373 L
2499 4493 mt 
(40) s
2968 4614 mt 2908 4631 L
2741 4750 mt 
(45) s
2968 4614 mt 3011 4660 L
3035 4796 mt 
(0) s
3575 4454 mt 3618 4500 L
3641 4636 mt 
(50) s
4181 4294 mt 4224 4340 L
4248 4476 mt 
(100) s
4788 4134 mt 4831 4179 L
4855 4316 mt 
(150) s
5395 3973 mt 5438 4019 L
5461 4155 mt 
(200) s
1758 3329 mt 1715 3283 L
1626 3302 mt 
(0) s
1758 3041 mt 1715 2996 L
1492 3014 mt 
(100) s
1758 2754 mt 1715 2708 L
1492 2727 mt 
(200) s
1758 2467 mt 1715 2421 L
1492 2440 mt 
(300) s
1758 2179 mt 1715 2133 L
1492 2152 mt 
(400) s
1758 1892 mt 1715 1846 L
1492 1865 mt 
(500) s
1758 1604 mt 1715 1559 L
1492 1577 mt 
(600) s
1758 1317 mt 1715 1271 L
1492 1290 mt 
(700) s
1758 1030 mt 1715  984 L
1492 1003 mt 
(800) s
gs 1758 388 3638 4227 MR c np
gs 2635 1984 1659 2547 MR c np
/c8 { 0.000000 0.000000 1.000000 sr} bdef
c8
4184 2946 mt 4256 2946 L
4220 2910 mt 4220 2982 L
4195 2921 mt 4245 2971 L
4245 2921 mt 4195 2971 L
gr

c8
gs 2635 1984 1659 2547 MR c np
2864 2597 mt 2936 2597 L
2900 2561 mt 2900 2633 L
2875 2572 mt 2925 2622 L
2925 2572 mt 2875 2622 L
gr

gs 2635 1984 1659 2547 MR c np
2992 3445 mt 3064 3445 L
3028 3409 mt 3028 3481 L
3003 3420 mt 3053 3470 L
3053 3420 mt 3003 3470 L
gr

gs 2635 1984 1659 2547 MR c np
3213 2769 mt 3285 2769 L
3249 2733 mt 3249 2805 L
3224 2744 mt 3274 2794 L
3274 2744 mt 3224 2794 L
gr

gs 2635 1984 1659 2547 MR c np
3002 2715 mt 3074 2715 L
3038 2679 mt 3038 2751 L
3013 2690 mt 3063 2740 L
3063 2690 mt 3013 2740 L
gr

gs 2635 1984 1659 2547 MR c np
2874 2945 mt 2946 2945 L
2910 2909 mt 2910 2981 L
2885 2920 mt 2935 2970 L
2935 2920 mt 2885 2970 L
gr

gs 2635 1984 1659 2547 MR c np
3158 3577 mt 3230 3577 L
3194 3541 mt 3194 3613 L
3169 3552 mt 3219 3602 L
3219 3552 mt 3169 3602 L
gr

gs 2635 1984 1659 2547 MR c np
3244 3608 mt 3316 3608 L
3280 3572 mt 3280 3644 L
3255 3583 mt 3305 3633 L
3305 3583 mt 3255 3633 L
gr

gs 2635 1984 1659 2547 MR c np
3504 3079 mt 3576 3079 L
3540 3043 mt 3540 3115 L
3515 3054 mt 3565 3104 L
3565 3054 mt 3515 3104 L
gr

gs 2635 1984 1659 2547 MR c np
2672 2748 mt 2744 2748 L
2708 2712 mt 2708 2784 L
2683 2723 mt 2733 2773 L
2733 2723 mt 2683 2773 L
gr

gs 2635 1984 1659 2547 MR c np
2805 3077 mt 2877 3077 L
2841 3041 mt 2841 3113 L
2816 3052 mt 2866 3102 L
2866 3052 mt 2816 3102 L
gr

gs 2635 1984 1659 2547 MR c np
3171 2748 mt 3243 2748 L
3207 2712 mt 3207 2784 L
3182 2723 mt 3232 2773 L
3232 2723 mt 3182 2773 L
gr

gs 2635 1984 1659 2547 MR c np
2788 2546 mt 2860 2546 L
2824 2510 mt 2824 2582 L
2799 2521 mt 2849 2571 L
2849 2521 mt 2799 2571 L
gr

gs 2635 1984 1659 2547 MR c np
2950 2767 mt 3022 2767 L
2986 2731 mt 2986 2803 L
2961 2742 mt 3011 2792 L
3011 2742 mt 2961 2792 L
gr

gs 2635 1984 1659 2547 MR c np
2776 4183 mt 2848 4183 L
2812 4147 mt 2812 4219 L
2787 4158 mt 2837 4208 L
2837 4158 mt 2787 4208 L
gr

gs 2635 1984 1659 2547 MR c np
2785 2890 mt 2857 2890 L
2821 2854 mt 2821 2926 L
2796 2865 mt 2846 2915 L
2846 2865 mt 2796 2915 L
gr

gs 2635 1984 1659 2547 MR c np
2834 2768 mt 2906 2768 L
2870 2732 mt 2870 2804 L
2845 2743 mt 2895 2793 L
2895 2743 mt 2845 2793 L
gr

gs 2635 1984 1659 2547 MR c np
2857 2460 mt 2929 2460 L
2893 2424 mt 2893 2496 L
2868 2435 mt 2918 2485 L
2918 2435 mt 2868 2485 L
gr

gs 2635 1984 1659 2547 MR c np
2740 2335 mt 2812 2335 L
2776 2299 mt 2776 2371 L
2751 2310 mt 2801 2360 L
2801 2310 mt 2751 2360 L
gr

gs 2635 1984 1659 2547 MR c np
3102 2057 mt 3174 2057 L
3138 2021 mt 3138 2093 L
3113 2032 mt 3163 2082 L
3163 2032 mt 3113 2082 L
gr

gs 2635 1984 1659 2547 MR c np
3527 3358 mt 3599 3358 L
3563 3322 mt 3563 3394 L
3538 3333 mt 3588 3383 L
3588 3333 mt 3538 3383 L
gr

gs 2635 1984 1659 2547 MR c np
3948 3134 mt 4020 3134 L
3984 3098 mt 3984 3170 L
3959 3109 mt 4009 3159 L
4009 3109 mt 3959 3159 L
gr

gs 2635 1984 1659 2547 MR c np
3142 3600 mt 3214 3600 L
3178 3564 mt 3178 3636 L
3153 3575 mt 3203 3625 L
3203 3575 mt 3153 3625 L
gr

gs 2635 1984 1659 2547 MR c np
2991 3294 mt 3063 3294 L
3027 3258 mt 3027 3330 L
3002 3269 mt 3052 3319 L
3052 3269 mt 3002 3319 L
gr

gs 2635 1984 1659 2547 MR c np
3160 2857 mt 3232 2857 L
3196 2821 mt 3196 2893 L
3171 2832 mt 3221 2882 L
3221 2832 mt 3171 2882 L
gr

gs 2635 1984 1659 2547 MR c np
2787 3184 mt 2859 3184 L
2823 3148 mt 2823 3220 L
2798 3159 mt 2848 3209 L
2848 3159 mt 2798 3209 L
gr

gs 2635 1984 1659 2547 MR c np
3587 2692 mt 3659 2692 L
3623 2656 mt 3623 2728 L
3598 2667 mt 3648 2717 L
3648 2667 mt 3598 2717 L
gr

gs 2635 1984 1659 2547 MR c np
3638 2402 mt 3710 2402 L
3674 2366 mt 3674 2438 L
3649 2377 mt 3699 2427 L
3699 2377 mt 3649 2427 L
gr

gs 2635 1984 1659 2547 MR c np
3655 2559 mt 3727 2559 L
3691 2523 mt 3691 2595 L
3666 2534 mt 3716 2584 L
3716 2534 mt 3666 2584 L
gr

gs 2635 1984 1659 2547 MR c np
2995 2900 mt 3067 2900 L
3031 2864 mt 3031 2936 L
3006 2875 mt 3056 2925 L
3056 2875 mt 3006 2925 L
gr

gs 2635 1984 1659 2547 MR c np
3196 3222 mt 3268 3222 L
3232 3186 mt 3232 3258 L
3207 3197 mt 3257 3247 L
3257 3197 mt 3207 3247 L
gr

gs 2635 1984 1659 2547 MR c np
3872 2926 mt 3944 2926 L
3908 2890 mt 3908 2962 L
3883 2901 mt 3933 2951 L
3933 2901 mt 3883 2951 L
gr

gs 2635 1984 1659 2547 MR c np
3176 3755 mt 3248 3755 L
3212 3719 mt 3212 3791 L
3187 3730 mt 3237 3780 L
3237 3730 mt 3187 3780 L
gr

gs 2635 1984 1659 2547 MR c np
3638 2402 mt 3710 2402 L
3674 2366 mt 3674 2438 L
3649 2377 mt 3699 2427 L
3699 2377 mt 3649 2427 L
gr

gs 2635 1984 1659 2547 MR c np
3441 2774 mt 3513 2774 L
3477 2738 mt 3477 2810 L
3452 2749 mt 3502 2799 L
3502 2749 mt 3452 2799 L
gr

gs 2635 1984 1659 2547 MR c np
2879 2665 mt 2951 2665 L
2915 2629 mt 2915 2701 L
2890 2640 mt 2940 2690 L
2940 2640 mt 2890 2690 L
gr

gs 2635 1984 1659 2547 MR c np
3332 3323 mt 3404 3323 L
3368 3287 mt 3368 3359 L
3343 3298 mt 3393 3348 L
3393 3298 mt 3343 3348 L
gr

gs 2635 1984 1659 2547 MR c np
3427 3399 mt 3499 3399 L
3463 3363 mt 3463 3435 L
3438 3374 mt 3488 3424 L
3488 3374 mt 3438 3424 L
gr

gs 2635 1984 1659 2547 MR c np
3742 2523 mt 3814 2523 L
3778 2487 mt 3778 2559 L
3753 2498 mt 3803 2548 L
3803 2498 mt 3753 2548 L
gr

gs 2635 1984 1659 2547 MR c np
3799 2561 mt 3871 2561 L
3835 2525 mt 3835 2597 L
3810 2536 mt 3860 2586 L
3860 2536 mt 3810 2586 L
gr

gs 2635 1984 1659 2547 MR c np
2922 2426 mt 2994 2426 L
2958 2390 mt 2958 2462 L
2933 2401 mt 2983 2451 L
2983 2401 mt 2933 2451 L
gr

gs 2635 1984 1659 2547 MR c np
3522 2135 mt 3594 2135 L
3558 2099 mt 3558 2171 L
3533 2110 mt 3583 2160 L
3583 2110 mt 3533 2160 L
gr

gs 2635 1984 1659 2547 MR c np
2917 2398 mt 2989 2398 L
2953 2362 mt 2953 2434 L
2928 2373 mt 2978 2423 L
2978 2373 mt 2928 2423 L
gr

gs 2635 1984 1659 2547 MR c np
3034 4209 mt 3106 4209 L
3070 4173 mt 3070 4245 L
3045 4184 mt 3095 4234 L
3095 4184 mt 3045 4234 L
gr

gs 2635 1984 1659 2547 MR c np
4042 3099 mt 4114 3099 L
4078 3063 mt 4078 3135 L
4053 3074 mt 4103 3124 L
4103 3074 mt 4053 3124 L
gr

gs 2635 1984 1659 2547 MR c np
3955 2486 mt 4027 2486 L
3991 2450 mt 3991 2522 L
3966 2461 mt 4016 2511 L
4016 2461 mt 3966 2511 L
gr

gs 2635 1984 1659 2547 MR c np
4042 3099 mt 4114 3099 L
4078 3063 mt 4078 3135 L
4053 3074 mt 4103 3124 L
4103 3074 mt 4053 3124 L
gr

gs 2635 1984 1659 2547 MR c np
4179 2977 mt 4251 2977 L
4215 2941 mt 4215 3013 L
4190 2952 mt 4240 3002 L
4240 2952 mt 4190 3002 L
gr

gr

c8
0 sg
4193 4923 mt 
(temperature profile) s
gs 1758 388 3638 4227 MR c np
gs 2635 1984 1659 2547 MR c np
c8
3945 2511 mt 4017 2511 L
3981 2475 mt 3981 2547 L
3956 2486 mt 4006 2536 L
4006 2486 mt 3956 2536 L
gr

c8
gs 2635 1984 1659 2547 MR c np
3816 3198 mt 3888 3198 L
3852 3162 mt 3852 3234 L
3827 3173 mt 3877 3223 L
3877 3173 mt 3827 3223 L
gr

gs 2635 1984 1659 2547 MR c np
2944 3484 mt 3016 3484 L
2980 3448 mt 2980 3520 L
2955 3459 mt 3005 3509 L
3005 3459 mt 2955 3509 L
gr

gs 2635 1984 1659 2547 MR c np
3050 3623 mt 3122 3623 L
3086 3587 mt 3086 3659 L
3061 3598 mt 3111 3648 L
3111 3598 mt 3061 3648 L
gr

gs 2635 1984 1659 2547 MR c np
3067 4457 mt 3139 4457 L
3103 4421 mt 3103 4493 L
3078 4432 mt 3128 4482 L
3128 4432 mt 3078 4482 L
gr

gs 2635 1984 1659 2547 MR c np
3027 3598 mt 3099 3598 L
3063 3562 mt 3063 3634 L
3038 3573 mt 3088 3623 L
3088 3573 mt 3038 3623 L
gr

gs 2635 1984 1659 2547 MR c np
2970 4140 mt 3042 4140 L
3006 4104 mt 3006 4176 L
2981 4115 mt 3031 4165 L
3031 4115 mt 2981 4165 L
gr

gs 2635 1984 1659 2547 MR c np
2917 2398 mt 2989 2398 L
2953 2362 mt 2953 2434 L
2928 2373 mt 2978 2423 L
2978 2373 mt 2928 2423 L
gr

gs 2635 1984 1659 2547 MR c np
2780 2836 mt 2852 2836 L
2816 2800 mt 2816 2872 L
2791 2811 mt 2841 2861 L
2841 2811 mt 2791 2861 L
gr

gs 2635 1984 1659 2547 MR c np
2901 2949 mt 2973 2949 L
2937 2913 mt 2937 2985 L
2912 2924 mt 2962 2974 L
2962 2924 mt 2912 2974 L
gr

gs 2635 1984 1659 2547 MR c np
2873 3854 mt 2945 3854 L
2909 3818 mt 2909 3890 L
2884 3829 mt 2934 3879 L
2934 3829 mt 2884 3879 L
gr

gs 2635 1984 1659 2547 MR c np
2782 3655 mt 2854 3655 L
2818 3619 mt 2818 3691 L
2793 3630 mt 2843 3680 L
2843 3630 mt 2793 3680 L
gr

gs 2635 1984 1659 2547 MR c np
2795 2909 mt 2867 2909 L
2831 2873 mt 2831 2945 L
2806 2884 mt 2856 2934 L
2856 2884 mt 2806 2934 L
gr

gs 2635 1984 1659 2547 MR c np
2837 2757 mt 2909 2757 L
2873 2721 mt 2873 2793 L
2848 2732 mt 2898 2782 L
2898 2732 mt 2848 2782 L
gr

gs 2635 1984 1659 2547 MR c np
2837 2757 mt 2909 2757 L
2873 2721 mt 2873 2793 L
2848 2732 mt 2898 2782 L
2898 2732 mt 2848 2782 L
gr

gs 2635 1984 1659 2547 MR c np
2823 3163 mt 2895 3163 L
2859 3127 mt 2859 3199 L
2834 3138 mt 2884 3188 L
2884 3138 mt 2834 3188 L
gr

gs 2635 1984 1659 2547 MR c np
2804 2885 mt 2876 2885 L
2840 2849 mt 2840 2921 L
2815 2860 mt 2865 2910 L
2865 2860 mt 2815 2910 L
gr

gs 2635 1984 1659 2547 MR c np
2795 3446 mt 2867 3446 L
2831 3410 mt 2831 3482 L
2806 3421 mt 2856 3471 L
2856 3421 mt 2806 3471 L
gr

gs 2635 1984 1659 2547 MR c np
2780 2393 mt 2852 2393 L
2816 2357 mt 2816 2429 L
2791 2368 mt 2841 2418 L
2841 2368 mt 2791 2418 L
gr

gs 2635 1984 1659 2547 MR c np
2780 2591 mt 2852 2591 L
2816 2555 mt 2816 2627 L
2791 2566 mt 2841 2616 L
2841 2566 mt 2791 2616 L
gr

gs 2635 1984 1659 2547 MR c np
2779 3745 mt 2851 3745 L
2815 3709 mt 2815 3781 L
2790 3720 mt 2840 3770 L
2840 3720 mt 2790 3770 L
gr

gs 2635 1984 1659 2547 MR c np
2779 2564 mt 2851 2564 L
2815 2528 mt 2815 2600 L
2790 2539 mt 2840 2589 L
2840 2539 mt 2790 2589 L
gr

gs 2635 1984 1659 2547 MR c np
2770 3514 mt 2842 3514 L
2806 3478 mt 2806 3550 L
2781 3489 mt 2831 3539 L
2831 3489 mt 2781 3539 L
gr

gs 2635 1984 1659 2547 MR c np
2757 3554 mt 2829 3554 L
2793 3518 mt 2793 3590 L
2768 3529 mt 2818 3579 L
2818 3529 mt 2768 3579 L
gr

gs 2635 1984 1659 2547 MR c np
2739 2246 mt 2811 2246 L
2775 2210 mt 2775 2282 L
2750 2221 mt 2800 2271 L
2800 2221 mt 2750 2271 L
gr

gs 2635 1984 1659 2547 MR c np
2737 3368 mt 2809 3368 L
2773 3332 mt 2773 3404 L
2748 3343 mt 2798 3393 L
2798 3343 mt 2748 3393 L
gr

gs 2635 1984 1659 2547 MR c np
2705 2774 mt 2777 2774 L
2741 2738 mt 2741 2810 L
2716 2749 mt 2766 2799 L
2766 2749 mt 2716 2799 L
gr

gr

c8
0 sg
1688 4914 mt 
(power profile) s
1410 2850 mt  -90 rotate
(QoS \(deadline violations\)) s
90 rotate

end %%Color Dict

eplot
%%EndObject

epage
end

showpage

%%Trailer
%%EOF
