%!PS-Adobe-2.0 EPSF-1.2
%%Creator: MATLAB, The Mathworks, Inc. Version 7.8.0.347 (R2009a). Operating System: Linux 3.13.0-30-generic #54-Ubuntu SMP Mon Jun 9 22:45:01 UTC 2014 i686.
%%Title: ./output/FP-fig.75_10_5_100_2.L.log.p4.txt.sch3-(75-500)-ejec1.fig.eps
%%CreationDate: 07/03/2014  14:56:55
%%DocumentNeededFonts: Helvetica
%%DocumentProcessColors: Cyan Magenta Yellow Black
%%Extensions: CMYK
%%Pages: 1
%%BoundingBox:   118   197   493   583
%%EndComments

%%BeginProlog
% MathWorks dictionary
/MathWorks 160 dict begin
% definition operators
/bdef {bind def} bind def
/ldef {load def} bind def
/xdef {exch def} bdef
/xstore {exch store} bdef
% operator abbreviations
/c  /clip ldef
/cc /concat ldef
/cp /closepath ldef
/gr /grestore ldef
/gs /gsave ldef
/mt /moveto ldef
/np /newpath ldef
/cm /currentmatrix ldef
/sm /setmatrix ldef
/rm /rmoveto ldef
/rl /rlineto ldef
/s {show newpath} bdef
/sc {setcmykcolor} bdef
/sr /setrgbcolor ldef
/sg /setgray ldef
/w /setlinewidth ldef
/j /setlinejoin ldef
/cap /setlinecap ldef
/rc {rectclip} bdef
/rf {rectfill} bdef
% page state control
/pgsv () def
/bpage {/pgsv save def} bdef
/epage {pgsv restore} bdef
/bplot /gsave ldef
/eplot {stroke grestore} bdef
% orientation switch
/portraitMode 0 def /landscapeMode 1 def /rotateMode 2 def
% coordinate system mappings
/dpi2point 0 def
% font control
/FontSize 0 def
/FMS {/FontSize xstore findfont [FontSize 0 0 FontSize neg 0 0]
  makefont setfont} bdef
/reencode {exch dup where {pop load} {pop StandardEncoding} ifelse
  exch dup 3 1 roll findfont dup length dict begin
  { 1 index /FID ne {def}{pop pop} ifelse } forall
  /Encoding exch def currentdict end definefont pop} bdef
/isroman {findfont /CharStrings get /Agrave known} bdef
/FMSR {3 1 roll 1 index dup isroman {reencode} {pop pop} ifelse
  exch FMS} bdef
/csm {1 dpi2point div -1 dpi2point div scale neg translate
 dup landscapeMode eq {pop -90 rotate}
  {rotateMode eq {90 rotate} if} ifelse} bdef
% line types: solid, dotted, dashed, dotdash
/SO { [] 0 setdash } bdef
/DO { [.5 dpi2point mul 4 dpi2point mul] 0 setdash } bdef
/DA { [6 dpi2point mul] 0 setdash } bdef
/DD { [.5 dpi2point mul 4 dpi2point mul 6 dpi2point mul 4
  dpi2point mul] 0 setdash } bdef
% macros for lines and objects
/L {lineto stroke} bdef
/MP {3 1 roll moveto 1 sub {rlineto} repeat} bdef
/AP {{rlineto} repeat} bdef
/PDlw -1 def
/W {/PDlw currentlinewidth def setlinewidth} def
/PP {closepath eofill} bdef
/DP {closepath stroke} bdef
/MR {4 -2 roll moveto dup  0 exch rlineto exch 0 rlineto
  neg 0 exch rlineto closepath} bdef
/FR {MR stroke} bdef
/PR {MR fill} bdef
/L1i {{currentfile picstr readhexstring pop} image} bdef
/tMatrix matrix def
/MakeOval {newpath tMatrix currentmatrix pop translate scale
0 0 1 0 360 arc tMatrix setmatrix} bdef
/FO {MakeOval stroke} bdef
/PO {MakeOval fill} bdef
/PD {currentlinewidth 2 div 0 360 arc fill
   PDlw -1 eq not {PDlw w /PDlw -1 def} if} def
/FA {newpath tMatrix currentmatrix pop translate scale
  0 0 1 5 -2 roll arc tMatrix setmatrix stroke} bdef
/PA {newpath tMatrix currentmatrix pop	translate 0 0 moveto scale
  0 0 1 5 -2 roll arc closepath tMatrix setmatrix fill} bdef
/FAn {newpath tMatrix currentmatrix pop translate scale
  0 0 1 5 -2 roll arcn tMatrix setmatrix stroke} bdef
/PAn {newpath tMatrix currentmatrix pop translate 0 0 moveto scale
  0 0 1 5 -2 roll arcn closepath tMatrix setmatrix fill} bdef
/vradius 0 def /hradius 0 def /lry 0 def
/lrx 0 def /uly 0 def /ulx 0 def /rad 0 def
/MRR {/vradius xdef /hradius xdef /lry xdef /lrx xdef /uly xdef
  /ulx xdef newpath tMatrix currentmatrix pop ulx hradius add uly
  vradius add translate hradius vradius scale 0 0 1 180 270 arc 
  tMatrix setmatrix lrx hradius sub uly vradius add translate
  hradius vradius scale 0 0 1 270 360 arc tMatrix setmatrix
  lrx hradius sub lry vradius sub translate hradius vradius scale
  0 0 1 0 90 arc tMatrix setmatrix ulx hradius add lry vradius sub
  translate hradius vradius scale 0 0 1 90 180 arc tMatrix setmatrix
  closepath} bdef
/FRR {MRR stroke } bdef
/PRR {MRR fill } bdef
/MlrRR {/lry xdef /lrx xdef /uly xdef /ulx xdef /rad lry uly sub 2 div def
  newpath tMatrix currentmatrix pop ulx rad add uly rad add translate
  rad rad scale 0 0 1 90 270 arc tMatrix setmatrix lrx rad sub lry rad
  sub translate rad rad scale 0 0 1 270 90 arc tMatrix setmatrix
  closepath} bdef
/FlrRR {MlrRR stroke } bdef
/PlrRR {MlrRR fill } bdef
/MtbRR {/lry xdef /lrx xdef /uly xdef /ulx xdef /rad lrx ulx sub 2 div def
  newpath tMatrix currentmatrix pop ulx rad add uly rad add translate
  rad rad scale 0 0 1 180 360 arc tMatrix setmatrix lrx rad sub lry rad
  sub translate rad rad scale 0 0 1 0 180 arc tMatrix setmatrix
  closepath} bdef
/FtbRR {MtbRR stroke } bdef
/PtbRR {MtbRR fill } bdef
/stri 6 array def /dtri 6 array def
/smat 6 array def /dmat 6 array def
/tmat1 6 array def /tmat2 6 array def /dif 3 array def
/asub {/ind2 exch def /ind1 exch def dup dup
  ind1 get exch ind2 get sub exch } bdef
/tri_to_matrix {
  2 0 asub 3 1 asub 4 0 asub 5 1 asub
  dup 0 get exch 1 get 7 -1 roll astore } bdef
/compute_transform {
  dmat dtri tri_to_matrix tmat1 invertmatrix 
  smat stri tri_to_matrix tmat2 concatmatrix } bdef
/ds {stri astore pop} bdef
/dt {dtri astore pop} bdef
/db {2 copy /cols xdef /rows xdef mul dup 3 mul string
  currentfile exch readhexstring pop
  dup 0 3 index getinterval /rbmap xdef
  dup 2 index dup getinterval /gbmap xdef
  1 index dup 2 mul exch getinterval /bbmap xdef pop pop}bdef
/it {gs np dtri aload pop moveto lineto lineto cp c
  cols rows 8 compute_transform 
  rbmap gbmap bbmap true 3 colorimage gr}bdef
/il {newpath moveto lineto stroke}bdef
currentdict end def
%%EndProlog

%%BeginSetup
MathWorks begin

0 cap

end
%%EndSetup

%%Page: 1 1
%%BeginPageSetup
%%PageBoundingBox:   118   197   493   583
MathWorks begin
bpage
%%EndPageSetup

%%BeginObject: obj1
bplot

/dpi2point 12 def
portraitMode 0216 7344 csm

 1208   340  4502  4635 MR c np
85 dict begin %Colortable dictionary
/c0 { 0.000000 0.000000 0.000000 sr} bdef
/c1 { 1.000000 1.000000 1.000000 sr} bdef
/c2 { 0.900000 0.000000 0.000000 sr} bdef
/c3 { 0.000000 0.820000 0.000000 sr} bdef
/c4 { 0.000000 0.000000 0.800000 sr} bdef
/c5 { 0.910000 0.820000 0.320000 sr} bdef
/c6 { 1.000000 0.260000 0.820000 sr} bdef
/c7 { 0.000000 0.820000 0.820000 sr} bdef
c0
1 j
1 sg
   0    0 6913 5186 PR
6 w
-2427 642 1210 1285 2427 -641 1758 3329 4 MP
PP
-1210 -1286 -2427 642 1210 1285 2427 -641 1758 3329 5 MP stroke
0 2300 2427 -642 0 -2299 1758 3329 4 MP
PP
-2427 641 0 2300 2427 -642 0 -2299 1758 3329 5 MP stroke
0 2299 1210 1286 0 -2300 4185 2688 4 MP
PP
-1210 -1285 0 2299 1210 1286 0 -2300 4185 2688 5 MP stroke
4 w
DO
0 sg
1758 3329 mt 4185 2688 L
4185 2688 mt 4185  389 L
2000 3586 mt 4427 2945 L
4427 2945 mt 4427  646 L
2242 3843 mt 4669 3202 L
4669 3202 mt 4669  903 L
2484 4100 mt 4911 3459 L
4911 3459 mt 4911 1160 L
2726 4357 mt 5153 3716 L
5153 3716 mt 5153 1417 L
2968 4615 mt 5395 3973 L
5395 3973 mt 5395 1674 L
2968 4615 mt 1758 3329 L
1758 3329 mt 1758 1030 L
3453 4486 mt 2244 3201 L
2244 3201 mt 2244  901 L
3939 4358 mt 2729 3072 L
2729 3072 mt 2729  773 L
4424 4230 mt 3214 2944 L
3214 2944 mt 3214  645 L
4909 4102 mt 3700 2816 L
3700 2816 mt 3700  517 L
5395 3973 mt 4185 2688 L
4185 2688 mt 4185  389 L
1758 3329 mt 4185 2688 L
4185 2688 mt 5395 3973 L
1758 3000 mt 4185 2359 L
4185 2359 mt 5395 3645 L
1758 2672 mt 4185 2031 L
4185 2031 mt 5395 3317 L
1758 2343 mt 4185 1702 L
4185 1702 mt 5395 2988 L
1758 2015 mt 4185 1374 L
4185 1374 mt 5395 2660 L
1758 1686 mt 4185 1045 L
4185 1045 mt 5395 2331 L
1758 1358 mt 4185  717 L
4185  717 mt 5395 2003 L
1758 1030 mt 4185  389 L
4185  389 mt 5395 1674 L
SO
6 w
1758 3329 mt 2968 4615 L
2968 4615 mt 5395 3973 L
1758 3329 mt 1758 1030 L
1758 3329 mt 1698 3345 L
%%IncludeResource: font Helvetica
/Helvetica /ISOLatin1Encoding 120 FMSR

1531 3465 mt 
(10) s
2000 3586 mt 1940 3602 L
1773 3722 mt 
(20) s
2242 3843 mt 2182 3859 L
2015 3979 mt 
(30) s
2484 4100 mt 2424 4116 L
2257 4236 mt 
(40) s
2726 4357 mt 2666 4373 L
2499 4493 mt 
(50) s
2968 4615 mt 2908 4631 L
2741 4750 mt 
(60) s
2968 4615 mt 3011 4660 L
3035 4796 mt 
(0) s
3453 4486 mt 3496 4532 L
3520 4668 mt 
(50) s
3939 4358 mt 3982 4404 L
4005 4540 mt 
(100) s
4424 4230 mt 4467 4276 L
4491 4412 mt 
(150) s
4909 4102 mt 4952 4147 L
4976 4284 mt 
(200) s
5395 3973 mt 5438 4019 L
5461 4155 mt 
(250) s
1758 3329 mt 1715 3283 L
1626 3302 mt 
(0) s
1758 3000 mt 1715 2955 L
1492 2973 mt 
(500) s
1758 2672 mt 1715 2626 L
1426 2645 mt 
(1000) s
1758 2343 mt 1715 2298 L
1426 2317 mt 
(1500) s
1758 2015 mt 1715 1969 L
1426 1988 mt 
(2000) s
1758 1686 mt 1715 1641 L
1426 1660 mt 
(2500) s
1758 1358 mt 1715 1312 L
1426 1331 mt 
(3000) s
1758 1030 mt 1715  984 L
1426 1003 mt 
(3500) s
4193 4923 mt 
(temperature profile) s
gs 1758 388 3638 4228 MR c np
gs 2555 1733 1572 2636 MR c np
/c8 { 0.000000 0.000000 1.000000 sr} bdef
c8
4017 3128 mt 4089 3128 L
4053 3092 mt 4053 3164 L
4028 3103 mt 4078 3153 L
4078 3103 mt 4028 3153 L
gr

c8
gs 2555 1733 1572 2636 MR c np
2630 2742 mt 2702 2742 L
2666 2706 mt 2666 2778 L
2641 2717 mt 2691 2767 L
2691 2717 mt 2641 2767 L
gr

gs 2555 1733 1572 2636 MR c np
2637 3331 mt 2709 3331 L
2673 3295 mt 2673 3367 L
2648 3306 mt 2698 3356 L
2698 3306 mt 2648 3356 L
gr

gs 2555 1733 1572 2636 MR c np
2620 2916 mt 2692 2916 L
2656 2880 mt 2656 2952 L
2631 2891 mt 2681 2941 L
2681 2891 mt 2631 2941 L
gr

gs 2555 1733 1572 2636 MR c np
2623 2986 mt 2695 2986 L
2659 2950 mt 2659 3022 L
2634 2961 mt 2684 3011 L
2684 2961 mt 2634 3011 L
gr

gs 2555 1733 1572 2636 MR c np
2612 2266 mt 2684 2266 L
2648 2230 mt 2648 2302 L
2623 2241 mt 2673 2291 L
2673 2241 mt 2623 2291 L
gr

gs 2555 1733 1572 2636 MR c np
2609 2317 mt 2681 2317 L
2645 2281 mt 2645 2353 L
2620 2292 mt 2670 2342 L
2670 2292 mt 2620 2342 L
gr

gs 2555 1733 1572 2636 MR c np
2724 2860 mt 2796 2860 L
2760 2824 mt 2760 2896 L
2735 2835 mt 2785 2885 L
2785 2835 mt 2735 2885 L
gr

gs 2555 1733 1572 2636 MR c np
2991 2226 mt 3063 2226 L
3027 2190 mt 3027 2262 L
3002 2201 mt 3052 2251 L
3052 2201 mt 3002 2251 L
gr

gs 2555 1733 1572 2636 MR c np
2956 2829 mt 3028 2829 L
2992 2793 mt 2992 2865 L
2967 2804 mt 3017 2854 L
3017 2804 mt 2967 2854 L
gr

gs 2555 1733 1572 2636 MR c np
2825 2896 mt 2897 2896 L
2861 2860 mt 2861 2932 L
2836 2871 mt 2886 2921 L
2886 2871 mt 2836 2921 L
gr

gs 2555 1733 1572 2636 MR c np
2974 3188 mt 3046 3188 L
3010 3152 mt 3010 3224 L
2985 3163 mt 3035 3213 L
3035 3163 mt 2985 3213 L
gr

gs 2555 1733 1572 2636 MR c np
2694 3180 mt 2766 3180 L
2730 3144 mt 2730 3216 L
2705 3155 mt 2755 3205 L
2755 3155 mt 2705 3205 L
gr

gs 2555 1733 1572 2636 MR c np
2721 3508 mt 2793 3508 L
2757 3472 mt 2757 3544 L
2732 3483 mt 2782 3533 L
2782 3483 mt 2732 3533 L
gr

gs 2555 1733 1572 2636 MR c np
2775 3143 mt 2847 3143 L
2811 3107 mt 2811 3179 L
2786 3118 mt 2836 3168 L
2836 3118 mt 2786 3168 L
gr

gs 2555 1733 1572 2636 MR c np
2812 3327 mt 2884 3327 L
2848 3291 mt 2848 3363 L
2823 3302 mt 2873 3352 L
2873 3302 mt 2823 3352 L
gr

gs 2555 1733 1572 2636 MR c np
2813 3807 mt 2885 3807 L
2849 3771 mt 2849 3843 L
2824 3782 mt 2874 3832 L
2874 3782 mt 2824 3832 L
gr

gs 2555 1733 1572 2636 MR c np
2911 4246 mt 2983 4246 L
2947 4210 mt 2947 4282 L
2922 4221 mt 2972 4271 L
2972 4221 mt 2922 4271 L
gr

gs 2555 1733 1572 2636 MR c np
2893 3115 mt 2965 3115 L
2929 3079 mt 2929 3151 L
2904 3090 mt 2954 3140 L
2954 3090 mt 2904 3140 L
gr

gs 2555 1733 1572 2636 MR c np
2912 2965 mt 2984 2965 L
2948 2929 mt 2948 3001 L
2923 2940 mt 2973 2990 L
2973 2940 mt 2923 2990 L
gr

gs 2555 1733 1572 2636 MR c np
2725 2567 mt 2797 2567 L
2761 2531 mt 2761 2603 L
2736 2542 mt 2786 2592 L
2786 2542 mt 2736 2592 L
gr

gs 2555 1733 1572 2636 MR c np
2668 3591 mt 2740 3591 L
2704 3555 mt 2704 3627 L
2679 3566 mt 2729 3616 L
2729 3566 mt 2679 3616 L
gr

gs 2555 1733 1572 2636 MR c np
2669 2644 mt 2741 2644 L
2705 2608 mt 2705 2680 L
2680 2619 mt 2730 2669 L
2730 2619 mt 2680 2669 L
gr

gs 2555 1733 1572 2636 MR c np
2716 3533 mt 2788 3533 L
2752 3497 mt 2752 3569 L
2727 3508 mt 2777 3558 L
2777 3508 mt 2727 3558 L
gr

gs 2555 1733 1572 2636 MR c np
2740 2447 mt 2812 2447 L
2776 2411 mt 2776 2483 L
2751 2422 mt 2801 2472 L
2801 2422 mt 2751 2472 L
gr

gs 2555 1733 1572 2636 MR c np
2670 3187 mt 2742 3187 L
2706 3151 mt 2706 3223 L
2681 3162 mt 2731 3212 L
2731 3162 mt 2681 3212 L
gr

gs 2555 1733 1572 2636 MR c np
3002 3070 mt 3074 3070 L
3038 3034 mt 3038 3106 L
3013 3045 mt 3063 3095 L
3063 3045 mt 3013 3095 L
gr

gs 2555 1733 1572 2636 MR c np
3805 3207 mt 3877 3207 L
3841 3171 mt 3841 3243 L
3816 3182 mt 3866 3232 L
3866 3182 mt 3816 3232 L
gr

gs 2555 1733 1572 2636 MR c np
3298 3433 mt 3370 3433 L
3334 3397 mt 3334 3469 L
3309 3408 mt 3359 3458 L
3359 3408 mt 3309 3458 L
gr

gs 2555 1733 1572 2636 MR c np
3650 3270 mt 3722 3270 L
3686 3234 mt 3686 3306 L
3661 3245 mt 3711 3295 L
3711 3245 mt 3661 3295 L
gr

gs 2555 1733 1572 2636 MR c np
3733 3247 mt 3805 3247 L
3769 3211 mt 3769 3283 L
3744 3222 mt 3794 3272 L
3794 3222 mt 3744 3272 L
gr

gs 2555 1733 1572 2636 MR c np
2793 2481 mt 2865 2481 L
2829 2445 mt 2829 2517 L
2804 2456 mt 2854 2506 L
2854 2456 mt 2804 2506 L
gr

gs 2555 1733 1572 2636 MR c np
2842 2957 mt 2914 2957 L
2878 2921 mt 2878 2993 L
2853 2932 mt 2903 2982 L
2903 2932 mt 2853 2982 L
gr

gs 2555 1733 1572 2636 MR c np
2847 2978 mt 2919 2978 L
2883 2942 mt 2883 3014 L
2858 2953 mt 2908 3003 L
2908 2953 mt 2858 3003 L
gr

gs 2555 1733 1572 2636 MR c np
2871 3135 mt 2943 3135 L
2907 3099 mt 2907 3171 L
2882 3110 mt 2932 3160 L
2932 3110 mt 2882 3160 L
gr

gs 2555 1733 1572 2636 MR c np
2939 4109 mt 3011 4109 L
2975 4073 mt 2975 4145 L
2950 4084 mt 3000 4134 L
3000 4084 mt 2950 4134 L
gr

gs 2555 1733 1572 2636 MR c np
2960 3749 mt 3032 3749 L
2996 3713 mt 2996 3785 L
2971 3724 mt 3021 3774 L
3021 3724 mt 2971 3774 L
gr

gs 2555 1733 1572 2636 MR c np
3040 3669 mt 3112 3669 L
3076 3633 mt 3076 3705 L
3051 3644 mt 3101 3694 L
3101 3644 mt 3051 3694 L
gr

gs 2555 1733 1572 2636 MR c np
3058 4172 mt 3130 4172 L
3094 4136 mt 3094 4208 L
3069 4147 mt 3119 4197 L
3119 4147 mt 3069 4197 L
gr

gs 2555 1733 1572 2636 MR c np
3132 3551 mt 3204 3551 L
3168 3515 mt 3168 3587 L
3143 3526 mt 3193 3576 L
3193 3526 mt 3143 3576 L
gr

gs 2555 1733 1572 2636 MR c np
3502 3352 mt 3574 3352 L
3538 3316 mt 3538 3388 L
3513 3327 mt 3563 3377 L
3563 3327 mt 3513 3377 L
gr

gs 2555 1733 1572 2636 MR c np
3523 3269 mt 3595 3269 L
3559 3233 mt 3559 3305 L
3534 3244 mt 3584 3294 L
3584 3244 mt 3534 3294 L
gr

gs 2555 1733 1572 2636 MR c np
3525 3326 mt 3597 3326 L
3561 3290 mt 3561 3362 L
3536 3301 mt 3586 3351 L
3586 3301 mt 3536 3351 L
gr

gs 2555 1733 1572 2636 MR c np
3639 3274 mt 3711 3274 L
3675 3238 mt 3675 3310 L
3650 3249 mt 3700 3299 L
3700 3249 mt 3650 3299 L
gr

gs 2555 1733 1572 2636 MR c np
3111 2403 mt 3183 2403 L
3147 2367 mt 3147 2439 L
3122 2378 mt 3172 2428 L
3172 2378 mt 3122 2428 L
gr

gs 2555 1733 1572 2636 MR c np
2814 3728 mt 2886 3728 L
2850 3692 mt 2850 3764 L
2825 3703 mt 2875 3753 L
2875 3703 mt 2825 3753 L
gr

gs 2555 1733 1572 2636 MR c np
2645 2282 mt 2717 2282 L
2681 2246 mt 2681 2318 L
2656 2257 mt 2706 2307 L
2706 2257 mt 2656 2307 L
gr

gs 2555 1733 1572 2636 MR c np
2592 3161 mt 2664 3161 L
2628 3125 mt 2628 3197 L
2603 3136 mt 2653 3186 L
2653 3136 mt 2603 3186 L
gr

gs 2555 1733 1572 2636 MR c np
2631 3467 mt 2703 3467 L
2667 3431 mt 2667 3503 L
2642 3442 mt 2692 3492 L
2692 3442 mt 2642 3492 L
gr

gs 2555 1733 1572 2636 MR c np
2616 3063 mt 2688 3063 L
2652 3027 mt 2652 3099 L
2627 3038 mt 2677 3088 L
2677 3038 mt 2627 3088 L
gr

gs 2555 1733 1572 2636 MR c np
2736 3875 mt 2808 3875 L
2772 3839 mt 2772 3911 L
2747 3850 mt 2797 3900 L
2797 3850 mt 2747 3900 L
gr

gs 2555 1733 1572 2636 MR c np
2731 3646 mt 2803 3646 L
2767 3610 mt 2767 3682 L
2742 3621 mt 2792 3671 L
2792 3621 mt 2742 3671 L
gr

gs 2555 1733 1572 2636 MR c np
3049 3110 mt 3121 3110 L
3085 3074 mt 3085 3146 L
3060 3085 mt 3110 3135 L
3110 3085 mt 3060 3135 L
gr

gs 2555 1733 1572 2636 MR c np
2665 3233 mt 2737 3233 L
2701 3197 mt 2701 3269 L
2676 3208 mt 2726 3258 L
2726 3208 mt 2676 3258 L
gr

gs 2555 1733 1572 2636 MR c np
2687 2999 mt 2759 2999 L
2723 2963 mt 2723 3035 L
2698 2974 mt 2748 3024 L
2748 2974 mt 2698 3024 L
gr

gs 2555 1733 1572 2636 MR c np
3041 3620 mt 3113 3620 L
3077 3584 mt 3077 3656 L
3052 3595 mt 3102 3645 L
3102 3595 mt 3052 3645 L
gr

gs 2555 1733 1572 2636 MR c np
2998 2397 mt 3070 2397 L
3034 2361 mt 3034 2433 L
3009 2372 mt 3059 2422 L
3059 2372 mt 3009 2422 L
gr

gs 2555 1733 1572 2636 MR c np
3087 2726 mt 3159 2726 L
3123 2690 mt 3123 2762 L
3098 2701 mt 3148 2751 L
3148 2701 mt 3098 2751 L
gr

gs 2555 1733 1572 2636 MR c np
3805 3207 mt 3877 3207 L
3841 3171 mt 3841 3243 L
3816 3182 mt 3866 3232 L
3866 3182 mt 3816 3232 L
gr

gs 2555 1733 1572 2636 MR c np
2617 2752 mt 2689 2752 L
2653 2716 mt 2653 2788 L
2628 2727 mt 2678 2777 L
2678 2727 mt 2628 2777 L
gr

gs 2555 1733 1572 2636 MR c np
2624 2070 mt 2696 2070 L
2660 2034 mt 2660 2106 L
2635 2045 mt 2685 2095 L
2685 2045 mt 2635 2095 L
gr

gs 2555 1733 1572 2636 MR c np
3249 2766 mt 3321 2766 L
3285 2730 mt 3285 2802 L
3260 2741 mt 3310 2791 L
3310 2741 mt 3260 2791 L
gr

gs 2555 1733 1572 2636 MR c np
2631 1806 mt 2703 1806 L
2667 1770 mt 2667 1842 L
2642 1781 mt 2692 1831 L
2692 1781 mt 2642 1831 L
gr

gs 2555 1733 1572 2636 MR c np
2634 1969 mt 2706 1969 L
2670 1933 mt 2670 2005 L
2645 1944 mt 2695 1994 L
2695 1944 mt 2645 1994 L
gr

gs 2555 1733 1572 2636 MR c np
3981 3158 mt 4053 3158 L
4017 3122 mt 4017 3194 L
3992 3133 mt 4042 3183 L
4042 3133 mt 3992 3183 L
gr

gs 2555 1733 1572 2636 MR c np
4017 3128 mt 4089 3128 L
4053 3092 mt 4053 3164 L
4028 3103 mt 4078 3153 L
4078 3103 mt 4028 3153 L
gr

gs 2555 1733 1572 2636 MR c np
3733 3247 mt 3805 3247 L
3769 3211 mt 3769 3283 L
3744 3222 mt 3794 3272 L
3794 3222 mt 3744 3272 L
gr

gs 2555 1733 1572 2636 MR c np
3085 4249 mt 3157 4249 L
3121 4213 mt 3121 4285 L
3096 4224 mt 3146 4274 L
3146 4224 mt 3096 4274 L
gr

gs 2555 1733 1572 2636 MR c np
2998 3239 mt 3070 3239 L
3034 3203 mt 3034 3275 L
3009 3214 mt 3059 3264 L
3059 3214 mt 3009 3264 L
gr

gs 2555 1733 1572 2636 MR c np
2965 4295 mt 3037 4295 L
3001 4259 mt 3001 4331 L
2976 4270 mt 3026 4320 L
3026 4270 mt 2976 4320 L
gr

gs 2555 1733 1572 2636 MR c np
2632 2023 mt 2704 2023 L
2668 1987 mt 2668 2059 L
2643 1998 mt 2693 2048 L
2693 1998 mt 2643 2048 L
gr

gs 2555 1733 1572 2636 MR c np
2761 3691 mt 2833 3691 L
2797 3655 mt 2797 3727 L
2772 3666 mt 2822 3716 L
2822 3666 mt 2772 3716 L
gr

gs 2555 1733 1572 2636 MR c np
2723 2439 mt 2795 2439 L
2759 2403 mt 2759 2475 L
2734 2414 mt 2784 2464 L
2784 2414 mt 2734 2464 L
gr

gs 2555 1733 1572 2636 MR c np
2643 2338 mt 2715 2338 L
2679 2302 mt 2679 2374 L
2654 2313 mt 2704 2363 L
2704 2313 mt 2654 2363 L
gr

gs 2555 1733 1572 2636 MR c np
2631 1806 mt 2703 1806 L
2667 1770 mt 2667 1842 L
2642 1781 mt 2692 1831 L
2692 1781 mt 2642 1831 L
gr

gr

c8
0 sg
1688 4914 mt 
(power profile) s
1344 2850 mt  -90 rotate
(QoS \(deadline violations\)) s
90 rotate

end %%Color Dict

eplot
%%EndObject

epage
end

showpage

%%Trailer
%%EOF
