1 8 14
1 4 7
6 1 7
7 11 23
8 2 11
8 0 8
10 14 26
11 13 31
12 6 20
13 10 29
14 18 39
15 14 37
15 14 34
18 9 32
20 3 24
21 9 32
22 4 26
23 11 41
23 10 35
25 6 33
26 10 42
26 17 50
26 8 36
27 4 33
28 12 48
28 1 30
29 9 43
36 11 52
36 9 51
37 8 49
39 10 53
42 8 54
44 7 56
45 11 60
46 7 56
48 11 65
49 4 56
50 6 58
51 10 65
53 5 61
54 20 78
54 12 72
55 18 85
57 4 63
57 17 81
59 1 61
60 17 83
60 16 85
61 13 82
61 11 76
63 6 73
67 7 76
69 13 89
70 17 97
70 10 86
72 8 83
73 14 93
73 14 96
74 9 88
74 8 87
77 3 81
77 11 95
77 19 107
77 5 83
78 11 93
80 13 102
81 14 101
81 25 122
82 6 91
83 12 100
85 10 101
86 1 88
87 10 102
88 4 93
88 4 94
