1 6 8
2 17 22
3 9 14
3 8 13
5 15 23
6 9 16
10 12 150
11 1 12
12 10 22
12 5 150
12 8 22
12 6 19
14 9 25
15 10 27
15 8 25
19 12 33
20 9 30
21 12 150
21 17 150
24 5 30
26 11 38
27 20 51
27 10 38
28 16 47
29 4 34
29 14 46
30 9 42
30 0 30
30 4 34
31 9 42
31 1 32
33 17 53
34 19 57
35 11 48
35 10 47
36 9 150
37 5 150
37 7 44
37 1 38
39 12 52
40 12 55
46 16 65
46 11 58
46 14 62
47 13 64
49 1 50
50 6 58
54 1 56
55 14 150
56 11 69
56 9 68
57 4 62
57 16 150
58 4 62
58 10 70
62 18 81
63 13 79
63 4 68
64 10 77
65 7 150
65 10 78
65 14 81
65 11 78
65 6 73
66 6 73
66 8 75
69 7 77
70 15 86
71 13 88
72 23 99
75 8 85
75 16 95
75 6 150
76 2 78
77 9 88
78 15 96
78 3 81
79 11 150
80 8 89
80 13 95
81 7 150
82 10 93
82 4 87
83 4 88
84 20 108
84 13 100
84 13 99
85 13 99
85 6 93
85 9 96
86 1 87
87 1 88
87 5 92
87 21 112
89 19 111
91 8 101
92 5 150
93 10 105
97 15 116
97 18 119
