1 6 8
1 15 21
2 9 14
5 6 12
8 5 13
11 6 150
11 10 150
11 10 150
13 8 150
14 12 27
16 10 27
17 15 37
17 9 150
18 19 41
18 7 26
19 11 33
19 6 150
20 7 150
21 4 150
21 15 39
24 9 35
25 10 150
28 11 41
29 13 43
30 11 42
36 5 42
38 7 46
38 8 150
40 4 44
41 16 60
41 7 50
41 20 65
42 13 58
42 14 150
43 7 52
43 8 150
44 14 61
44 0 44
46 13 62
46 17 68
48 11 60
49 5 55
50 6 57
50 12 150
51 14 67
52 12 67
52 8 62
53 19 150
54 15 150
56 11 69
58 15 150
59 16 78
59 8 68
60 11 72
61 3 65
61 8 72
63 7 72
65 10 150
68 6 75
69 11 83
70 9 81
72 9 150
72 4 77
72 12 150
75 13 89
77 5 150
78 11 90
80 6 88
81 8 91
81 10 93
82 14 99
84 12 98
84 2 86
86 17 150
86 31 126
88 3 91
89 4 150
89 8 99
91 9 102
93 13 109
93 9 103
94 9 150
96 14 150
97 14 112
98 11 112
99 14 115
99 15 150
100 7 109
102 13 116
104 6 111
106 4 111
110 8 150
111 6 118
113 12 126
115 17 134
117 0 117
118 6 126
120 14 150
121 9 131
125 9 136
