2282.9 578264.92 14.0
2252.8 579816.63 16.0
2502.6 573926.13 0.0
2279.1 575649.74 0.0
2470.2 573798.34 11.0
2073.1 581072.54 62.0
2301.1 574946.37 12.0
2094.8 572571.4 57.0
2164.7 573837.24 58.0
2154.6 577743.84 98.0
