  2.0434000e+003  5.7228338e+005  1.2100000e+002
  1.4048000e+003  5.6751473e+005  1.7200000e+003
  2.2829000e+003  5.7826492e+005  1.4000000e+001
  1.4675000e+003  5.6377079e+005  1.7320000e+003
  2.2528000e+003  5.7981663e+005  1.6000000e+001
  1.8519000e+003  5.6826469e+005  4.1700000e+002
  1.9321000e+003  5.6817062e+005  4.7400000e+002
  1.4466000e+003  5.6658999e+005  1.7030000e+003
  1.7904000e+003  5.5975320e+005  9.1400000e+002
  1.8020000e+003  5.6454645e+005  8.0900000e+002
  1.8046000e+003  5.6078614e+005  8.4800000e+002
  2.0128000e+003  5.6894348e+005  3.1300000e+002
  2.5026000e+003  5.7392613e+005  0.0000000e+000
  1.8514000e+003  5.6422478e+005  6.0200000e+002
  1.3814000e+003  5.7342417e+005  5.0200000e+002
  2.2791000e+003  5.7564974e+005  0.0000000e+000
  1.7409000e+003  5.7009190e+005  2.5600000e+002
  1.6853000e+003  5.6192729e+005  1.7140000e+003
  1.9865000e+003  5.6473183e+005  4.6800000e+002
  1.9442000e+003  5.6517575e+005  5.0200000e+002
  1.3945000e+003  5.6782978e+005  1.7940000e+003
  1.7460000e+003  5.6481181e+005  8.1300000e+002
  1.7609000e+003  5.5703568e+005  1.4970000e+003
  1.5715000e+003  5.7132001e+005  4.1000000e+002
  1.2620000e+003  5.6212276e+005  1.9300000e+003
  1.8217000e+003  5.6775272e+005  4.8700000e+002
  2.0480000e+003  5.6334730e+005  4.8100000e+002
  2.4702000e+003  5.7379834e+005  1.1000000e+001
  1.4028000e+003  5.6988002e+005  5.0200000e+002
  1.6813000e+003  5.6721861e+005  6.2700000e+002
  1.6768000e+003  5.5932435e+005  1.0500000e+003
  2.0731000e+003  5.8107254e+005  6.2000000e+001
  2.3011000e+003  5.7494637e+005  1.2000000e+001
  1.6995000e+003  5.6657891e+005  5.2800000e+002
  1.3903000e+003  5.7076369e+005  6.4400000e+002
  2.0948000e+003  5.7257140e+005  5.7000000e+001
  2.1647000e+003  5.7383724e+005  5.8000000e+001
  1.4190000e+003  5.7151091e+005  5.9600000e+002
  1.6020000e+003  5.6764130e+005  7.3100000e+002
  1.7034000e+003  5.6988931e+005  2.4500000e+002
  1.1978000e+003  5.6305516e+005  2.3660000e+003
  1.8174000e+003  5.7096590e+005  2.2100000e+002
  1.7139000e+003  5.6795362e+005  6.0900000e+002
  1.4927000e+003  5.7080799e+005  5.4800000e+002
  1.5132000e+003  5.6999464e+005  4.7700000e+002
  1.9676000e+003  5.6207492e+005  5.3600000e+002
  1.8664000e+003  5.6904493e+005  3.9100000e+002
  1.3670000e+003  5.6860349e+005  6.8500000e+002
  1.9441000e+003  5.6536427e+005  5.4900000e+002
  1.6852000e+003  5.6053935e+005  9.8700000e+002
  1.5352000e+003  5.6736374e+005  1.6200000e+003
  1.6786000e+003  5.6859906e+005  4.3000000e+002
  2.1760000e+003  5.6413946e+005  4.7800000e+002
  1.8148000e+003  5.7110514e+005  1.3800000e+002
  2.1917000e+003  5.6764864e+005  4.3600000e+002
  1.6859000e+003  5.5808718e+005  1.2960000e+003
  1.4804000e+003  5.6955886e+005  6.3200000e+002
  1.8645000e+003  5.5970253e+005  8.8100000e+002
  1.3653000e+003  5.6732205e+005  1.8690000e+003
  1.5779000e+003  5.6561914e+005  6.2100000e+002
  1.7192000e+003  5.6607244e+005  4.8000000e+002
  2.1546000e+003  5.7774384e+005  9.8000000e+001
