  1.8547499e-002  2.2204460e-016  5.2238806e-001
  0.0000000e+000  0.0000000e+000  2.2981366e-001
  1.8079096e-002  2.2204460e-016  3.6247723e-001
  1.8139724e-002  4.5929266e-004  2.6086957e-001
  1.4245014e-002  1.1102230e-016  1.8505826e-001
  6.7487768e-003  1.1102230e-016  1.3503867e-001
  2.4838935e-002  2.2204460e-016  3.6026936e-001
  3.4843206e-003  0.0000000e+000  8.4126984e-001
  1.5136465e-002  4.4408921e-016  6.5894040e-001
  4.1906757e-002  2.2204460e-016  1.9268153e-001
  2.3071377e-002  0.0000000e+000  2.1962196e-001
  8.0613672e-003  9.8419372e-005  1.6981132e-001
  2.1743578e-002  7.3810698e-004  0.0000000e+000
  0.0000000e+000  2.2204460e-016  1.8792867e-001
  4.4839459e-002  0.0000000e+000  3.5429448e-001
  4.2453831e-003  3.7193771e-005  4.5906433e-001
  8.0517999e-003  2.2204460e-016  7.4786325e-001
  3.7414517e-002  5.7279214e-004  9.4623656e-001
  9.4534712e-003  2.2204460e-016  2.8669725e-001
  0.0000000e+000  0.0000000e+000  1.0217755e-001
  3.4501100e-002  5.5249864e-004  9.8584906e-001
  3.1738800e-002  0.0000000e+000  2.6086957e-001
  2.1180831e-002  2.2204460e-016  1.6816817e-001
