  1.5320000e+002  1.1641532e-010  4.5000000e+001
  4.8000000e+001  2.1720000e+001  7.0000000e+000
  1.0704694e+002  1.1641532e-010  5.4000000e+001
  1.2140000e+002  0.0000000e+000  1.0100000e+002
  6.4046940e+001  2.3283064e-010  3.9000000e+001
  1.5950000e+002  2.1720000e+001  1.6000000e+001
  6.7046940e+001  1.1641532e-010  4.0000000e+001
  1.3993474e+002  1.5204000e+002  0.0000000e+000
  7.8861240e+001  2.1720000e+001  0.0000000e+000
  2.2231430e+002  1.1641532e-010  7.4000000e+001
  2.4000000e+001  0.0000000e+000  9.6000000e+001
  6.6561240e+001  3.4924597e-010  0.0000000e+000
  1.3076124e+002  2.3283064e-010  0.0000000e+000
  0.0000000e+000  2.3283064e-010  1.8800000e+002
  2.7270210e+002  1.1641532e-010  6.0000000e+000
  1.6000000e+001  1.1641532e-010  7.1000000e+001
  8.8000000e+001  1.1641532e-010  0.0000000e+000
  1.8400000e+002  0.0000000e+000  5.0000000e+000
  2.4000000e+001  2.3283064e-010  0.0000000e+000
  1.0400000e+002  4.3440000e+001  0.0000000e+000
  1.0650210e+002  2.1720000e+001  5.0000000e+000
  1.0021430e+002  1.1641532e-010  1.1000000e+001
  1.6000000e+001  0.0000000e+000  0.0000000e+000
