  1.7929731e-003  2.4448504e-005  3.1991175e-002
  0.0000000e+000  1.1102230e-016  9.4088408e-003
  1.7361035e-002  5.8646373e-004  0.0000000e+000
  8.8041891e-003  1.0452687e-004  1.4814815e-001
  1.8201085e-002  4.3007341e-004  0.0000000e+000
  0.0000000e+000  0.0000000e+000  3.3221637e-002
  0.0000000e+000  1.1102230e-016  1.1014949e-002
  7.8799390e-004  0.0000000e+000  8.8983051e-002
  1.5860878e-002  0.0000000e+000  1.3293944e-001
  3.9055395e-003  2.0877915e-005  3.2327244e-001
  0.0000000e+000  1.1102230e-016  1.2954966e-002
  1.0749743e-002  2.7847748e-004  0.0000000e+000
  0.0000000e+000  0.0000000e+000  1.1361619e-002
  1.4038951e-003  1.1102230e-016  1.8076110e-001
  4.4143627e-003  0.0000000e+000  5.6229773e-002
  9.6230740e-003  6.0271975e-004  3.0988275e-001
  4.9514983e-004  1.1102230e-016  6.3660477e-002
  6.7769827e-003  5.2819088e-004  7.4074074e-002
  6.1394506e-002  0.0000000e+000  1.0496136e-001
  6.6877569e-003  1.1102230e-016  3.1433138e-002
