  2.5060851e+004  1.0770139e+006  0.0000000e+000
  1.4916851e+004  9.7354009e+005  4.5030000e+003
  1.6787254e+004  9.5697120e+005  3.1250000e+003
  2.5346895e+004  1.0564735e+006  7.5000000e+001
  1.4932851e+004  9.7354009e+005  4.5450000e+003
  2.0567851e+004  1.0876574e+006  7.2600000e+002
  1.8430851e+004  1.0342562e+006  2.1510000e+003
  2.2460851e+004  1.0144755e+006  2.2900000e+002
  2.4900851e+004  1.0760541e+006 -1.0000000e+000
  2.0956851e+004  1.0254292e+006  9.7000000e+002
  1.5143851e+004  9.8882097e+005  3.8030000e+003
  2.1085895e+004  1.0098123e+006  3.6700000e+002
  2.0924851e+004  1.0386971e+006  9.2400000e+002
  2.0092895e+004  1.0106082e+006  2.7350000e+003
  2.0603851e+004  1.0876574e+006  7.4100000e+002
  1.6588254e+004  9.6044477e+005  3.9730000e+003
  1.6779254e+004  9.6756913e+005  2.6670000e+003
  1.5036851e+004  1.0041075e+006  3.8910000e+003
  1.6327254e+004  1.0080221e+006  2.8170000e+003
  1.6667254e+004  9.8471503e+005  2.3900000e+003
