  3.2000000e+001  2.1672000e+002  1.2380000e+003
  2.4000000e+001  1.8060000e+002  8.7400000e+002
  7.0318902e+002  7.2240000e+001  0.0000000e+000
  1.5200000e+002  2.7692000e+002  4.2000000e+002
  3.6800000e+002  1.5652000e+002  5.8000000e+002
  4.0000000e+001  2.1672000e+002  1.1970000e+003
  3.8408697e+001  3.2508000e+002  7.7400000e+002
  3.2000000e+001  1.0836000e+002  9.2600000e+002
  1.2000000e+002  4.0936000e+002  7.6400000e+002
  2.6400000e+002  5.8207661e-011  3.6300000e+002
  2.1924403e+001  8.4280000e+001  5.9000000e+002
  2.7200000e+002  3.6120000e+001  2.0200000e+002
  9.6000000e+001  1.8060000e+002  6.2600000e+002
  1.9200000e+002  2.0468000e+002  3.8700000e+002
  2.4000000e+001  2.4080000e+002  8.3800000e+002
  7.2000000e+001  2.4080000e+001  3.5600000e+002
  7.2000000e+001  2.5284000e+002  7.4300000e+002
  5.0992440e+002  4.8160000e+002  8.2000000e+002
  3.3328918e+002  0.0000000e+000  1.1200000e+002
  4.3411363e+002  2.1672000e+002  3.0000000e+000
