  0.0000000e+000  8.1072000e+002  1.0300000e+002
  1.4939809e+001  7.5288000e+002  0.0000000e+000
  8.0000000e+000  1.0250800e+003  7.2000000e+001
  8.0000000e+000  7.2880000e+002  0.0000000e+000
  1.4939809e+001  7.9844000e+002  5.6000000e+001
  0.0000000e+000  1.0080800e+003  6.2000000e+001
  0.0000000e+000  7.8664000e+002  1.0200000e+002
  0.0000000e+000  9.9604000e+002  6.3000000e+001
  1.4939809e+001  7.5288000e+002  1.0000000e+000
  1.4939809e+001  1.0612000e+003  7.4000000e+001
  0.0000000e+000  7.7460000e+002  1.0900000e+002
  8.0000000e+000  9.2380000e+002  5.5000000e+001
  8.0000000e+000  7.1676000e+002  0.0000000e+000
  8.0000000e+000  9.9132000e+002  6.9000000e+001
  0.0000000e+000  8.2276000e+002  1.0800000e+002
  6.9398088e+000  8.7564000e+002  5.1000000e+001
  0.0000000e+000  1.0272000e+003  8.1000000e+001
  8.0000000e+000  7.5288000e+002  1.0000000e+000
  0.0000000e+000  8.5888000e+002  9.5000000e+001
  0.0000000e+000  8.9972000e+002  5.1000000e+001
