  3.2614924e+002  2.6823041e+005  1.9770000e+003
  2.8558785e+002  2.6099992e+005  2.3460000e+003
  7.2057760e+001  2.7723620e+005  1.3810000e+003
  8.8536485e+002  2.7219559e+005  1.3880000e+003
  7.6106089e+002  2.9482194e+005  1.8200000e+002
  4.5200034e+002  2.6617304e+005  1.9290000e+003
  1.3257564e+002  2.5028540e+005  3.2490000e+003
  1.0804025e+003  3.0204677e+005  9.0000000e+001
  6.9474389e+002  2.7274749e+005  1.5510000e+003
  6.1370615e+002  2.6653243e+005  1.8270000e+003
  2.1610990e+002  2.7154053e+005  1.8540000e+003
  1.3335508e+002  2.6549504e+005  2.1120000e+003
  8.7539904e+001  2.6232366e+005  2.4170000e+003
  5.2746456e+002  2.8734603e+005  6.7200000e+002
  8.4470071e+002  3.0490113e+005  7.5000000e+001
  6.8995166e+002  2.8779793e+005  3.3200000e+002
  2.1543730e+002  2.7752376e+005  1.4110000e+003
  2.6413136e+002  2.7542002e+005  1.6340000e+003
  1.0407873e+002  2.4517439e+005  3.8420000e+003
  6.4278732e+001  2.4498735e+005  4.0320000e+003
  8.0146504e+002  3.0263353e+005  2.2000000e+002
  7.5995170e+002  2.8269822e+005  7.4400000e+002
  3.7232807e+002  2.8172470e+005  9.1400000e+002
  5.9026743e+002  2.9339414e+005  3.2300000e+002
  1.9655750e+002  2.7088055e+005  1.6200000e+003
  6.9244529e+002  2.7614309e+005  1.1110000e+003
  4.5816489e+002  2.8773721e+005  5.9500000e+002
  5.4893843e+002  2.7076880e+005  1.5980000e+003
  1.5317296e+002  2.7211033e+005  1.8370000e+003
  3.9425136e+002  2.7681752e+005  1.2510000e+003
  1.1369918e+003  2.7324631e+005  1.3140000e+003
  4.6950853e+002  2.8767194e+005  4.6700000e+002
  2.7937107e+002  2.7681532e+005  1.3940000e+003
  1.1165645e+003  2.8291203e+005  6.1100000e+002
  3.2083631e+002  2.7765056e+005  1.2910000e+003
  1.8010825e+002  2.5581214e+005  2.8340000e+003
  6.4608564e+000  2.6188906e+005  3.7540000e+003
  3.4360856e+001  2.6329110e+005  3.3550000e+003
  1.7164598e+002  2.6550037e+005  2.0610000e+003
  6.5690772e+002  2.8866085e+005  2.7900000e+002
  4.5360856e+001  2.6821983e+005  2.9100000e+003
  1.0196915e+003  2.7727566e+005  9.5000000e+002
  5.3400034e+002  2.6785813e+005  1.8690000e+003
  7.7837226e+001  2.6217694e+005  3.3450000e+003
  1.5641836e+003  3.1806178e+005  0.0000000e+000
