  3.2000000e+002  1.0354400e+003  0.0000000e+000
  0.0000000e+000  1.3655200e+003  1.1720000e+003
  1.6000000e+001  1.0390000e+003  1.3410000e+003
  8.8000000e+001  3.0100000e+002  4.3400000e+002
  4.0000000e+001  5.8996000e+002  7.2600000e+002
  3.2000000e+001  2.2876000e+002  2.3000000e+002
  1.9200000e+002  1.6856000e+002  1.8100000e+002
  4.0000000e+001  4.3344000e+002  6.0500000e+002
  1.4400000e+002  2.2876000e+002  3.8700000e+002
  1.6000000e+001  5.5384000e+002  4.7900000e+002
  5.6000000e+001  2.6252000e+002  4.3500000e+002
  0.0000000e+000  7.1392000e+002  1.0400000e+003
  1.8400000e+002  2.8896000e+002  8.9000000e+001
  5.0174904e+001  1.9264000e+002  5.1900000e+002
  1.1200000e+002  3.7324000e+002  4.1300000e+002
  1.8400000e+002  1.6856000e+002  3.8700000e+002
  8.0000000e+000  2.6512000e+002  6.9200000e+002
  0.0000000e+000  1.2467600e+003  1.3260000e+003
  3.2000000e+001  1.2040000e+002  4.5000000e+002
  4.8000000e+001  6.5512000e+002  7.4600000e+002
