  3.5362150e+003  3.4355692e+005  2.5550000e+003
  1.5114507e+004  4.3307545e+005  3.5200000e+002
  1.0562693e+004  4.9620900e+005  2.1600000e+002
  1.5728568e+003  3.9560880e+005  3.0350000e+003
  1.4066507e+004  4.4947802e+005  0.0000000e+000
  2.2574543e+003  3.7379845e+005  3.3690000e+003
  3.8722150e+003  4.0243537e+005  9.9900000e+002
  8.7212779e+003  3.8513817e+005  7.3500000e+002
  3.2295851e+003  3.7332866e+005  1.7860000e+003
  5.7403284e+003  4.7445230e+005  7.5400000e+002
  3.5842150e+003  3.5879186e+005  1.2340000e+003
  1.0841842e+004  4.5753328e+005  3.1400000e+002
  5.7724800e+003  4.7357621e+005  7.6800000e+002
  6.5060709e+003  4.3237831e+005  8.2900000e+002
  9.7698417e+003  4.5066810e+005  4.4000000e+002
  3.2921865e+003  3.7438508e+005  1.7050000e+003
  1.1940670e+004  4.5131926e+005  2.3600000e+002
  3.4642150e+003  3.5571493e+005  2.6640000e+003
  1.1743670e+004  4.4540255e+005  2.6600000e+002
  6.4900709e+003  4.3237595e+005  8.3400000e+002
