  1.6437041e+002  3.9406176e+005  5.6450000e+003
  4.6564659e+003  3.3751040e+005  3.4790000e+003
  1.4837041e+002  3.8878360e+005  6.4260000e+003
  1.6274184e+004  3.9841675e+005  1.4250000e+003
  1.0470411e+004  5.2204709e+005  0.0000000e+000
  1.0518411e+004  5.2204709e+005  0.0000000e+000
  6.2147123e+003  4.0941316e+005  1.6810000e+003
  1.2212727e+004  4.5536399e+005  5.4600000e+002
  8.5610221e+003  4.4828831e+005  8.1300000e+002
  3.8333239e+003  4.2067323e+005  2.8110000e+003
  7.0046129e+003  4.7291758e+005  3.6900000e+002
  1.7559789e+003  3.6457891e+005  4.5480000e+003
  1.6127257e+004  4.0718528e+005  1.2520000e+003
  6.5217661e+002  3.9536411e+005  5.1300000e+003
  1.0636727e+004  4.8939672e+005  4.0000000e+000
  1.8062784e+003  3.6430480e+005  4.1610000e+003
  3.8413239e+003  4.2069495e+005  2.8880000e+003
  1.7742784e+003  4.0357408e+005  3.8140000e+003
  8.8010221e+003  4.6209546e+005  7.3700000e+002
  9.7951929e+003  4.6437637e+005  1.4000000e+002
