  8.0750000e+002  5.3734086e+005  2.4900000e+002
  5.5560000e+002  5.0411135e+005  8.8100000e+002
  3.1150000e+002  4.9854922e+005  1.4770000e+003
  1.1601000e+003  5.5310881e+005  8.0000000e+001
  5.4510000e+002  5.3064821e+005  3.3500000e+002
  5.7990000e+002  5.1408128e+005  6.4200000e+002
  1.8814000e+003  5.7585240e+005  0.0000000e+000
  2.3210000e+002  5.0103712e+005  1.2390000e+003
  4.4650000e+002  5.2717341e+005  5.4300000e+002
  4.0410000e+002  4.9965934e+005  9.3000000e+002
  1.3078000e+003  5.6038532e+005  2.1000000e+001
  3.8750000e+002  5.0007456e+005  9.1500000e+002
  4.7140000e+002  5.3528269e+005  5.4300000e+002
  8.4730000e+002  5.4554031e+005  1.3900000e+002
  5.0730000e+002  4.8755721e+005  1.8250000e+003
  2.9300000e+002  5.1570828e+005  8.5200000e+002
  1.2492000e+003  5.5986108e+005  4.7000000e+001
  1.9830000e+002  5.0123213e+005  1.4590000e+003
  4.6230000e+002  4.8779118e+005  1.6990000e+003
