  1.2700000e+001  5.0090450e+005  1.3070000e+003
  2.7620000e+002  5.1910543e+005  5.1900000e+002
  4.9290000e+002  5.1522815e+005  5.1100000e+002
  3.5260000e+002  4.9271996e+005  1.5520000e+003
  1.1150000e+002  4.9922213e+005  9.6000000e+002
  1.8180000e+002  4.9631984e+005  9.4100000e+002
  1.1291000e+003  5.5275834e+005  3.3000000e+001
  9.7210000e+002  5.5036603e+005  6.4000000e+001
  3.6900000e+001  5.0114220e+005  1.2990000e+003
  1.1561000e+003  5.4820543e+005  5.8000000e+001
  3.5320000e+002  5.2284079e+005  4.7600000e+002
  4.2700000e+002  4.9951415e+005  8.1900000e+002
  2.7860000e+002  4.9207373e+005  1.6520000e+003
  2.4104000e+003  5.7789917e+005  0.0000000e+000
  1.4520000e+002  5.1625096e+005  9.1500000e+002
  1.3820000e+002  4.9720245e+005  1.2100000e+003
  1.1534000e+003  5.4595137e+005  8.6000000e+001
  4.9560000e+002  5.2927135e+005  1.9100000e+002
  8.0580000e+002  5.4774530e+005  8.9000000e+001
  5.8870000e+002  5.2069905e+005  4.5900000e+002
  3.8110000e+002  4.9385198e+005  1.4530000e+003
  2.1820000e+002  5.1385958e+005  5.9900000e+002
