  1.1950171e-001  0.0000000e+000  1.8404908e-002
  1.2355880e-001  0.0000000e+000  2.5000000e-001
  1.6025679e-001  0.0000000e+000  5.9288538e-003
  2.1950149e-002  0.0000000e+000  4.5741325e-002
  1.3510192e-001  0.0000000e+000  4.6218487e-002
  1.5538401e-001  3.0059119e-004  7.5714286e-002
  2.4535016e-001  1.0860321e-003  4.4552945e-001
  1.2900235e-001  3.7221814e-005  0.0000000e+000
  1.2439753e-001  2.9835409e-004  1.0526316e-001
  7.4948107e-003  0.0000000e+000  7.4130106e-002
  1.6200779e-001  6.9385850e-004  4.6893491e-001
  1.4825933e-002  0.0000000e+000  9.9778271e-003
  1.7681242e-001  2.9192185e-004  9.0040928e-002
  1.2562333e-001  5.5125256e-004  4.3896424e-001
  1.3646803e-001  5.6051772e-004  1.1449677e-001
  4.2567270e-001  6.8281462e-004  4.4088775e-001
  1.9833122e-001  1.2754442e-004  6.6485753e-002
  3.2349734e-002  1.2641902e-004  7.9903148e-002
  1.3240911e-001  0.0000000e+000  4.1322314e-003
  9.0514373e-002  0.0000000e+000  2.3498695e-002
  1.3499826e-001  0.0000000e+000  6.2937063e-002
  1.1881965e-001  1.2357385e-004  1.0344828e-001
  4.6882414e-002  1.2693489e-004  9.0419806e-002
  4.0240811e-001  1.1358569e-003  4.4748306e-001
  2.4357386e-001  9.7507796e-004  5.2148438e-001
  1.5232185e-001  2.9838789e-004  1.2114537e-001
  1.1204416e-001  0.0000000e+000  2.5316456e-003
  2.8327429e-001  9.3874971e-004  4.5284738e-001
  1.6569714e-001  7.2358106e-004  5.1656687e-001
  3.7966217e-001  1.1119452e-003  5.1867704e-001
  1.3376482e-001  1.2176858e-004  6.8728522e-002
  7.8354247e-002  0.0000000e+000  4.3290043e-003
  3.5364611e-001  6.8001491e-004  4.5470852e-001
  1.2922000e-001  2.1248596e-004  4.6250000e-002
  3.7266012e-001  7.6875915e-004  4.8646558e-001
