  0.0000000e+000  2.4080000e+002  3.1300000e+002
  0.0000000e+000  3.3712000e+002  7.2600000e+002
  0.0000000e+000  3.7324000e+002  6.3900000e+002
  0.0000000e+000  2.9103830e-011  1.3000000e+001
  0.0000000e+000  2.9103830e-011  1.0000000e+001
  0.0000000e+000  2.0468000e+002  2.8700000e+002
  0.0000000e+000  0.0000000e+000  0.0000000e+000
  0.0000000e+000  0.0000000e+000  1.0000000e+000
  0.0000000e+000  5.2976000e+002  5.3600000e+002
  0.0000000e+000  2.0468000e+002  3.0400000e+002
  0.0000000e+000  7.2240000e+001  8.3000000e+001
  0.0000000e+000  1.2040000e+001  5.9000000e+001
  0.0000000e+000  2.0468000e+002  0.0000000e+000
  0.0000000e+000  3.6120000e+001  4.0000000e+000
  0.0000000e+000  1.3244000e+002  6.5000000e+001
