  4.7200000e+002  8.6880000e+001  9.5500000e+002
  8.0000000e+001  1.0425600e+003  5.9000000e+001
  8.0000000e+000  3.4924597e-010  1.8900000e+002
  8.0000000e+001  1.0208400e+003  7.0000000e+001
  0.0000000e+000  2.3283064e-010  5.3300000e+002
  2.2400000e+002  2.3283064e-010  5.9600000e+002
  7.2000000e+001  2.3283064e-010  3.3500000e+002
  2.4000000e+002  1.1641532e-010  3.3000000e+002
  9.6000000e+001  4.5612000e+002  1.6800000e+002
  1.6000000e+001  2.3283064e-010  2.9000000e+002
  1.6000000e+001  2.3283064e-010  3.7400000e+002
  5.3292416e+002  2.1720000e+001  1.0750000e+003
  9.6000000e+001  1.9548000e+002  4.0000000e+001
  3.1955862e+002  1.5204000e+002  4.3600000e+002
  8.0000000e+000  2.3283064e-010  3.5300000e+002
  1.5200000e+002  2.3283064e-010  2.8900000e+002
  1.8400000e+002  2.3283064e-010  2.9400000e+002
  5.6000000e+001  3.4752000e+002  5.6000000e+001
  2.0000000e+001  1.1641532e-010  5.2600000e+002
  9.6000000e+001  3.4924597e-010  4.3300000e+002
