  8.2738972e+002  3.5587630e+005  1.6380000e+003
  1.7483007e+003  3.6566809e+005  4.0600000e+002
  1.5911936e+003  3.6535984e+005  5.1300000e+002
  2.3700746e+002  3.5273455e+005  3.1180000e+003
  6.8388516e+002  3.5362289e+005  1.7280000e+003
  2.5653303e+003  3.6936565e+005  2.0200000e+002
  4.9475417e+003  4.0027107e+005  0.0000000e+000
  1.0879300e+003  3.5569625e+005  1.1540000e+003
  1.3139642e+003  3.5633022e+005  8.4700000e+002
  5.0648707e+002  3.4267736e+005  3.6100000e+003
  1.2085348e+003  3.5806054e+005  9.2300000e+002
  2.4500746e+002  3.4432540e+005  3.1930000e+003
  1.0379635e+003  3.5819815e+005  1.3130000e+003
  3.7701995e+002  3.6503528e+005  2.1920000e+003
  6.8116029e+002  3.5134076e+005  2.3210000e+003
  1.3385719e+003  3.5823736e+005  8.0600000e+002
  6.7354296e+002  3.2950587e+005  2.8060000e+003
  0.0000000e+000  3.7592852e+005  4.2280000e+003
  7.4723460e+002  3.5569280e+005  1.7570000e+003
  9.7958076e+002  3.3921758e+005  2.6960000e+003
  2.1213443e+003  3.6625703e+005  3.3700000e+002
  2.4159633e+002  3.6410709e+005  2.4760000e+003
  8.6449058e+002  3.2316581e+005  3.2820000e+003
  5.1828768e+002  3.6006643e+005  1.9670000e+003
  4.1537581e+002  3.5979856e+005  1.9540000e+003
  5.1894949e+002  3.5362060e+005  2.0650000e+003
  1.6319839e+002  3.7650449e+005  3.7150000e+003
  8.7951047e+002  3.2605915e+005  2.6680000e+003
  4.4866900e+002  3.5813767e+005  2.8890000e+003
  3.3908029e+003  3.8033811e+005  1.1400000e+002
  1.4437197e+003  3.5646651e+005  7.3400000e+002
  5.7567960e+002  3.6767606e+005  1.9050000e+003
  9.1112454e+002  3.4550133e+005  2.4020000e+003
  1.9134940e+003  3.6194663e+005  4.5100000e+002
  0.0000000e+000  3.9907452e+005  3.6140000e+003
