  0.0000000e+000  2.3396000e+002  3.6500000e+002
  0.0000000e+000  6.2020000e+002  2.1900000e+002
  0.0000000e+000  4.3440000e+002  4.0000000e+000
  0.0000000e+000  4.6816000e+002  2.0300000e+002
  0.0000000e+000  2.4080000e+001  2.5300000e+002
  0.0000000e+000  6.2988000e+002  0.0000000e+000
  0.0000000e+000  5.6944000e+002  0.0000000e+000
  0.0000000e+000  5.6472000e+002  4.0000000e+000
  0.0000000e+000  1.8580000e+002  3.5000000e+002
  0.0000000e+000  4.5848000e+002  4.0600000e+002
  0.0000000e+000  4.5612000e+002  6.8000000e+001
  0.0000000e+000  9.8920000e+001  3.4400000e+002
  0.0000000e+000  4.5848000e+002  3.1700000e+002
  0.0000000e+000  4.3440000e+002  5.0000000e+000
  0.0000000e+000  2.9440000e+002  3.9200000e+002
