  0.0000000e+000  1.6497508e-004  5.9171598e-002
  0.0000000e+000  0.0000000e+000  5.6179775e-003
  0.0000000e+000  0.0000000e+000  0.0000000e+000
  0.0000000e+000  4.1905479e-003  0.0000000e+000
  0.0000000e+000  3.3118119e-004  1.6055046e-002
  0.0000000e+000  3.7635720e-003  1.5612802e-001
  0.0000000e+000  0.0000000e+000  0.0000000e+000
  0.0000000e+000  1.0869334e-003  0.0000000e+000
  0.0000000e+000  5.1373240e-003  0.0000000e+000
  0.0000000e+000  4.9468359e-003  1.2500000e-002
  0.0000000e+000  5.9790529e-003  0.0000000e+000
  0.0000000e+000  6.2294019e-004  0.0000000e+000
