  0.0000000e+000  1.4554182e+005  5.1000000e+002
  1.6768993e+003  1.6164894e+005  1.1000000e+001
  0.0000000e+000  1.3900721e+005  6.4100000e+002
  3.5899121e+002  1.6776532e+005  1.1000000e+001
  0.0000000e+000  1.7024011e+005  7.0000000e+000
  0.0000000e+000  1.5698446e+005  2.2000000e+001
  4.3065609e+002  1.4986632e+005  1.1900000e+002
  0.0000000e+000  1.4821615e+005  1.7900000e+002
  4.1165609e+002  1.4243402e+005  5.1500000e+002
  0.0000000e+000  1.7159502e+005  0.0000000e+000
  0.0000000e+000  1.5635977e+005  3.3000000e+001
