  0.0000000e+000  4.3509040e-003  1.7948718e-001
  0.0000000e+000  3.1373991e-003  1.7554479e-001
  0.0000000e+000  0.0000000e+000  1.5377698e-001
  0.0000000e+000  2.4452927e-003  1.7519182e-001
  0.0000000e+000  4.5236730e-003  0.0000000e+000
  0.0000000e+000  3.5076298e-004  9.0676884e-002
  0.0000000e+000  5.3920236e-003  1.8772563e-001
  0.0000000e+000  5.4389381e-003  1.8633540e-001
  0.0000000e+000  3.2979281e-003  1.1174785e-001
  0.0000000e+000  4.2172404e-003  0.0000000e+000
  0.0000000e+000  1.7622646e-003  1.0607940e-001
