  0.0000000e+000  1.5257914e+005  1.4100000e+002
  0.0000000e+000  1.6061053e+005  8.6000000e+001
  0.0000000e+000  1.3251733e+005  1.3910000e+003
  0.0000000e+000  1.3194309e+005  1.5320000e+003
  0.0000000e+000  1.3868117e+005  9.9600000e+002
  0.0000000e+000  1.4659455e+005  2.9900000e+002
  0.0000000e+000  1.3922573e+005  7.1400000e+002
  0.0000000e+000  1.6362496e+005  2.4000000e+001
  0.0000000e+000  1.8292338e+005  0.0000000e+000
