  4.8000000e+001  4.8160000e+001  2.3800000e+002
  7.9791667e+001  1.0177600e+003  5.6000000e+001
  8.0000000e+001  4.7784000e+002  7.9000000e+001
  4.0000000e+001  1.7016000e+002  2.7500000e+002
  8.0000000e+001  4.7784000e+002  6.7000000e+001
  6.4000000e+001  7.3848000e+002  1.0200000e+002
  4.8000000e+001  6.7332000e+002  4.0000000e+001
  2.4000000e+001  6.2988000e+002  0.0000000e+000
  1.2055009e+002  8.9240000e+002  0.0000000e+000
  6.4000000e+001  3.6924000e+002  9.4000000e+001
  8.0000000e+000  1.7376000e+002  1.0500000e+002
  2.1162043e+001  9.5992000e+002  2.8100000e+002
  6.4000000e+001  4.5612000e+002  2.6000000e+001
  7.2000000e+001  6.4428000e+002  5.3000000e+001
  1.6000000e+001  1.0850400e+003  2.1000000e+002
  6.4000000e+001  3.7532000e+002  3.0700000e+002
  0.0000000e+000  1.1554000e+003  2.8100000e+002
  3.2000000e+001  5.8644000e+002  0.0000000e+000
