  1.4487170e-002  3.7874180e-004  0.0000000e+000
  1.7648732e-002  0.0000000e+000  3.2173913e-001
  1.9419142e-002  1.1102230e-016  1.7882353e-001
  1.8603622e-002  6.7919616e-004  0.0000000e+000
  1.2615711e-002  2.6251577e-003  2.0757209e-001
  1.7463647e-002  0.0000000e+000  1.4690529e-001
  1.6020698e-002  3.3139320e-005  1.6885785e-001
  1.6789508e-002  1.2670462e-004  2.1960298e-001
  2.7229094e-002  2.4454103e-004  1.8957904e-001
  2.3150938e-002  1.2915122e-004  1.3689218e-001
  1.0645953e-001  4.4039966e-003  3.0605670e-001
  1.5526564e-002  1.0030622e-004  1.5745008e-001
  2.6226720e-002  2.3615322e-004  1.8414634e-001
  1.9239741e-002  1.5882510e-003  2.0552819e-001
  8.4240362e-003  1.5190718e-003  2.2228588e-001
  2.3896493e-002  9.7277293e-005  1.5421399e-001
  1.3469616e-002  4.7417089e-004  1.8638526e-001
  1.6741358e-002  1.9719043e-004  2.1710999e-001
  1.9805234e-002  6.1956762e-004  0.0000000e+000
  8.0808844e-002  3.0668579e-003  2.2663317e-001
  1.8387475e-002  1.8788298e-003  2.3807182e-001
  1.5996958e-002  4.7742663e-004  0.0000000e+000
  2.6936218e-002  1.0434844e-004  1.7751479e-001
