  1.0620000e+002  6.5160000e+001  4.6000000e+001
  4.8000000e+001  2.1720000e+001  1.5000000e+001
  4.5000000e+001  0.0000000e+000  1.2000000e+001
  7.1000000e+001  1.1641532e-010  5.0000000e+000
  1.0746737e+002  1.1641532e-010  1.9000000e+001
  4.0000000e+001  4.3440000e+001  0.0000000e+000
  4.8000000e+001  2.1720000e+001  1.4300000e+002
  9.6000000e+001  0.0000000e+000  8.3000000e+001
  1.1200000e+002  2.1720000e+001  1.0000000e+000
  5.6000000e+001  4.3440000e+001  1.7100000e+002
  1.1200000e+002  2.3283064e-010  3.0000000e+000
  4.3467370e+001  4.3440000e+001  2.5000000e+001
  6.1720410e+001  2.1720000e+001  0.0000000e+000
  1.4140000e+002  2.1720000e+001  1.1400000e+002
  1.0400000e+002  0.0000000e+000  1.0000000e+002
  1.4579390e+002  0.0000000e+000  1.0000000e+000
  8.8093900e+001  2.3283064e-010  1.0000000e+001
