  5.6000000e+001  0.0000000e+000  5.3000000e+001
  4.0000000e+001  0.0000000e+000  1.4500000e+002
  0.0000000e+000  0.0000000e+000  1.2900000e+002
  2.4000000e+002  2.1720000e+001  4.5000000e+002
  3.3184694e+002  2.3283064e-010  4.3600000e+002
  4.8000000e+001  2.3283064e-010  1.9000000e+001
  1.3629390e+002  1.1641532e-010  8.9000000e+001
  1.6000000e+001  2.3283064e-010  1.7000000e+002
  2.4000000e+001  1.1641532e-010  0.0000000e+000
  3.3600000e+002  0.0000000e+000  4.4600000e+002
  1.5794694e+002  2.3283064e-010  2.8000000e+002
  1.6000000e+001  1.1641532e-010  2.5000000e+001
  2.8879590e+001  2.1720000e+001  1.3400000e+002
  4.5567300e+001  2.1720000e+001  0.0000000e+000
  5.6000000e+001  1.1641532e-010  1.0700000e+002
  4.0000000e+001  1.1641532e-010  7.0000000e+000
  8.8000000e+001  2.1720000e+001  4.0000000e+000
  1.2041000e-001  8.6880000e+001  2.3300000e+002
  0.0000000e+000  2.1720000e+001  7.0000000e+000
  4.8000000e+001  0.0000000e+000  1.2500000e+002
  0.0000000e+000  1.1641532e-010  1.7100000e+002
  0.0000000e+000  1.1641532e-010  1.7100000e+002
  0.0000000e+000  2.1720000e+001  6.4000000e+001
  8.7920410e+001  2.3283064e-010  1.0400000e+002
