  8.0000000e+001  0.0000000e+000  5.3000000e+001
  5.6000000e+001  1.1641532e-010  1.4300000e+002
  7.2000000e+001  0.0000000e+000  1.6000000e+001
  4.8000000e+001  1.1641532e-010  1.3000000e+001
  0.0000000e+000  1.1641532e-010  2.3000000e+001
  4.8000000e+001  0.0000000e+000  3.9000000e+001
  1.3600000e+002  1.1641532e-010  1.8000000e+001
  4.0000000e+001  2.3283064e-010  9.0000000e+000
  8.8000000e+001  2.3283064e-010  1.7000000e+001
  3.2000000e+001  2.3283064e-010  4.3000000e+001
  8.0000000e+001  1.1641532e-010  1.4000000e+001
  5.4900000e+001  0.0000000e+000  0.0000000e+000
  5.6000000e+001  2.3283064e-010  1.3000000e+001
  7.7700000e+001  0.0000000e+000  0.0000000e+000
  1.3390000e+002  1.1641532e-010  0.0000000e+000
  5.6000000e+001  2.3283064e-010  7.0000000e+000
  1.3700000e+002  1.1641532e-010  0.0000000e+000
  7.2000000e+001  1.1641532e-010  7.2000000e+001
  3.2000000e+001  1.1641532e-010  5.1000000e+001
  2.4000000e+001  1.1641532e-010  1.2600000e+002
  9.6000000e+001  1.1641532e-010  0.0000000e+000
  2.4000000e+001  0.0000000e+000  1.9000000e+001
  5.6000000e+001  1.1641532e-010  2.0000000e+000
  4.0000000e+001  1.1641532e-010  0.0000000e+000
  2.0000000e+002  2.1720000e+002  0.0000000e+000
  1.4600000e+002  1.1641532e-010  0.0000000e+000
  8.8000000e+001  0.0000000e+000  2.2000000e+001
  1.9760000e+002  3.4924597e-010  0.0000000e+000
  6.5600000e+001  2.3283064e-010  9.0000000e+000
  9.6000000e+001  1.1641532e-010  2.3000000e+001
  1.3860000e+002  1.1641532e-010  0.0000000e+000
  4.8000000e+001  2.3283064e-010  5.4000000e+001
  1.2000000e+002  2.3283064e-010  8.0000000e+000
  5.0300000e+001  1.1641532e-010  7.1000000e+001
  1.6000000e+001  2.3283064e-010  6.7000000e+001
  1.2000000e+002  2.3283064e-010  8.5000000e+001
  4.8000000e+001  2.3283064e-010  3.2000000e+001
  9.6000000e+001  1.1641532e-010  0.0000000e+000
  2.4000000e+001  1.1641532e-010  1.1500000e+002
  5.6000000e+001  1.1641532e-010  8.0000000e+000
  9.4200000e+001  0.0000000e+000  2.1000000e+001
  3.2000000e+001  0.0000000e+000  1.5000000e+001
  1.2800000e+002  1.0860000e+002  0.0000000e+000
  2.8890000e+002  2.3283064e-010  2.1300000e+002
  1.6000000e+002  1.0860000e+002  0.0000000e+000
  1.6000000e+002  4.3440000e+001  0.0000000e+000
  3.2000000e+001  3.4924597e-010  1.4900000e+002
  7.0200000e+001  0.0000000e+000  8.0000000e+001
  8.0000000e+000  2.3283064e-010  4.5000000e+001
  3.2000000e+001  2.3283064e-010  2.0000000e+001
  7.2000000e+001  2.3283064e-010  0.0000000e+000
  4.0000000e+001  1.1641532e-010  9.0000000e+000
