  5.5706043e+003  3.6327117e+005  0.0000000e+000
  8.2322720e+001  3.0236800e+005  1.2040000e+003
  1.1606370e+003  2.9189767e+005  2.1860000e+003
  2.1465004e+002  2.9535476e+005  2.2200000e+003
  5.8315012e+003  3.6070022e+005  5.0000000e+000
  5.6746043e+003  3.6323505e+005  0.0000000e+000
  3.5073096e+003  3.5102561e+005  5.8000000e+001
  1.3986627e+003  3.1809664e+005  5.2500000e+002
  2.0891924e+003  3.3226152e+005  5.2300000e+002
  9.1841930e+002  2.9988701e+005  1.1170000e+003
  5.5229885e+003  3.6324624e+005  1.6000000e+001
  3.6233405e+003  3.4986351e+005  8.7000000e+001
  1.3456682e+003  3.1164505e+005  7.7900000e+002
  2.6627114e+002  2.9571469e+005  1.9320000e+003
  1.4226780e+003  3.3963740e+005  9.7000000e+001
  1.8823772e+002  3.0244278e+005  1.0820000e+003
  2.0891924e+003  3.3226152e+005  5.2300000e+002
  7.3467884e+002  3.0264462e+005  7.5600000e+002
  4.3251676e+002  2.9679486e+005  1.6370000e+003
  1.3129557e+003  2.9532005e+005  1.7690000e+003
