  2.8795795e+003  3.4043220e+005  1.1100000e+002
  8.8508939e+003  3.7438199e+005  0.0000000e+000
  2.2800755e+003  3.4195790e+005  1.6700000e+002
  2.3459697e+003  3.4085191e+005  4.8500000e+002
  9.1318183e+003  3.7287026e+005 -1.0000000e+000
  8.9180274e+003  3.7525880e+005 -6.0000000e+000
  4.7130603e+003  3.4880371e+005  1.6000000e+001
  7.5208389e+003  3.6852242e+005  5.2000000e+001
  2.8795795e+003  3.4043220e+005  1.0600000e+002
  4.5423187e+003  3.5761398e+005  1.4100000e+002
  4.6447248e+003  3.5320407e+005  1.4000000e+001
  8.8700274e+003  3.7373469e+005 -5.0000000e+000
  7.5048389e+003  3.6271979e+005  3.5000000e+001
  7.4162138e+003  3.6795989e+005  4.0000000e+000
  2.5349800e+003  3.4496546e+005  2.8300000e+002
  8.0317889e+003  3.7010618e+005  6.2000000e+001
  2.3120755e+003  3.4212646e+005  2.4600000e+002
  7.9840325e+003  3.7027474e+005  1.3100000e+002
  4.5423187e+003  3.5761398e+005  1.8800000e+002
  2.8475795e+003  3.4578610e+005  1.4100000e+002
