  1.2959458e-003  1.1102230e-016  2.5605853e-002
  1.3897788e-002  2.4980721e-004  0.0000000e+000
  2.8363275e-003  1.1102230e-016  3.2546786e-002
  2.2467883e-002  4.8228105e-004  5.6066946e-001
  1.2959458e-003  1.1102230e-016  4.0923640e-002
  1.3600948e-002  4.6858532e-004  5.7202505e-001
  4.4680792e-003  1.1102230e-016  3.6677632e-001
  1.6104959e-003  0.0000000e+000  6.0709705e-002
  2.8320933e-003  0.0000000e+000  1.9138756e-001
  0.0000000e+000  0.0000000e+000  0.0000000e+000
  1.2406911e-002  1.1274202e-004  8.2049565e-002
  1.4073775e-002  3.3306691e-016  1.2055911e-001
  9.2388381e-004  1.1102230e-016  5.7853630e-003
  1.0183978e-002  0.0000000e+000  7.9759863e-002
  2.5117355e-003  1.1170091e-004  3.0782509e-002
  1.3147583e-002  4.4392293e-004  5.6993737e-001
  8.0554976e-003  1.1105842e-004  3.2959073e-002
  5.6726550e-003  1.1102230e-016  2.8207215e-002
  1.0287474e-002  3.0800916e-004  6.7346939e-001
  8.8440471e-003  1.5019679e-004  1.0000000e+000
