%!PS-Adobe-2.0 EPSF-1.2
%%Creator: MATLAB, The Mathworks, Inc. Version 7.8.0.347 (R2009a). Operating System: Linux 3.13.0-30-generic #54-Ubuntu SMP Mon Jun 9 22:45:01 UTC 2014 i686.
%%Title: ./output/fig.100_10_1_75_4.L.log.p4.txt.sch3-(75-500)-ejec2-Best trade-off (nearest ideal vector).fig.eps
%%CreationDate: 07/03/2014  15:26:04
%%DocumentNeededFonts: Helvetica
%%DocumentProcessColors: Cyan Magenta Yellow Black
%%Extensions: CMYK
%%Pages: 1
%%BoundingBox:    49   199   551   591
%%EndComments

%%BeginProlog
% MathWorks dictionary
/MathWorks 160 dict begin
% definition operators
/bdef {bind def} bind def
/ldef {load def} bind def
/xdef {exch def} bdef
/xstore {exch store} bdef
% operator abbreviations
/c  /clip ldef
/cc /concat ldef
/cp /closepath ldef
/gr /grestore ldef
/gs /gsave ldef
/mt /moveto ldef
/np /newpath ldef
/cm /currentmatrix ldef
/sm /setmatrix ldef
/rm /rmoveto ldef
/rl /rlineto ldef
/s {show newpath} bdef
/sc {setcmykcolor} bdef
/sr /setrgbcolor ldef
/sg /setgray ldef
/w /setlinewidth ldef
/j /setlinejoin ldef
/cap /setlinecap ldef
/rc {rectclip} bdef
/rf {rectfill} bdef
% page state control
/pgsv () def
/bpage {/pgsv save def} bdef
/epage {pgsv restore} bdef
/bplot /gsave ldef
/eplot {stroke grestore} bdef
% orientation switch
/portraitMode 0 def /landscapeMode 1 def /rotateMode 2 def
% coordinate system mappings
/dpi2point 0 def
% font control
/FontSize 0 def
/FMS {/FontSize xstore findfont [FontSize 0 0 FontSize neg 0 0]
  makefont setfont} bdef
/reencode {exch dup where {pop load} {pop StandardEncoding} ifelse
  exch dup 3 1 roll findfont dup length dict begin
  { 1 index /FID ne {def}{pop pop} ifelse } forall
  /Encoding exch def currentdict end definefont pop} bdef
/isroman {findfont /CharStrings get /Agrave known} bdef
/FMSR {3 1 roll 1 index dup isroman {reencode} {pop pop} ifelse
  exch FMS} bdef
/csm {1 dpi2point div -1 dpi2point div scale neg translate
 dup landscapeMode eq {pop -90 rotate}
  {rotateMode eq {90 rotate} if} ifelse} bdef
% line types: solid, dotted, dashed, dotdash
/SO { [] 0 setdash } bdef
/DO { [.5 dpi2point mul 4 dpi2point mul] 0 setdash } bdef
/DA { [6 dpi2point mul] 0 setdash } bdef
/DD { [.5 dpi2point mul 4 dpi2point mul 6 dpi2point mul 4
  dpi2point mul] 0 setdash } bdef
% macros for lines and objects
/L {lineto stroke} bdef
/MP {3 1 roll moveto 1 sub {rlineto} repeat} bdef
/AP {{rlineto} repeat} bdef
/PDlw -1 def
/W {/PDlw currentlinewidth def setlinewidth} def
/PP {closepath eofill} bdef
/DP {closepath stroke} bdef
/MR {4 -2 roll moveto dup  0 exch rlineto exch 0 rlineto
  neg 0 exch rlineto closepath} bdef
/FR {MR stroke} bdef
/PR {MR fill} bdef
/L1i {{currentfile picstr readhexstring pop} image} bdef
/tMatrix matrix def
/MakeOval {newpath tMatrix currentmatrix pop translate scale
0 0 1 0 360 arc tMatrix setmatrix} bdef
/FO {MakeOval stroke} bdef
/PO {MakeOval fill} bdef
/PD {currentlinewidth 2 div 0 360 arc fill
   PDlw -1 eq not {PDlw w /PDlw -1 def} if} def
/FA {newpath tMatrix currentmatrix pop translate scale
  0 0 1 5 -2 roll arc tMatrix setmatrix stroke} bdef
/PA {newpath tMatrix currentmatrix pop	translate 0 0 moveto scale
  0 0 1 5 -2 roll arc closepath tMatrix setmatrix fill} bdef
/FAn {newpath tMatrix currentmatrix pop translate scale
  0 0 1 5 -2 roll arcn tMatrix setmatrix stroke} bdef
/PAn {newpath tMatrix currentmatrix pop translate 0 0 moveto scale
  0 0 1 5 -2 roll arcn closepath tMatrix setmatrix fill} bdef
/vradius 0 def /hradius 0 def /lry 0 def
/lrx 0 def /uly 0 def /ulx 0 def /rad 0 def
/MRR {/vradius xdef /hradius xdef /lry xdef /lrx xdef /uly xdef
  /ulx xdef newpath tMatrix currentmatrix pop ulx hradius add uly
  vradius add translate hradius vradius scale 0 0 1 180 270 arc 
  tMatrix setmatrix lrx hradius sub uly vradius add translate
  hradius vradius scale 0 0 1 270 360 arc tMatrix setmatrix
  lrx hradius sub lry vradius sub translate hradius vradius scale
  0 0 1 0 90 arc tMatrix setmatrix ulx hradius add lry vradius sub
  translate hradius vradius scale 0 0 1 90 180 arc tMatrix setmatrix
  closepath} bdef
/FRR {MRR stroke } bdef
/PRR {MRR fill } bdef
/MlrRR {/lry xdef /lrx xdef /uly xdef /ulx xdef /rad lry uly sub 2 div def
  newpath tMatrix currentmatrix pop ulx rad add uly rad add translate
  rad rad scale 0 0 1 90 270 arc tMatrix setmatrix lrx rad sub lry rad
  sub translate rad rad scale 0 0 1 270 90 arc tMatrix setmatrix
  closepath} bdef
/FlrRR {MlrRR stroke } bdef
/PlrRR {MlrRR fill } bdef
/MtbRR {/lry xdef /lrx xdef /uly xdef /ulx xdef /rad lrx ulx sub 2 div def
  newpath tMatrix currentmatrix pop ulx rad add uly rad add translate
  rad rad scale 0 0 1 180 360 arc tMatrix setmatrix lrx rad sub lry rad
  sub translate rad rad scale 0 0 1 0 180 arc tMatrix setmatrix
  closepath} bdef
/FtbRR {MtbRR stroke } bdef
/PtbRR {MtbRR fill } bdef
/stri 6 array def /dtri 6 array def
/smat 6 array def /dmat 6 array def
/tmat1 6 array def /tmat2 6 array def /dif 3 array def
/asub {/ind2 exch def /ind1 exch def dup dup
  ind1 get exch ind2 get sub exch } bdef
/tri_to_matrix {
  2 0 asub 3 1 asub 4 0 asub 5 1 asub
  dup 0 get exch 1 get 7 -1 roll astore } bdef
/compute_transform {
  dmat dtri tri_to_matrix tmat1 invertmatrix 
  smat stri tri_to_matrix tmat2 concatmatrix } bdef
/ds {stri astore pop} bdef
/dt {dtri astore pop} bdef
/db {2 copy /cols xdef /rows xdef mul dup 3 mul string
  currentfile exch readhexstring pop
  dup 0 3 index getinterval /rbmap xdef
  dup 2 index dup getinterval /gbmap xdef
  1 index dup 2 mul exch getinterval /bbmap xdef pop pop}bdef
/it {gs np dtri aload pop moveto lineto lineto cp c
  cols rows 8 compute_transform 
  rbmap gbmap bbmap true 3 colorimage gr}bdef
/il {newpath moveto lineto stroke}bdef
currentdict end def
%%EndProlog

%%BeginSetup
MathWorks begin

0 cap

end
%%EndSetup

%%Page: 1 1
%%BeginPageSetup
%%PageBoundingBox:    49   199   551   591
MathWorks begin
bpage
%%EndPageSetup

%%BeginObject: obj1
bplot

/dpi2point 12 def
portraitMode 0216 7344 csm

  380   247  6024  4708 MR c np
85 dict begin %Colortable dictionary
/c0 { 0.000000 0.000000 0.000000 sr} bdef
/c1 { 1.000000 1.000000 1.000000 sr} bdef
/c2 { 0.900000 0.000000 0.000000 sr} bdef
/c3 { 0.000000 0.820000 0.000000 sr} bdef
/c4 { 0.000000 0.000000 0.800000 sr} bdef
/c5 { 0.910000 0.820000 0.320000 sr} bdef
/c6 { 1.000000 0.260000 0.820000 sr} bdef
/c7 { 0.000000 0.820000 0.820000 sr} bdef
c0
1 j
1 sg
   0    0 6913 5186 PR
6 w
0 1118 5356 0 0 -1118 899 1507 4 MP
PP
-5356 0 0 1118 5356 0 0 -1118 899 1507 5 MP stroke
4 w
DO
SO
6 w
0 sg
 899 1507 mt 6255 1507 L
 899  389 mt 6255  389 L
 899 1507 mt  899  389 L
6255 1507 mt 6255  389 L
 899 1507 mt 6255 1507 L
 899 1507 mt  899  389 L
 899 1507 mt  899 1453 L
 899  389 mt  899  442 L
%%IncludeResource: font Helvetica
/Helvetica /ISOLatin1Encoding 120 FMSR

 866 1652 mt 
(0) s
2684 1507 mt 2684 1453 L
2684  389 mt 2684  442 L
2618 1652 mt 
(50) s
4469 1507 mt 4469 1453 L
4469  389 mt 4469  442 L
4369 1652 mt 
(100) s
6255 1507 mt 6255 1453 L
6255  389 mt 6255  442 L
6155 1652 mt 
(150) s
 899 1507 mt  952 1507 L
6255 1507 mt 6201 1507 L
 798 1551 mt 
(0) s
 899 1227 mt  952 1227 L
6255 1227 mt 6201 1227 L
 598 1271 mt 
(1000) s
 899  948 mt  952  948 L
6255  948 mt 6201  948 L
 598  992 mt 
(2000) s
 899  668 mt  952  668 L
6255  668 mt 6201  668 L
 598  712 mt 
(3000) s
 899  389 mt  952  389 L
6255  389 mt 6201  389 L
 598  433 mt 
(4000) s
 899 1507 mt 6255 1507 L
 899  389 mt 6255  389 L
 899 1507 mt  899  389 L
6255 1507 mt 6255  389 L
gs 899 389 5357 1119 MR c np
36 -456 36 71 36 -71 35 0 36 60 36 -60 35 40 36 -40 
36 100 36 -100 35 0 36 0 36 90 35 16 36 -106 36 0 
36 643 35 -600 36 -43 36 0 35 108 36 535 36 -641 35 91 
36 550 36 -643 36 57 35 -10 36 -47 36 106 35 -3 36 -78 
36 72 36 -97 35 23 36 42 36 18 35 -83 36 81 36 -81 
35 0 36 0 36 0 36 0 35 0 36 0 36 0 35 0 
36 20 36 623 36 456 35 0 36 -643 36 643 35 -565 36 565 
36 -643 35 62 36 581 36 0 36 -615 35 615 36 0 36 -643 
35 643 36 0 36 -643 36 0 35 643 36 -643 36 68 35 575 
36 -643 36 643 35 -643 36 12 36 89 36 -101 35 0 36 643 
36 -561 35 -82 36 0 36 643 36 -643 35 15 36 247 36 381 
35 -643 36 643 36 -643 36 0 35 643 36 0 36 -643 35 643 
36 -643 36 643 35 -605 2720 1013 100 MP stroke
36 -494 36 0 36 0 35 0 36 20 36 -20 35 5 36 -5 
36 0 36 74 35 -51 36 -23 36 0 35 57 36 -57 36 45 
35 -45 36 0 36 0 36 0 35 100 36 90 36 -190 35 74 
36 41 36 -30 36 -35 35 -16 36 63 36 -97 35 59 36 -59 
36 21 35 -21 36 0 36 0 36 104 35 4 36 -108 36 0 
35 509 36 -469 36 157 36 -107 35 467 36 -101 36 -456 35 315 
36 -64 36 -136 934 1392 51 MP stroke
DD
/c8 { 0.000000 0.000000 1.000000 sr} bdef
c8
36 0 36 0 36 0 35 0 36 0 36 0 35 0 36 0 
36 0 36 0 35 0 36 0 36 0 35 0 36 0 36 0 
36 0 35 0 36 0 36 0 35 0 36 0 36 0 35 0 
36 0 36 0 36 0 35 0 36 0 36 0 35 0 36 0 
36 0 36 0 35 0 36 0 36 0 35 0 36 0 36 0 
35 0 36 0 36 0 36 0 35 0 36 0 36 0 35 0 
36 0 36 708 36 0 35 0 36 0 36 0 35 0 36 0 
36 0 35 0 36 0 36 0 36 0 35 0 36 0 36 0 
35 0 36 0 36 0 36 0 35 0 36 0 36 0 35 0 
36 0 36 0 35 0 36 0 36 0 36 0 35 0 36 0 
36 0 35 0 36 0 36 0 36 0 35 0 36 0 36 0 
35 0 36 0 36 0 36 0 35 0 36 0 36 0 35 0 
36 0 36 0 35 0 2720 563 100 MP stroke
36 -708 36 0 36 0 35 0 36 0 36 0 35 0 36 0 
36 0 36 0 35 0 36 0 36 0 35 0 36 0 36 0 
35 0 36 0 36 0 36 0 35 0 36 0 36 0 35 0 
36 0 36 0 36 0 35 0 36 0 36 0 35 0 36 0 
36 0 35 0 36 0 36 0 36 0 35 0 36 0 36 0 
35 0 36 0 36 0 36 0 35 0 36 0 36 0 35 0 
36 0 36 0 934 1271 51 MP stroke
gr

c8
DD
0 sg
 516 1224 mt  -90 rotate
(power \(W\)) s
90 rotate
 882 1550 mt 
( ) s
6239  431 mt 
( ) s
SO
1 sg
0 306 1280 0 0 -306 4916 755 4 MP
PP
-1280 0 0 306 1280 0 0 -306 4916 755 5 MP stroke
4 w
DO
SO
6 w
0 sg
4916  755 mt 6196  755 L
4916  449 mt 6196  449 L
4916  755 mt 4916  449 L
6196  755 mt 6196  449 L
4916  755 mt 6196  755 L
4916  755 mt 4916  449 L
4916  755 mt 6196  755 L
4916  449 mt 6196  449 L
4916  755 mt 4916  449 L
6196  755 mt 6196  449 L
%%IncludeResource: font Helvetica
/Helvetica /ISOLatin1Encoding 108 FMSR

5348  573 mt 
(actual power) s
gs 4916 449 1281 307 MR c np
332 0 4982 534 2 MP stroke
gr

5348  708 mt 
(reference power) s
gs 4916 449 1281 307 MR c np
DD
c8
332 0 4982 669 2 MP stroke
SO
gr

c8
1 sg
0 1119 5356 0 0 -1119 899 3061 4 MP
PP
-5356 0 0 1119 5356 0 0 -1119 899 3061 5 MP stroke
4 w
DO
SO
6 w
0 sg
 899 3061 mt 6255 3061 L
 899 1942 mt 6255 1942 L
 899 3061 mt  899 1942 L
6255 3061 mt 6255 1942 L
 899 3061 mt 6255 3061 L
 899 3061 mt  899 1942 L
 899 3061 mt  899 3007 L
 899 1942 mt  899 1995 L
%%IncludeResource: font Helvetica
/Helvetica /ISOLatin1Encoding 120 FMSR

 866 3206 mt 
(0) s
2684 3061 mt 2684 3007 L
2684 1942 mt 2684 1995 L
2618 3206 mt 
(50) s
4469 3061 mt 4469 3007 L
4469 1942 mt 4469 1995 L
4369 3206 mt 
(100) s
6255 3061 mt 6255 3007 L
6255 1942 mt 6255 1995 L
6155 3206 mt 
(150) s
 899 3061 mt  952 3061 L
6255 3061 mt 6201 3061 L
 798 3105 mt 
(0) s
 899 2688 mt  952 2688 L
6255 2688 mt 6201 2688 L
 598 2732 mt 
(1000) s
 899 2315 mt  952 2315 L
6255 2315 mt 6201 2315 L
 598 2359 mt 
(2000) s
 899 1942 mt  952 1942 L
6255 1942 mt 6201 1942 L
 598 1986 mt 
(3000) s
 899 3061 mt 6255 3061 L
 899 1942 mt 6255 1942 L
 899 3061 mt  899 1942 L
6255 3061 mt 6255 1942 L
gs 899 1942 5357 1120 MR c np
/c9 { 1.000000 0.000000 0.000000 sr} bdef
c9
36 0 36 95 36 -95 35 0 36 81 36 -81 35 53 36 -53 
36 133 36 -133 35 0 36 0 36 120 35 21 36 -141 36 0 
36 858 35 -800 36 -58 36 0 35 145 36 713 36 -856 35 122 
36 734 36 -858 36 76 35 -13 36 -63 36 141 35 -3 36 -105 
36 96 36 -129 35 31 36 -31 36 111 35 -111 36 107 36 -107 
35 0 36 0 36 0 36 0 35 0 36 0 36 0 35 0 
36 26 36 832 36 0 35 0 36 -858 36 858 35 -754 36 754 
36 -858 35 83 36 775 36 0 36 -820 35 820 36 0 36 -858 
35 858 36 0 36 -858 36 0 35 858 36 -858 36 91 35 767 
36 -858 36 858 35 -858 36 16 36 119 36 -135 35 0 36 858 
36 -748 35 -110 36 0 36 858 36 -858 35 20 36 838 36 0 
35 -858 36 858 36 -857 36 -1 35 858 36 0 36 -858 35 858 
36 -858 36 858 35 -806 2720 3009 100 MP stroke
36 -52 36 0 36 0 35 0 36 27 36 -27 35 7 36 -7 
36 0 36 98 35 -67 36 -31 36 0 35 76 36 -76 36 59 
35 -59 36 0 36 0 36 0 35 134 36 -23 36 -111 35 99 
36 54 36 -40 36 -47 35 -21 36 85 36 -130 35 78 36 -78 
36 28 35 -28 36 0 36 0 36 138 35 6 36 -144 36 0 
35 67 36 -14 36 24 36 43 35 16 36 -136 36 0 35 0 
36 153 36 0 934 2908 51 MP stroke
c8
36 -608 36 0 36 0 35 0 36 0 36 0 35 0 36 0 
36 0 36 0 35 0 36 0 36 0 35 0 36 0 36 0 
36 0 35 0 36 0 36 0 35 0 36 0 36 0 35 0 
36 0 36 0 36 0 35 0 36 0 36 0 35 0 36 0 
36 0 36 0 35 0 36 86 36 -86 35 0 36 0 36 0 
35 0 36 0 36 0 36 0 35 0 36 0 36 0 35 0 
36 0 36 0 36 608 35 0 36 0 36 0 35 0 36 0 
36 0 35 0 36 0 36 0 36 0 35 0 36 0 36 0 
35 0 36 0 36 0 36 0 35 0 36 0 36 0 35 0 
36 0 36 0 35 0 36 0 36 0 36 0 35 0 36 0 
36 0 35 0 36 0 36 0 36 0 35 0 36 -508 36 508 
35 0 36 0 36 0 36 0 35 0 36 0 36 0 35 0 
36 0 36 0 35 0 2720 2453 100 MP stroke
36 -608 36 0 36 0 35 0 36 0 36 0 35 0 36 0 
36 0 36 0 35 0 36 0 36 0 35 0 36 0 36 0 
35 0 36 0 36 0 36 0 35 0 36 143 36 -143 35 0 
36 0 36 0 36 0 35 0 36 0 36 0 35 0 36 0 
36 0 35 0 36 0 36 0 36 0 35 0 36 0 36 0 
35 613 36 -613 36 186 36 -186 35 608 36 0 36 -608 35 420 
36 -239 36 -181 934 3061 51 MP stroke
gr

c8
0 sg
 516 2777 mt  -90 rotate
(power \(W\)) s
90 rotate
 882 3104 mt 
( ) s
6239 1984 mt 
( ) s
1 sg
0 306 1169 0 0 -306 5026 2308 4 MP
PP
-1169 0 0 306 1169 0 0 -306 5026 2308 5 MP stroke
4 w
DO
SO
6 w
0 sg
5026 2308 mt 6195 2308 L
5026 2002 mt 6195 2002 L
5026 2308 mt 5026 2002 L
6195 2308 mt 6195 2002 L
5026 2308 mt 6195 2308 L
5026 2308 mt 5026 2002 L
5026 2308 mt 6195 2308 L
5026 2002 mt 6195 2002 L
5026 2308 mt 5026 2002 L
6195 2308 mt 6195 2002 L
%%IncludeResource: font Helvetica
/Helvetica /ISOLatin1Encoding 108 FMSR

5456 2126 mt 
(cooling power) s
gs 5026 2002 1170 307 MR c np
c9
331 0 5092 2087 2 MP stroke
gr

c9
0 sg
5456 2261 mt 
(server power) s
gs 5026 2002 1170 307 MR c np
c8
331 0 5092 2222 2 MP stroke
gr

c8
1 sg
0 1119 5356 0 0 -1119 899 4615 4 MP
PP
-5356 0 0 1119 5356 0 0 -1119 899 4615 5 MP stroke
4 w
DO
SO
6 w
0 sg
 899 4615 mt 6255 4615 L
 899 3496 mt 6255 3496 L
 899 4615 mt  899 3496 L
6255 4615 mt 6255 3496 L
 899 4615 mt 6255 4615 L
 899 4615 mt  899 3496 L
 899 4615 mt  899 4561 L
 899 3496 mt  899 3549 L
%%IncludeResource: font Helvetica
/Helvetica /ISOLatin1Encoding 120 FMSR

 866 4760 mt 
(0) s
2684 4615 mt 2684 4561 L
2684 3496 mt 2684 3549 L
2618 4760 mt 
(50) s
4469 4615 mt 4469 4561 L
4469 3496 mt 4469 3549 L
4369 4760 mt 
(100) s
6255 4615 mt 6255 4561 L
6255 3496 mt 6255 3549 L
6155 4760 mt 
(150) s
 899 4615 mt  952 4615 L
6255 4615 mt 6201 4615 L
 731 4659 mt 
(25) s
 899 4335 mt  952 4335 L
6255 4335 mt 6201 4335 L
 631 4379 mt 
(25.5) s
 899 4055 mt  952 4055 L
6255 4055 mt 6201 4055 L
 731 4099 mt 
(26) s
 899 3775 mt  952 3775 L
6255 3775 mt 6201 3775 L
 631 3819 mt 
(26.5) s
 899 3496 mt  952 3496 L
6255 3496 mt 6201 3496 L
 731 3540 mt 
(27) s
 899 4615 mt 6255 4615 L
 899 3496 mt 6255 3496 L
 899 4615 mt  899 3496 L
6255 4615 mt 6255 3496 L
gs 899 3496 5357 1120 MR c np
36 -24 36 -7 36 -28 35 -24 36 -7 36 -25 35 -8 36 -25 
36 -9 36 -31 35 -29 36 -24 36 6 35 -3 36 -28 36 -15 
36 46 35 -3 36 -30 36 -21 35 14 36 47 36 2 35 9 
36 41 36 -26 36 -6 35 -11 36 -27 36 -11 35 -16 36 -20 
36 -24 36 -30 35 -24 36 -31 36 -25 35 -31 36 -27 36 -33 
35 -33 36 -32 36 -33 36 -34 35 -33 36 -33 36 -33 35 -28 
36 -11 36 56 36 54 35 41 36 -17 36 43 35 -11 36 40 
36 -27 35 -7 36 56 36 45 36 -4 35 56 36 44 36 -12 
35 57 36 42 36 -26 36 -15 35 43 36 -24 36 -6 35 46 
36 -14 36 43 35 -27 36 -22 36 -24 36 -24 35 -13 36 44 
36 -25 35 -24 36 -11 36 45 36 -23 35 -8 36 61 36 49 
35 -10 36 48 36 -18 36 -6 35 63 36 52 36 -7 35 52 
36 -7 36 52 35 -15 2720 3821 100 MP stroke
36 -21 36 -21 36 -20 35 -17 36 0 36 -17 35 4 36 -20 
36 -14 36 14 35 7 36 -21 36 -15 35 8 36 -17 36 4 
35 -22 36 -23 36 -20 36 -14 35 19 36 12 36 -13 35 22 
36 21 36 17 36 12 35 10 36 7 36 -16 35 9 36 -17 
36 9 35 -25 36 -23 36 -15 36 25 35 14 36 -25 36 -17 
35 28 36 29 36 30 36 28 35 13 36 -26 36 -20 35 -1 
36 93 36 78 934 3768 51 MP stroke
DD
c8
36 0 36 0 36 0 35 0 36 0 36 0 35 0 36 0 
36 0 36 0 35 0 36 0 36 0 35 0 36 0 36 0 
36 0 35 0 36 0 36 0 35 0 36 0 36 0 35 0 
36 0 36 0 36 0 35 0 36 0 36 0 35 0 36 0 
36 0 36 0 35 0 36 0 36 0 35 0 36 0 36 0 
35 0 36 0 36 0 36 0 35 0 36 0 36 0 35 0 
36 0 36 0 36 0 35 0 36 0 36 0 35 0 36 0 
36 0 35 0 36 0 36 0 36 0 35 0 36 0 36 0 
35 0 36 0 36 0 36 0 35 0 36 0 36 0 35 0 
36 0 36 0 35 0 36 0 36 0 36 0 35 0 36 0 
36 0 35 0 36 0 36 0 36 0 35 0 36 0 36 0 
35 0 36 0 36 0 36 0 35 0 36 0 36 0 35 0 
36 0 36 0 35 0 2720 4055 100 MP stroke
36 0 36 0 36 0 35 0 36 0 36 0 35 0 36 0 
36 0 36 0 35 0 36 0 36 0 35 0 36 0 36 0 
35 0 36 0 36 0 36 0 35 0 36 0 36 0 35 0 
36 0 36 0 36 0 35 0 36 0 36 0 35 0 36 0 
36 0 35 0 36 0 36 0 36 0 35 0 36 0 36 0 
35 0 36 0 36 0 36 0 35 0 36 0 36 0 35 0 
36 0 36 0 934 4055 51 MP stroke
gr

c8
DD
0 sg
2889 4903 mt 
(time \(30 second intervals\)) s
 549 4479 mt  -90 rotate
(temperature \(C\)) s
90 rotate
 870 4670 mt 
( ) s
6227 3550 mt 
( ) s
SO
1 sg
0 342 1733 0 0 -342 1124 4555 4 MP
PP
-1733 0 0 342 1733 0 0 -342 1124 4555 5 MP stroke
4 w
DO
SO
6 w
0 sg
1124 4555 mt 2857 4555 L
1124 4213 mt 2857 4213 L
1124 4555 mt 1124 4213 L
2857 4555 mt 2857 4213 L
1124 4555 mt 2857 4555 L
1124 4555 mt 1124 4213 L
1124 4555 mt 2857 4555 L
1124 4213 mt 2857 4213 L
1124 4555 mt 1124 4213 L
2857 4555 mt 2857 4213 L
1592 4351 mt 
(actual temperature) s
gs 1124 4213 1734 343 MR c np
360 0 1196 4309 2 MP stroke
gr

1592 4502 mt 
(reference temperature) s
gs 1124 4213 1734 343 MR c np
DD
c8
360 0 1196 4459 2 MP stroke
SO
gr

c8

end %%Color Dict

eplot
%%EndObject

epage
end

showpage

%%Trailer
%%EOF
