1705.6629 281967.42 0.0
1690.212 269652.03 6.0
666.26593 283958.36 75.0
957.32557 231924.89 52.0
685.61992 249187.2 77.0
1429.212 281433.52 8.0
672.32557 262332.44 85.0
672.32557 237891.1 98.0
763.64637 281478.18 10.0
