  0.0000000e+000  4.0003683e-003  0.0000000e+000
  0.0000000e+000  3.9109957e-003  0.0000000e+000
  0.0000000e+000  4.0003683e-003  0.0000000e+000
  0.0000000e+000  4.0003683e-003  0.0000000e+000
  0.0000000e+000  4.0003683e-003  0.0000000e+000
  0.0000000e+000  4.0003683e-003  0.0000000e+000
  0.0000000e+000  4.0003683e-003  0.0000000e+000
  0.0000000e+000  4.0003683e-003  0.0000000e+000
  0.0000000e+000  4.0135931e-003  0.0000000e+000
  0.0000000e+000  4.0003683e-003  0.0000000e+000
  0.0000000e+000  4.0003683e-003  0.0000000e+000
  0.0000000e+000  3.8342571e-003  0.0000000e+000
  0.0000000e+000  4.0003683e-003  0.0000000e+000
  0.0000000e+000  4.0003683e-003  0.0000000e+000
  0.0000000e+000  3.9109957e-003  0.0000000e+000
  0.0000000e+000  4.0135931e-003  0.0000000e+000
  0.0000000e+000  4.9192962e-003  6.3440860e-001
  0.0000000e+000  5.1755082e-003  9.7701149e-001
  0.0000000e+000  4.0003683e-003  0.0000000e+000
  0.0000000e+000  4.0003683e-003  0.0000000e+000
