  2.5819206e-003  2.2204460e-016  3.4582133e-002
  0.0000000e+000  5.4050370e-004  7.6439284e-002
  3.1412328e-003  2.2204460e-016  4.7000618e-002
  2.7603010e-003  1.7275646e-004  1.2044818e-001
  2.2206906e-003  4.8350675e-004  8.1818182e-002
  1.3065058e-003  0.0000000e+000  0.0000000e+000
  2.4587935e-003  0.0000000e+000  0.0000000e+000
  8.5179356e-003  2.2204460e-016  7.2580645e-002
  1.0532240e-002  8.5861490e-004  9.4945055e-002
  5.9608609e-003  1.6764242e-004  9.7271649e-002
  3.2892482e-003  0.0000000e+000  5.9347181e-003
  0.0000000e+000  5.2675906e-004  8.7948789e-002
  1.5729926e-003  5.8929440e-004  6.8642746e-002
  6.9212172e-004  5.8172876e-004  7.1873503e-002
  0.0000000e+000  4.9096578e-004  8.0739104e-002
  1.1072899e-003  2.9999057e-004  4.1398344e-002
  1.1674872e-002  0.0000000e+000  1.1363636e-001
  6.2045500e-003  1.3820023e-004  6.5279770e-002
  4.4698376e-003  4.2386981e-004  5.4430380e-002
  7.1213483e-003  0.0000000e+000  0.0000000e+000
  6.0370000e-003  2.9176496e-004  5.7306590e-002
  8.7549026e-003  5.3860925e-004  6.8726937e-002
  1.2876343e-003  2.4676689e-004  4.1060535e-002
  0.0000000e+000  4.9149065e-004  8.1692338e-002
