  1.2228911e-002  1.3793928e-003  6.1960497e-001
  6.0371024e-003  0.0000000e+000  2.2903226e-001
  1.4200677e-002  1.3280544e-003  3.6810907e-001
  1.4406767e-002  2.2389861e-003  2.8567883e-001
  1.3025800e-002  1.3441386e-003  4.2112125e-001
  5.2492061e-003  0.0000000e+000  3.8795181e-001
  8.4714905e-003  1.0243745e-003  2.0718563e-001
  1.3781299e-002  1.0257342e-003  2.7212020e-001
  8.6118161e-003  6.2359847e-004  3.6930295e-001
  8.0589490e-003  8.2749762e-004  2.0147010e-001
  2.7665455e-003  0.0000000e+000  2.8111274e-001
  1.1457266e-002  3.5019948e-004  1.3946360e-001
  5.8217255e-003  1.1517726e-003  4.0579710e-001
  2.4430039e-002  1.0226613e-003  2.9362466e-001
  1.0671894e-002  6.1684716e-004  7.0414201e-001
  1.6882827e-002  9.8426500e-004  1.7095851e-001
  7.4322422e-003  0.0000000e+000  4.3564356e-001
  1.8276676e-002  1.6545939e-003  2.7345845e-001
  1.0735586e-002  3.8031211e-005  4.3127962e-001
  2.3281850e-002  7.8114851e-004  2.9974326e-001
  8.7578634e-003  1.3194652e-003  3.1489477e-001
  6.7302641e-003  1.3133487e-003  1.6186693e-001
  1.1002418e-002  8.2588391e-004  6.2500000e-001
  3.0003274e-003  5.2342095e-004  1.4627798e-001
  1.4964702e-002  1.0246774e-003  3.2025316e-001
  6.5292633e-003  2.2204460e-016  5.0420168e-001
  1.8517190e-002  1.7607335e-003  3.2639096e-001
  2.0796192e-002  5.1477055e-004  3.3437500e-001
  8.0857186e-003  6.2167215e-004  1.7926635e-001
  0.0000000e+000  0.0000000e+000  0.0000000e+000
  5.1538657e-003  1.0776355e-004  2.1931260e-001
  1.5187557e-002  6.3072789e-004  0.0000000e+000
  1.3549813e-002  1.3072012e-003  2.7073625e-001
  8.8095426e-003  1.0589775e-004  2.3155216e-001
  0.0000000e+000  0.0000000e+000  0.0000000e+000
  1.7772016e-002  5.9774118e-004  6.0000000e-001
  8.5697089e-003  1.4172086e-004  2.7973856e-001
  4.4177848e-003  1.4106298e-004  2.0373250e-001
  1.3620299e-002  2.2204460e-016  5.7142857e-001
  2.4236534e-002  5.4292597e-004  3.7478705e-001
  5.0345034e-003  0.0000000e+000  3.7351779e-001
  0.0000000e+000  0.0000000e+000  0.0000000e+000
