  1.8400000e+002  1.1882000e+003  0.0000000e+000
  9.6000000e+001  9.0820000e+002  0.0000000e+000
  6.7211859e+000  1.7059600e+003  1.4740000e+003
  6.7211859e+000  2.5530400e+003  1.2200000e+003
  1.5200000e+002  9.0820000e+002  0.0000000e+000
  2.1949200e+001  9.9416000e+002  6.4200000e+002
  2.0800000e+002  6.0720000e+002  4.1000000e+001
  8.0000000e+000  2.9180000e+002  2.9000000e+001
  6.7211859e+000  8.9240000e+001  4.2600000e+002
  2.7564245e+001  7.2856000e+002  8.8400000e+002
  1.9200000e+002  1.0576400e+003  2.4000000e+001
  4.9600000e+002  1.4410400e+003  1.0000000e+001
  4.0000000e+001  4.7760000e+002  2.7100000e+002
  3.8173121e+002  3.3052000e+002  1.8500000e+002
  3.2354465e+002  3.2532000e+002  2.9700000e+002
  1.9554465e+002  3.5908000e+002  4.8500000e+002
  3.7949200e+001  1.6408000e+002  1.0900000e+002
  4.1600000e+002  9.5636000e+002  3.0000000e+001
  3.2000000e+001  2.6772000e+002  3.0000000e+001
  1.2672119e+002  3.0360000e+002  6.9300000e+002
