  3.2243178e-002  2.7466576e-003  0.0000000e+000
  5.8778068e-003  1.2438488e-003  1.0388640e-001
  0.0000000e+000  1.8777115e-002  4.9803751e-001
  7.2588274e-001  7.7619254e-003  2.6980809e-001
  3.2780564e-002  2.7245284e-003  0.0000000e+000
  5.9483287e-002  3.2427947e-004  2.6436782e-001
  3.8198105e-002  9.1239767e-004  3.0462185e-001
  1.2857248e-002  4.9310524e-003  1.2154696e-001
  3.3589748e-002  1.5384656e-003  0.0000000e+000
  0.0000000e+000  1.9031345e-003  3.7636761e-001
  3.6712392e-002  1.3257474e-003  0.0000000e+000
  4.4400840e-001  4.9712209e-004  1.1642471e-001
  6.2616420e-002  2.4138477e-003  3.5392535e-001
  2.1074680e-002  1.4767575e-003  5.8823529e-001
  1.1265638e-002  2.0677778e-003  1.3056093e-001
  2.0760736e-002  3.0698653e-003  5.0000000e-001
  7.3472585e-003  1.0607653e-003  9.9028401e-002
  0.0000000e+000  1.5321155e-003  2.4329382e-001
  1.0000000e+000  3.0288227e-003  3.5851611e-001
  5.7345905e-002  4.2535160e-005  1.1138614e-001
