  8.8000000e+001  0.0000000e+000  1.9800000e+002
  1.4400000e+002  1.1641532e-010  3.1000000e+002
  2.4800000e+002  0.0000000e+000  3.5600000e+002
  6.4000000e+001  1.1641532e-010  1.4600000e+002
  2.2400000e+002  1.1641532e-010  2.8000000e+002
  1.8400000e+002  1.9548000e+002  1.4600000e+002
  2.5600000e+002  0.0000000e+000  2.6600000e+002
  2.0800000e+002  2.3283064e-010  2.7400000e+002
  1.9200000e+002  2.1720000e+001  1.7400000e+002
  7.9000000e+000  0.0000000e+000  5.5000000e+001
  1.8400000e+002  2.3892000e+002  1.8100000e+002
  4.8000000e+001  2.3283064e-010  2.0000000e+002
  1.2000000e+002  2.1720000e+002  1.0700000e+002
  1.8400000e+002  0.0000000e+000  2.8100000e+002
  1.6000000e+001  1.1641532e-010  6.1000000e+001
  1.9200000e+002  0.0000000e+000  3.2300000e+002
  6.4000000e+001  8.6880000e+001  6.5000000e+001
  8.8000000e+001  2.1720000e+001  1.4600000e+002
  1.6000000e+001  1.1641532e-010  9.8000000e+001
  4.4800000e+002  0.0000000e+000  3.2600000e+002
  1.3600000e+002  1.1641532e-010  2.9100000e+002
  4.0000000e+001  2.3283064e-010  5.3000000e+001
  1.1200000e+002  0.0000000e+000  1.1300000e+002
  8.8000000e+001  2.3283064e-010  1.7700000e+002
  9.6000000e+001  8.6880000e+001  7.2000000e+001
  1.8400000e+002  1.1641532e-010  3.1100000e+002
  1.6000000e+001  1.1641532e-010  8.5000000e+001
  2.3200000e+002  2.3892000e+002  1.9100000e+002
  2.9600000e+002  2.1720000e+002  0.0000000e+000
  2.0000000e+002  1.1641532e-010  2.9600000e+002
  1.3820000e+002  2.3283064e-010  3.2100000e+002
  2.0000000e+002  1.1641532e-010  1.8500000e+002
  1.6800000e+002  2.3283064e-010  3.4000000e+002
  3.3600000e+002  3.4752000e+002  1.3000000e+001
