  4.5399000e+003  6.3461578e+005  2.2560000e+003
  6.1413000e+003  6.6136405e+005  1.0940000e+003
  8.7014000e+003  7.0598339e+005  1.1400000e+002
  5.5555000e+003  6.4906812e+005  1.5320000e+003
  4.9224000e+003  6.4698238e+005  1.7740000e+003
  5.9780000e+003  6.6151235e+005  1.1830000e+003
  5.2147000e+003  6.4827024e+005  1.7300000e+003
  8.2489000e+003  6.9127410e+005  2.5800000e+002
  6.3078000e+003  6.6207192e+005  9.7500000e+002
  7.6052000e+003  6.7781778e+005  5.0300000e+002
  4.5647000e+003  6.3746929e+005  2.2090000e+003
  6.4650000e+003  6.6263636e+005  8.5500000e+002
  9.2256000e+003  7.1920451e+005  2.1000000e+001
  1.1446100e+004  7.5924965e+005  0.0000000e+000
