  1.3267103e-002  2.9041887e-004  8.2872928e-002
  1.0581777e-002  3.3306691e-016  5.5379747e-002
  1.0237732e-002  2.6539962e-004  2.7504912e-002
  8.4214072e-004  1.1102230e-016  2.6966292e-002
  9.2181829e-003  2.3733035e-004  1.9646365e-003
  1.2012012e-002  2.5905315e-004  4.4074074e-001
  2.2083949e-002  2.5372471e-004  5.6204380e-001
  1.1759063e-002  4.4520949e-004  6.8027211e-001
  1.0029747e-002  1.1102230e-016  6.4383562e-002
  8.4614300e-003  1.1102230e-016  5.3177691e-002
  1.0617825e-002  2.3466295e-004  3.0379747e-002
  1.2336279e-002  2.6437735e-004  2.6004728e-002
  7.0593080e-003  1.4431749e-004  3.9393939e-001
  1.4543736e-002  3.4442147e-004  6.1340206e-001
  1.1239586e-002  0.0000000e+000  5.9322034e-002
  8.7475193e-003  3.2501206e-004  9.0540541e-001
  5.6961394e-003  0.0000000e+000  9.2686459e-002
  1.1235381e-002  1.1102230e-016  8.4153005e-002
  1.0452787e-002  2.3125799e-004  2.2702703e-001
  1.6941974e-002  1.1102230e-016  3.2325142e-001
  1.1117596e-002  3.3306691e-016  8.5667216e-002
  8.1146484e-003  3.3306691e-016  4.0856031e-002
  1.2629943e-002  3.3306691e-016  8.0820265e-002
  9.5579450e-003  1.1102230e-016  5.4892601e-002
  1.5445838e-002  5.9857322e-004  0.0000000e+000
  1.2879257e-002  5.7393356e-004  6.5217391e-001
  1.1819957e-002  1.1854432e-004  1.7955801e-002
  3.9782390e-003  1.4532353e-004  1.1655012e-002
  7.6946753e-003  5.7667397e-005  2.9896907e-001
  7.0713717e-003  2.0684854e-004  1.8115942e-002
